
/media/sf_PartageVB/timingml/trunk/benchmarks/ns/ns.ko:     file format elf32-littlearm


Disassembly of section .text:

00000000 <ccnt_read>:
   0:	e1a0c00d 	mov	ip, sp
   4:	e92dd800 	push	{fp, ip, lr, pc}
   8:	e24cb004 	sub	fp, ip, #4
   c:	e24dd008 	sub	sp, sp, #8
  10:	e50b0010 	str	r0, [fp, #-16]
  14:	ee192f1d 	mrc	15, 0, r2, cr9, cr13, {0}
  18:	e51b3010 	ldr	r3, [fp, #-16]
  1c:	e5832000 	str	r2, [r3]
  20:	e24bd00c 	sub	sp, fp, #12
  24:	e89da800 	ldm	sp, {fp, sp, pc}

00000028 <irq_enable>:
  28:	e1a0c00d 	mov	ip, sp
  2c:	e92dd800 	push	{fp, ip, lr, pc}
  30:	e24cb004 	sub	fp, ip, #4
  34:	f1080080 	cpsie	i
  38:	e89da800 	ldm	sp, {fp, sp, pc}

0000003c <irq_disable>:
  3c:	e1a0c00d 	mov	ip, sp
  40:	e92dd800 	push	{fp, ip, lr, pc}
  44:	e24cb004 	sub	fp, ip, #4
  48:	f10c0080 	cpsid	i
  4c:	e89da800 	ldm	sp, {fp, sp, pc}

00000050 <foo>:
  50:	e1a0c00d 	mov	ip, sp
  54:	e92dd800 	push	{fp, ip, lr, pc}
  58:	e24cb004 	sub	fp, ip, #4
  5c:	e24dd020 	sub	sp, sp, #32
  60:	e52de004 	push	{lr}		; (str lr, [sp, #-4]!)
  64:	ebfffffe 	bl	0 <__gnu_mcount_nc>
  68:	e50b0028 	str	r0, [fp, #-40]	; 0x28
  6c:	e3e03000 	mvn	r3, #0
  70:	e50b3010 	str	r3, [fp, #-16]
  74:	e3a03000 	mov	r3, #0
  78:	e50b3020 	str	r3, [fp, #-32]
  7c:	ea000064 	b	214 <foo+0x1c4>
  80:	e3a03000 	mov	r3, #0
  84:	e50b301c 	str	r3, [fp, #-28]
  88:	ea00005b 	b	1fc <foo+0x1ac>
  8c:	e3a03000 	mov	r3, #0
  90:	e50b3018 	str	r3, [fp, #-24]
  94:	ea000052 	b	1e4 <foo+0x194>
  98:	e3a03000 	mov	r3, #0
  9c:	e50b3014 	str	r3, [fp, #-20]
  a0:	ea000049 	b	1cc <foo+0x17c>
  a4:	e59fc184 	ldr	ip, [pc, #388]	; 230 <foo+0x1e0>
  a8:	e51b3018 	ldr	r3, [fp, #-24]
  ac:	e51b001c 	ldr	r0, [fp, #-28]
  b0:	e51b1020 	ldr	r1, [fp, #-32]
  b4:	e1a02003 	mov	r2, r3
  b8:	e1a02102 	lsl	r2, r2, #2
  bc:	e0822003 	add	r2, r2, r3
  c0:	e1a03001 	mov	r3, r1
  c4:	e1a03283 	lsl	r3, r3, #5
  c8:	e0613003 	rsb	r3, r1, r3
  cc:	e1a03103 	lsl	r3, r3, #2
  d0:	e0833001 	add	r3, r3, r1
  d4:	e0822003 	add	r2, r2, r3
  d8:	e1a03000 	mov	r3, r0
  dc:	e1a03103 	lsl	r3, r3, #2
  e0:	e0833000 	add	r3, r3, r0
  e4:	e1a01103 	lsl	r1, r3, #2
  e8:	e0833001 	add	r3, r3, r1
  ec:	e0822003 	add	r2, r2, r3
  f0:	e51b3014 	ldr	r3, [fp, #-20]
  f4:	e0823003 	add	r3, r2, r3
  f8:	e79c2103 	ldr	r2, [ip, r3, lsl #2]
  fc:	e51b3028 	ldr	r3, [fp, #-40]	; 0x28
 100:	e1520003 	cmp	r2, r3
 104:	1a00002d 	bne	1c0 <foo+0x170>
 108:	e59fc124 	ldr	ip, [pc, #292]	; 234 <foo+0x1e4>
 10c:	e51b3018 	ldr	r3, [fp, #-24]
 110:	e51b001c 	ldr	r0, [fp, #-28]
 114:	e51b1020 	ldr	r1, [fp, #-32]
 118:	e1a02003 	mov	r2, r3
 11c:	e1a02102 	lsl	r2, r2, #2
 120:	e0822003 	add	r2, r2, r3
 124:	e1a03001 	mov	r3, r1
 128:	e1a03283 	lsl	r3, r3, #5
 12c:	e0613003 	rsb	r3, r1, r3
 130:	e1a03103 	lsl	r3, r3, #2
 134:	e0833001 	add	r3, r3, r1
 138:	e0822003 	add	r2, r2, r3
 13c:	e1a03000 	mov	r3, r0
 140:	e1a03103 	lsl	r3, r3, #2
 144:	e0833000 	add	r3, r3, r0
 148:	e1a01103 	lsl	r1, r3, #2
 14c:	e0833001 	add	r3, r3, r1
 150:	e0822003 	add	r2, r2, r3
 154:	e51b3014 	ldr	r3, [fp, #-20]
 158:	e0823003 	add	r3, r2, r3
 15c:	e79cc103 	ldr	ip, [ip, r3, lsl #2]
 160:	e59fe0c8 	ldr	lr, [pc, #200]	; 230 <foo+0x1e0>
 164:	e51b3018 	ldr	r3, [fp, #-24]
 168:	e51b001c 	ldr	r0, [fp, #-28]
 16c:	e51b1020 	ldr	r1, [fp, #-32]
 170:	e1a02003 	mov	r2, r3
 174:	e1a02102 	lsl	r2, r2, #2
 178:	e0822003 	add	r2, r2, r3
 17c:	e1a03001 	mov	r3, r1
 180:	e1a03283 	lsl	r3, r3, #5
 184:	e0613003 	rsb	r3, r1, r3
 188:	e1a03103 	lsl	r3, r3, #2
 18c:	e0833001 	add	r3, r3, r1
 190:	e0822003 	add	r2, r2, r3
 194:	e1a03000 	mov	r3, r0
 198:	e1a03103 	lsl	r3, r3, #2
 19c:	e0833000 	add	r3, r3, r0
 1a0:	e1a01103 	lsl	r1, r3, #2
 1a4:	e0833001 	add	r3, r3, r1
 1a8:	e0822003 	add	r2, r2, r3
 1ac:	e51b3014 	ldr	r3, [fp, #-20]
 1b0:	e0823003 	add	r3, r2, r3
 1b4:	e79e3103 	ldr	r3, [lr, r3, lsl #2]
 1b8:	e08c3003 	add	r3, ip, r3
 1bc:	ea000018 	b	224 <foo+0x1d4>
 1c0:	e51b3014 	ldr	r3, [fp, #-20]
 1c4:	e2833001 	add	r3, r3, #1
 1c8:	e50b3014 	str	r3, [fp, #-20]
 1cc:	e51b3014 	ldr	r3, [fp, #-20]
 1d0:	e3530004 	cmp	r3, #4
 1d4:	daffffb2 	ble	a4 <foo+0x54>
 1d8:	e51b3018 	ldr	r3, [fp, #-24]
 1dc:	e2833001 	add	r3, r3, #1
 1e0:	e50b3018 	str	r3, [fp, #-24]
 1e4:	e51b3018 	ldr	r3, [fp, #-24]
 1e8:	e3530004 	cmp	r3, #4
 1ec:	daffffa9 	ble	98 <foo+0x48>
 1f0:	e51b301c 	ldr	r3, [fp, #-28]
 1f4:	e2833001 	add	r3, r3, #1
 1f8:	e50b301c 	str	r3, [fp, #-28]
 1fc:	e51b301c 	ldr	r3, [fp, #-28]
 200:	e3530004 	cmp	r3, #4
 204:	daffffa0 	ble	8c <foo+0x3c>
 208:	e51b3020 	ldr	r3, [fp, #-32]
 20c:	e2833001 	add	r3, r3, #1
 210:	e50b3020 	str	r3, [fp, #-32]
 214:	e51b3020 	ldr	r3, [fp, #-32]
 218:	e3530004 	cmp	r3, #4
 21c:	daffff97 	ble	80 <foo+0x30>
 220:	e51b3010 	ldr	r3, [fp, #-16]
 224:	e1a00003 	mov	r0, r3
 228:	e24bd00c 	sub	sp, fp, #12
 22c:	e89da800 	ldm	sp, {fp, sp, pc}
 230:	00000000 	.word	0x00000000
 234:	00000000 	.word	0x00000000

00000238 <the_code>:
 238:	e1a0c00d 	mov	ip, sp
 23c:	e92dd800 	push	{fp, ip, lr, pc}
 240:	e24cb004 	sub	fp, ip, #4
 244:	e52de004 	push	{lr}		; (str lr, [sp, #-4]!)
 248:	ebfffffe 	bl	0 <__gnu_mcount_nc>
 24c:	e3a03000 	mov	r3, #0
 250:	e1a00003 	mov	r0, r3
 254:	e89da800 	ldm	sp, {fp, sp, pc}

00000258 <function>:
 258:	e1a0c00d 	mov	ip, sp
 25c:	e92dd800 	push	{fp, ip, lr, pc}
 260:	e24cb004 	sub	fp, ip, #4
 264:	e24dd010 	sub	sp, sp, #16
 268:	e52de004 	push	{lr}		; (str lr, [sp, #-4]!)
 26c:	ebfffffe 	bl	0 <__gnu_mcount_nc>
 270:	e24b301c 	sub	r3, fp, #28
 274:	e50b3014 	str	r3, [fp, #-20]
 278:	ee192f1d 	mrc	15, 0, r2, cr9, cr13, {0}
 27c:	e51b3014 	ldr	r3, [fp, #-20]
 280:	e5832000 	str	r2, [r3]
 284:	e24b3018 	sub	r3, fp, #24
 288:	e50b3010 	str	r3, [fp, #-16]
 28c:	ee192f1d 	mrc	15, 0, r2, cr9, cr13, {0}
 290:	e51b3010 	ldr	r3, [fp, #-16]
 294:	e5832000 	str	r2, [r3]
 298:	e51b201c 	ldr	r2, [fp, #-28]
 29c:	e51b3018 	ldr	r3, [fp, #-24]
 2a0:	e1520003 	cmp	r2, r3
 2a4:	9a000001 	bls	2b0 <function+0x58>
 2a8:	e59f0048 	ldr	r0, [pc, #72]	; 2f8 <function+0xa0>
 2ac:	ebfffffe 	bl	0 <printk>
 2b0:	e59f3044 	ldr	r3, [pc, #68]	; 2fc <function+0xa4>
 2b4:	e5932000 	ldr	r2, [r3]
 2b8:	e51b1018 	ldr	r1, [fp, #-24]
 2bc:	e51b301c 	ldr	r3, [fp, #-28]
 2c0:	e0633001 	rsb	r3, r3, r1
 2c4:	e59f0034 	ldr	r0, [pc, #52]	; 300 <function+0xa8>
 2c8:	e1a01002 	mov	r1, r2
 2cc:	e3a02000 	mov	r2, #0
 2d0:	ebfffffe 	bl	0 <printk>
 2d4:	e51b2018 	ldr	r2, [fp, #-24]
 2d8:	e51b301c 	ldr	r3, [fp, #-28]
 2dc:	e0633002 	rsb	r3, r3, r2
 2e0:	e1a02003 	mov	r2, r3
 2e4:	e3a03000 	mov	r3, #0
 2e8:	e1a00002 	mov	r0, r2
 2ec:	e1a01003 	mov	r1, r3
 2f0:	e24bd00c 	sub	sp, fp, #12
 2f4:	e89da800 	ldm	sp, {fp, sp, pc}
 2f8:	00000000 	.word	0x00000000
 2fc:	00001388 	.word	0x00001388
 300:	00000014 	.word	0x00000014

00000304 <timing_patch>:
 304:	e1a0c00d 	mov	ip, sp
 308:	e92dd800 	push	{fp, ip, lr, pc}
 30c:	e24cb004 	sub	fp, ip, #4
 310:	e24dd008 	sub	sp, sp, #8
 314:	e52de004 	push	{lr}		; (str lr, [sp, #-4]!)
 318:	ebfffffe 	bl	0 <__gnu_mcount_nc>
 31c:	e50b0010 	str	r0, [fp, #-16]
 320:	e1a0300d 	mov	r3, sp
 324:	e3c33d7f 	bic	r3, r3, #8128	; 0x1fc0
 328:	e3c3303f 	bic	r3, r3, #63	; 0x3f
 32c:	e5933010 	ldr	r3, [r3, #16]
 330:	e3530003 	cmp	r3, #3
 334:	0a000000 	beq	33c <timing_patch+0x38>
 338:	ea000000 	b	340 <timing_patch+0x3c>
 33c:	ebffffc5 	bl	258 <function>
 340:	e24bd00c 	sub	sp, fp, #12
 344:	e89da800 	ldm	sp, {fp, sp, pc}

00000348 <init_module>:
 348:	e1a0c00d 	mov	ip, sp
 34c:	e92dd800 	push	{fp, ip, lr, pc}
 350:	e24cb004 	sub	fp, ip, #4
 354:	e52de004 	push	{lr}		; (str lr, [sp, #-4]!)
 358:	ebfffffe 	bl	0 <__gnu_mcount_nc>
 35c:	e59f0014 	ldr	r0, [pc, #20]	; 378 <init_module+0x30>
 360:	e3a01000 	mov	r1, #0
 364:	e3a02001 	mov	r2, #1
 368:	ebfffffe 	bl	0 <on_each_cpu>
 36c:	e3a03000 	mov	r3, #0
 370:	e1a00003 	mov	r0, r3
 374:	e89da800 	ldm	sp, {fp, sp, pc}
 378:	00000000 	.word	0x00000000

0000037c <cleanup_module>:
 37c:	e1a0c00d 	mov	ip, sp
 380:	e92dd800 	push	{fp, ip, lr, pc}
 384:	e24cb004 	sub	fp, ip, #4
 388:	e52de004 	push	{lr}		; (str lr, [sp, #-4]!)
 38c:	ebfffffe 	bl	0 <__gnu_mcount_nc>
 390:	e89da800 	ldm	sp, {fp, sp, pc}
