
/media/sf_PartageVB/timingml/trunk/benchmarks/bs/bs.ko:     file format elf32-littlearm


Disassembly of section .text:

00000000 <ccnt_read>:
   0:	e1a0c00d 	mov	ip, sp
   4:	e92dd800 	push	{fp, ip, lr, pc}
   8:	e24cb004 	sub	fp, ip, #4
   c:	e24dd008 	sub	sp, sp, #8
  10:	e50b0010 	str	r0, [fp, #-16]
  14:	ee192f1d 	mrc	15, 0, r2, cr9, cr13, {0}
  18:	e51b3010 	ldr	r3, [fp, #-16]
  1c:	e5832000 	str	r2, [r3]
  20:	e24bd00c 	sub	sp, fp, #12
  24:	e89da800 	ldm	sp, {fp, sp, pc}

00000028 <irq_enable>:
  28:	e1a0c00d 	mov	ip, sp
  2c:	e92dd800 	push	{fp, ip, lr, pc}
  30:	e24cb004 	sub	fp, ip, #4
  34:	f1080080 	cpsie	i
  38:	e89da800 	ldm	sp, {fp, sp, pc}

0000003c <irq_disable>:
  3c:	e1a0c00d 	mov	ip, sp
  40:	e92dd800 	push	{fp, ip, lr, pc}
  44:	e24cb004 	sub	fp, ip, #4
  48:	f10c0080 	cpsid	i
  4c:	e89da800 	ldm	sp, {fp, sp, pc}

00000050 <binary_search>:
  50:	e1a0c00d 	mov	ip, sp
  54:	e92dd800 	push	{fp, ip, lr, pc}
  58:	e24cb004 	sub	fp, ip, #4
  5c:	e24dd018 	sub	sp, sp, #24
  60:	e52de004 	push	{lr}		; (str lr, [sp, #-4]!)
  64:	ebfffffe 	bl	0 <__gnu_mcount_nc>
  68:	e50b0020 	str	r0, [fp, #-32]
  6c:	e3a03000 	mov	r3, #0
  70:	e50b3014 	str	r3, [fp, #-20]
  74:	e3a0300e 	mov	r3, #14
  78:	e50b3018 	str	r3, [fp, #-24]
  7c:	e3e03000 	mvn	r3, #0
  80:	e50b301c 	str	r3, [fp, #-28]
  84:	ea000028 	b	12c <binary_search+0xdc>
  88:	e51b2014 	ldr	r2, [fp, #-20]
  8c:	e51b3018 	ldr	r3, [fp, #-24]
  90:	e0823003 	add	r3, r2, r3
  94:	e1a030c3 	asr	r3, r3, #1
  98:	e50b3010 	str	r3, [fp, #-16]
  9c:	e59f30a8 	ldr	r3, [pc, #168]	; 14c <binary_search+0xfc>
  a0:	e51b2010 	ldr	r2, [fp, #-16]
  a4:	e7932182 	ldr	r2, [r3, r2, lsl #3]
  a8:	e51b3020 	ldr	r3, [fp, #-32]
  ac:	e1520003 	cmp	r2, r3
  b0:	1a00000b 	bne	e4 <binary_search+0x94>
  b4:	e51b3014 	ldr	r3, [fp, #-20]
  b8:	e2433001 	sub	r3, r3, #1
  bc:	e50b3018 	str	r3, [fp, #-24]
  c0:	e59f1084 	ldr	r1, [pc, #132]	; 14c <binary_search+0xfc>
  c4:	e51b2010 	ldr	r2, [fp, #-16]
  c8:	e3a03004 	mov	r3, #4
  cc:	e1a02182 	lsl	r2, r2, #3
  d0:	e0812002 	add	r2, r1, r2
  d4:	e0823003 	add	r3, r2, r3
  d8:	e5933000 	ldr	r3, [r3]
  dc:	e50b301c 	str	r3, [fp, #-28]
  e0:	ea00000c 	b	118 <binary_search+0xc8>
  e4:	e59f3060 	ldr	r3, [pc, #96]	; 14c <binary_search+0xfc>
  e8:	e51b2010 	ldr	r2, [fp, #-16]
  ec:	e7932182 	ldr	r2, [r3, r2, lsl #3]
  f0:	e51b3020 	ldr	r3, [fp, #-32]
  f4:	e1520003 	cmp	r2, r3
  f8:	da000003 	ble	10c <binary_search+0xbc>
  fc:	e51b3010 	ldr	r3, [fp, #-16]
 100:	e2433001 	sub	r3, r3, #1
 104:	e50b3018 	str	r3, [fp, #-24]
 108:	ea000002 	b	118 <binary_search+0xc8>
 10c:	e51b3010 	ldr	r3, [fp, #-16]
 110:	e2833001 	add	r3, r3, #1
 114:	e50b3014 	str	r3, [fp, #-20]
 118:	e59f3030 	ldr	r3, [pc, #48]	; 150 <binary_search+0x100>
 11c:	e5933000 	ldr	r3, [r3]
 120:	e2832001 	add	r2, r3, #1
 124:	e59f3024 	ldr	r3, [pc, #36]	; 150 <binary_search+0x100>
 128:	e5832000 	str	r2, [r3]
 12c:	e51b2014 	ldr	r2, [fp, #-20]
 130:	e51b3018 	ldr	r3, [fp, #-24]
 134:	e1520003 	cmp	r2, r3
 138:	daffffd2 	ble	88 <binary_search+0x38>
 13c:	e51b301c 	ldr	r3, [fp, #-28]
 140:	e1a00003 	mov	r0, r3
 144:	e24bd00c 	sub	sp, fp, #12
 148:	e89da800 	ldm	sp, {fp, sp, pc}
 14c:	00000000 	.word	0x00000000
 150:	00000000 	.word	0x00000000

00000154 <the_code>:
 154:	e1a0c00d 	mov	ip, sp
 158:	e92dd800 	push	{fp, ip, lr, pc}
 15c:	e24cb004 	sub	fp, ip, #4
 160:	e52de004 	push	{lr}		; (str lr, [sp, #-4]!)
 164:	ebfffffe 	bl	0 <__gnu_mcount_nc>
 168:	e3a00008 	mov	r0, #8
 16c:	ebfffffe 	bl	50 <binary_search>
 170:	e3a03000 	mov	r3, #0
 174:	e1a00003 	mov	r0, r3
 178:	e89da800 	ldm	sp, {fp, sp, pc}

0000017c <function>:
 17c:	e1a0c00d 	mov	ip, sp
 180:	e92dd800 	push	{fp, ip, lr, pc}
 184:	e24cb004 	sub	fp, ip, #4
 188:	e24dd010 	sub	sp, sp, #16
 18c:	e52de004 	push	{lr}		; (str lr, [sp, #-4]!)
 190:	ebfffffe 	bl	0 <__gnu_mcount_nc>
 194:	e24b301c 	sub	r3, fp, #28
 198:	e50b3014 	str	r3, [fp, #-20]
 19c:	ee192f1d 	mrc	15, 0, r2, cr9, cr13, {0}
 1a0:	e51b3014 	ldr	r3, [fp, #-20]
 1a4:	e5832000 	str	r2, [r3]
 1a8:	ebfffffe 	bl	154 <the_code>
 1ac:	e24b3018 	sub	r3, fp, #24
 1b0:	e50b3010 	str	r3, [fp, #-16]
 1b4:	ee192f1d 	mrc	15, 0, r2, cr9, cr13, {0}
 1b8:	e51b3010 	ldr	r3, [fp, #-16]
 1bc:	e5832000 	str	r2, [r3]
 1c0:	e51b201c 	ldr	r2, [fp, #-28]
 1c4:	e51b3018 	ldr	r3, [fp, #-24]
 1c8:	e1520003 	cmp	r2, r3
 1cc:	9a000001 	bls	1d8 <function+0x5c>
 1d0:	e59f0048 	ldr	r0, [pc, #72]	; 220 <function+0xa4>
 1d4:	ebfffffe 	bl	0 <printk>
 1d8:	e59f3044 	ldr	r3, [pc, #68]	; 224 <function+0xa8>
 1dc:	e5932000 	ldr	r2, [r3]
 1e0:	e51b1018 	ldr	r1, [fp, #-24]
 1e4:	e51b301c 	ldr	r3, [fp, #-28]
 1e8:	e0633001 	rsb	r3, r3, r1
 1ec:	e59f0034 	ldr	r0, [pc, #52]	; 228 <function+0xac>
 1f0:	e1a01002 	mov	r1, r2
 1f4:	e3a02000 	mov	r2, #0
 1f8:	ebfffffe 	bl	0 <printk>
 1fc:	e51b2018 	ldr	r2, [fp, #-24]
 200:	e51b301c 	ldr	r3, [fp, #-28]
 204:	e0633002 	rsb	r3, r3, r2
 208:	e1a02003 	mov	r2, r3
 20c:	e3a03000 	mov	r3, #0
 210:	e1a00002 	mov	r0, r2
 214:	e1a01003 	mov	r1, r3
 218:	e24bd00c 	sub	sp, fp, #12
 21c:	e89da800 	ldm	sp, {fp, sp, pc}
 220:	00000000 	.word	0x00000000
 224:	00000078 	.word	0x00000078
 228:	00000014 	.word	0x00000014

0000022c <timing_patch>:
 22c:	e1a0c00d 	mov	ip, sp
 230:	e92dd800 	push	{fp, ip, lr, pc}
 234:	e24cb004 	sub	fp, ip, #4
 238:	e24dd008 	sub	sp, sp, #8
 23c:	e52de004 	push	{lr}		; (str lr, [sp, #-4]!)
 240:	ebfffffe 	bl	0 <__gnu_mcount_nc>
 244:	e50b0010 	str	r0, [fp, #-16]
 248:	e1a0300d 	mov	r3, sp
 24c:	e3c33d7f 	bic	r3, r3, #8128	; 0x1fc0
 250:	e3c3303f 	bic	r3, r3, #63	; 0x3f
 254:	e5933010 	ldr	r3, [r3, #16]
 258:	e3530003 	cmp	r3, #3
 25c:	0a000000 	beq	264 <timing_patch+0x38>
 260:	ea000000 	b	268 <timing_patch+0x3c>
 264:	ebffffc4 	bl	17c <function>
 268:	e24bd00c 	sub	sp, fp, #12
 26c:	e89da800 	ldm	sp, {fp, sp, pc}

00000270 <init_module>:
 270:	e1a0c00d 	mov	ip, sp
 274:	e92dd800 	push	{fp, ip, lr, pc}
 278:	e24cb004 	sub	fp, ip, #4
 27c:	e52de004 	push	{lr}		; (str lr, [sp, #-4]!)
 280:	ebfffffe 	bl	0 <__gnu_mcount_nc>
 284:	e59f0014 	ldr	r0, [pc, #20]	; 2a0 <init_module+0x30>
 288:	e3a01000 	mov	r1, #0
 28c:	e3a02001 	mov	r2, #1
 290:	ebfffffe 	bl	0 <on_each_cpu>
 294:	e3a03000 	mov	r3, #0
 298:	e1a00003 	mov	r0, r3
 29c:	e89da800 	ldm	sp, {fp, sp, pc}
 2a0:	00000000 	.word	0x00000000

000002a4 <cleanup_module>:
 2a4:	e1a0c00d 	mov	ip, sp
 2a8:	e92dd800 	push	{fp, ip, lr, pc}
 2ac:	e24cb004 	sub	fp, ip, #4
 2b0:	e52de004 	push	{lr}		; (str lr, [sp, #-4]!)
 2b4:	ebfffffe 	bl	0 <__gnu_mcount_nc>
 2b8:	e89da800 	ldm	sp, {fp, sp, pc}
