[ 2587.522742] NAME=NONE; INDEX=0; RESULT=65137 
[ 2587.621158] NAME=NONE; INDEX=0; RESULT=65479 
[ 2587.741185] NAME=NONE; INDEX=0; RESULT=65301 
[ 2587.861149] NAME=NONE; INDEX=0; RESULT=65179 
[ 2588.001593] NAME=NONE; INDEX=0; RESULT=65197 
[ 2588.123398] NAME=NONE; INDEX=0; RESULT=65231 
[ 2588.238238] NAME=NONE; INDEX=0; RESULT=65146 
[ 2588.368110] NAME=NONE; INDEX=0; RESULT=65318 
[ 2588.516615] NAME=NONE; INDEX=0; RESULT=65072 
[ 2588.656697] NAME=NONE; INDEX=0; RESULT=65146 
[ 2588.798249] NAME=NONE; INDEX=0; RESULT=65265 
[ 2588.956921] NAME=NONE; INDEX=0; RESULT=64915 
[ 2589.098450] NAME=NONE; INDEX=0; RESULT=65229 
[ 2589.235175] NAME=NONE; INDEX=0; RESULT=65298 
[ 2589.377907] NAME=NONE; INDEX=0; RESULT=65374 
[ 2589.526824] NAME=NONE; INDEX=0; RESULT=65356 
[ 2589.656874] NAME=NONE; INDEX=0; RESULT=65208 
[ 2589.812126] NAME=NONE; INDEX=0; RESULT=64997 
[ 2589.923229] NAME=NONE; INDEX=0; RESULT=65210 
[ 2590.088415] NAME=NONE; INDEX=0; RESULT=64946 
[ 2590.238256] NAME=NONE; INDEX=0; RESULT=65167 
[ 2590.363255] NAME=NONE; INDEX=0; RESULT=65247 
[ 2590.483435] NAME=NONE; INDEX=0; RESULT=65299 
[ 2590.600736] NAME=NONE; INDEX=0; RESULT=65667 
[ 2590.733185] NAME=NONE; INDEX=0; RESULT=65501 
[ 2590.873431] NAME=NONE; INDEX=0; RESULT=65519 
[ 2590.976523] NAME=NONE; INDEX=0; RESULT=65325 
[ 2591.108538] NAME=NONE; INDEX=0; RESULT=65363 
[ 2591.258369] NAME=NONE; INDEX=0; RESULT=65332 
[ 2591.397152] NAME=NONE; INDEX=0; RESULT=65069 
[ 2591.539814] NAME=NONE; INDEX=0; RESULT=65249 
[ 2591.662839] NAME=NONE; INDEX=0; RESULT=65614 
[ 2591.785243] NAME=NONE; INDEX=0; RESULT=65199 
[ 2591.917288] NAME=NONE; INDEX=0; RESULT=65151 
[ 2592.048272] NAME=NONE; INDEX=0; RESULT=65482 
[ 2592.185293] NAME=NONE; INDEX=0; RESULT=64991 
[ 2592.298420] NAME=NONE; INDEX=0; RESULT=64950 
[ 2592.454638] NAME=NONE; INDEX=0; RESULT=65242 
[ 2592.585414] NAME=NONE; INDEX=0; RESULT=65168 
[ 2592.697139] NAME=NONE; INDEX=0; RESULT=65384 
[ 2592.836673] NAME=NONE; INDEX=0; RESULT=65074 
[ 2592.975426] NAME=NONE; INDEX=0; RESULT=65098 
[ 2593.118478] NAME=NONE; INDEX=0; RESULT=65510 
[ 2593.268287] NAME=NONE; INDEX=0; RESULT=64967 
[ 2593.418156] NAME=NONE; INDEX=0; RESULT=65329 
[ 2593.558396] NAME=NONE; INDEX=0; RESULT=65212 
[ 2593.668119] NAME=NONE; INDEX=0; RESULT=65432 
[ 2593.763185] NAME=NONE; INDEX=0; RESULT=65344 
[ 2593.892545] NAME=NONE; INDEX=0; RESULT=65282 
[ 2594.004221] NAME=NONE; INDEX=0; RESULT=65486 
[ 2594.113476] NAME=NONE; INDEX=0; RESULT=65460 
[ 2594.223634] NAME=NONE; INDEX=0; RESULT=65255 
[ 2594.343028] NAME=NONE; INDEX=0; RESULT=65239 
[ 2594.468557] NAME=NONE; INDEX=0; RESULT=65112 
[ 2594.607298] NAME=NONE; INDEX=0; RESULT=65325 
[ 2594.745450] NAME=NONE; INDEX=0; RESULT=65169 
[ 2594.878568] NAME=NONE; INDEX=0; RESULT=65124 
[ 2595.015388] NAME=NONE; INDEX=0; RESULT=65293 
[ 2595.137289] NAME=NONE; INDEX=0; RESULT=64989 
[ 2595.277214] NAME=NONE; INDEX=0; RESULT=65122 
[ 2595.418534] NAME=NONE; INDEX=0; RESULT=65339 
[ 2595.553408] NAME=NONE; INDEX=0; RESULT=65448 
[ 2595.690940] NAME=NONE; INDEX=0; RESULT=65033 
[ 2595.838389] NAME=NONE; INDEX=0; RESULT=65323 
[ 2595.963306] NAME=NONE; INDEX=0; RESULT=65241 
[ 2596.063894] NAME=NONE; INDEX=0; RESULT=65198 
[ 2596.203589] NAME=NONE; INDEX=0; RESULT=65195 
[ 2596.310580] NAME=NONE; INDEX=0; RESULT=65481 
[ 2596.413365] NAME=NONE; INDEX=0; RESULT=65652 
[ 2596.543609] NAME=NONE; INDEX=0; RESULT=65285 
[ 2596.668418] NAME=NONE; INDEX=0; RESULT=64964 
[ 2596.825758] NAME=NONE; INDEX=0; RESULT=65155 
[ 2596.965488] NAME=NONE; INDEX=0; RESULT=65227 
[ 2597.075555] NAME=NONE; INDEX=0; RESULT=65220 
[ 2597.190569] NAME=NONE; INDEX=0; RESULT=65497 
[ 2597.290980] NAME=NONE; INDEX=0; RESULT=65425 
[ 2597.380840] NAME=NONE; INDEX=0; RESULT=65608 
[ 2597.493614] NAME=NONE; INDEX=0; RESULT=65227 
[ 2597.593590] NAME=NONE; INDEX=0; RESULT=65197 
[ 2597.710881] NAME=NONE; INDEX=0; RESULT=65393 
[ 2597.813406] NAME=NONE; INDEX=0; RESULT=65321 
[ 2597.948648] NAME=NONE; INDEX=0; RESULT=65023 
[ 2598.063657] NAME=NONE; INDEX=0; RESULT=64994 
[ 2598.195559] NAME=NONE; INDEX=0; RESULT=65133 
[ 2598.317488] NAME=NONE; INDEX=0; RESULT=65136 
[ 2598.466201] NAME=NONE; INDEX=0; RESULT=65374 
[ 2598.583222] NAME=NONE; INDEX=0; RESULT=65006 
[ 2598.723225] NAME=NONE; INDEX=0; RESULT=65101 
[ 2598.865333] NAME=NONE; INDEX=0; RESULT=65245 
[ 2599.014012] NAME=NONE; INDEX=0; RESULT=65750 
[ 2599.133605] NAME=NONE; INDEX=0; RESULT=65784 
[ 2599.275436] NAME=NONE; INDEX=0; RESULT=65389 
[ 2599.417542] NAME=NONE; INDEX=0; RESULT=65244 
[ 2599.543575] NAME=NONE; INDEX=0; RESULT=65154 
[ 2599.700590] NAME=NONE; INDEX=0; RESULT=65171 
[ 2599.860221] NAME=NONE; INDEX=0; RESULT=65242 
[ 2600.009044] NAME=NONE; INDEX=0; RESULT=64995 
[ 2600.124737] NAME=NONE; INDEX=0; RESULT=65233 
[ 2600.239791] NAME=NONE; INDEX=0; RESULT=64848 
[ 2600.363243] NAME=NONE; INDEX=0; RESULT=65323 
[ 2600.510619] NAME=NONE; INDEX=0; RESULT=65119 
[ 2600.664125] NAME=NONE; INDEX=0; RESULT=65238 
[ 2600.787675] NAME=NONE; INDEX=0; RESULT=65229 
[ 2600.924249] NAME=NONE; INDEX=0; RESULT=65150 
[ 2601.050085] NAME=NONE; INDEX=0; RESULT=65161 
[ 2601.162258] NAME=NONE; INDEX=0; RESULT=65141 
[ 2601.279657] NAME=NONE; INDEX=0; RESULT=65470 
[ 2601.418703] NAME=NONE; INDEX=0; RESULT=65002 
[ 2601.563145] NAME=NONE; INDEX=0; RESULT=65696 
[ 2601.689725] NAME=NONE; INDEX=0; RESULT=65200 
[ 2601.838718] NAME=NONE; INDEX=0; RESULT=65108 
[ 2601.978669] NAME=NONE; INDEX=0; RESULT=65239 
[ 2602.128682] NAME=NONE; INDEX=0; RESULT=65322 
[ 2602.251108] NAME=NONE; INDEX=0; RESULT=64997 
[ 2602.388672] NAME=NONE; INDEX=0; RESULT=65193 
[ 2602.523244] NAME=NONE; INDEX=0; RESULT=65093 
[ 2602.678695] NAME=NONE; INDEX=0; RESULT=65290 
[ 2602.813568] NAME=NONE; INDEX=0; RESULT=65047 
[ 2602.947541] NAME=NONE; INDEX=0; RESULT=65288 
[ 2603.078699] NAME=NONE; INDEX=0; RESULT=64923 
[ 2603.221761] NAME=NONE; INDEX=0; RESULT=65166 
[ 2603.351126] NAME=NONE; INDEX=0; RESULT=65444 
[ 2603.443674] NAME=NONE; INDEX=0; RESULT=65304 
[ 2603.543964] NAME=NONE; INDEX=0; RESULT=65032 
[ 2603.651221] NAME=NONE; INDEX=0; RESULT=65387 
[ 2603.751348] NAME=NONE; INDEX=0; RESULT=65318 
[ 2603.864153] NAME=NONE; INDEX=0; RESULT=65277 
[ 2603.994537] NAME=NONE; INDEX=0; RESULT=65599 
[ 2604.117335] NAME=NONE; INDEX=0; RESULT=65133 
[ 2604.253381] NAME=NONE; INDEX=0; RESULT=65071 
[ 2604.397825] NAME=NONE; INDEX=0; RESULT=65546 
[ 2604.523573] NAME=NONE; INDEX=0; RESULT=65332 
[ 2604.651153] NAME=NONE; INDEX=0; RESULT=65587 
[ 2604.761192] NAME=NONE; INDEX=0; RESULT=65320 
[ 2604.851130] NAME=NONE; INDEX=0; RESULT=65597 
[ 2604.963469] NAME=NONE; INDEX=0; RESULT=65787 
[ 2605.076911] NAME=NONE; INDEX=0; RESULT=65295 
[ 2605.206971] NAME=NONE; INDEX=0; RESULT=65252 
[ 2605.355855] NAME=NONE; INDEX=0; RESULT=65055 
[ 2605.487255] NAME=NONE; INDEX=0; RESULT=65044 
[ 2605.638767] NAME=NONE; INDEX=0; RESULT=64986 
[ 2605.751158] NAME=NONE; INDEX=0; RESULT=65393 
[ 2605.893983] NAME=NONE; INDEX=0; RESULT=65051 
[ 2605.991029] NAME=NONE; INDEX=0; RESULT=65642 
[ 2606.084297] NAME=NONE; INDEX=0; RESULT=65596 
[ 2606.187216] NAME=NONE; INDEX=0; RESULT=65203 
[ 2606.301555] NAME=NONE; INDEX=0; RESULT=65063 
[ 2606.440720] NAME=NONE; INDEX=0; RESULT=65658 
[ 2606.571112] NAME=NONE; INDEX=0; RESULT=65624 
[ 2606.673730] NAME=NONE; INDEX=0; RESULT=65267 
[ 2606.793679] NAME=NONE; INDEX=0; RESULT=65707 
[ 2606.924118] NAME=NONE; INDEX=0; RESULT=65205 
[ 2607.053731] NAME=NONE; INDEX=0; RESULT=64859 
[ 2607.171284] NAME=NONE; INDEX=0; RESULT=65267 
[ 2607.298876] NAME=NONE; INDEX=0; RESULT=65201 
[ 2607.443695] NAME=NONE; INDEX=0; RESULT=65182 
[ 2607.603189] NAME=NONE; INDEX=0; RESULT=65094 
[ 2607.748899] NAME=NONE; INDEX=0; RESULT=65017 
[ 2607.893886] NAME=NONE; INDEX=0; RESULT=65327 
[ 2608.057466] NAME=NONE; INDEX=0; RESULT=65348 
[ 2608.187601] NAME=NONE; INDEX=0; RESULT=65380 
[ 2608.323637] NAME=NONE; INDEX=0; RESULT=65376 
[ 2608.465141] NAME=NONE; INDEX=0; RESULT=65280 
[ 2608.603983] NAME=NONE; INDEX=0; RESULT=64941 
[ 2608.769095] NAME=NONE; INDEX=0; RESULT=65349 
[ 2608.920637] NAME=NONE; INDEX=0; RESULT=65249 
[ 2609.061288] NAME=NONE; INDEX=0; RESULT=65269 
[ 2609.200479] NAME=NONE; INDEX=0; RESULT=65238 
[ 2609.325685] NAME=NONE; INDEX=0; RESULT=65414 
[ 2609.449267] NAME=NONE; INDEX=0; RESULT=65040 
[ 2609.578911] NAME=NONE; INDEX=0; RESULT=65083 
[ 2609.682402] NAME=NONE; INDEX=0; RESULT=65591 
[ 2609.801459] NAME=NONE; INDEX=0; RESULT=65409 
[ 2609.894142] NAME=NONE; INDEX=0; RESULT=65323 
[ 2609.984194] NAME=NONE; INDEX=0; RESULT=65433 
[ 2610.071216] NAME=NONE; INDEX=0; RESULT=65637 
[ 2610.164136] NAME=NONE; INDEX=0; RESULT=65262 
[ 2610.263635] NAME=NONE; INDEX=0; RESULT=65096 
[ 2610.385052] NAME=NONE; INDEX=0; RESULT=65175 
[ 2610.519234] NAME=NONE; INDEX=0; RESULT=65454 
[ 2610.640021] NAME=NONE; INDEX=0; RESULT=65489 
[ 2610.763278] NAME=NONE; INDEX=0; RESULT=65325 
[ 2610.918178] NAME=NONE; INDEX=0; RESULT=65281 
[ 2611.068384] NAME=NONE; INDEX=0; RESULT=65144 
[ 2611.229127] NAME=NONE; INDEX=0; RESULT=65079 
[ 2611.358585] NAME=NONE; INDEX=0; RESULT=64944 
[ 2611.511120] NAME=NONE; INDEX=0; RESULT=65136 
[ 2611.649308] NAME=NONE; INDEX=0; RESULT=65010 
[ 2611.797313] NAME=NONE; INDEX=0; RESULT=65261 
[ 2611.904538] NAME=NONE; INDEX=0; RESULT=64957 
[ 2612.027501] NAME=NONE; INDEX=0; RESULT=65309 
[ 2612.163331] NAME=NONE; INDEX=0; RESULT=65002 
[ 2612.307556] NAME=NONE; INDEX=0; RESULT=65017 
[ 2612.459169] NAME=NONE; INDEX=0; RESULT=64889 
[ 2612.593807] NAME=NONE; INDEX=0; RESULT=65328 
[ 2612.738249] NAME=NONE; INDEX=0; RESULT=65355 
[ 2612.854380] NAME=NONE; INDEX=0; RESULT=65025 
[ 2612.964305] NAME=NONE; INDEX=0; RESULT=65095 
[ 2613.061409] NAME=NONE; INDEX=0; RESULT=65053 
[ 2613.164302] NAME=NONE; INDEX=0; RESULT=65338 
[ 2613.271489] NAME=NONE; INDEX=0; RESULT=65096 
[ 2613.374220] NAME=NONE; INDEX=0; RESULT=65201 
[ 2613.491555] NAME=NONE; INDEX=0; RESULT=65120 
[ 2613.609101] NAME=NONE; INDEX=0; RESULT=65232 
[ 2613.759037] NAME=NONE; INDEX=0; RESULT=65153 
[ 2613.881032] NAME=NONE; INDEX=0; RESULT=65466 
[ 2613.981255] NAME=NONE; INDEX=0; RESULT=65499 
[ 2614.082028] NAME=NONE; INDEX=0; RESULT=65253 
[ 2614.171589] NAME=NONE; INDEX=0; RESULT=65243 
[ 2614.286805] NAME=NONE; INDEX=0; RESULT=65224 
[ 2614.394112] NAME=NONE; INDEX=0; RESULT=65221 
[ 2614.491702] NAME=NONE; INDEX=0; RESULT=65399 
[ 2614.627670] NAME=NONE; INDEX=0; RESULT=65037 
[ 2614.767752] NAME=NONE; INDEX=0; RESULT=65224 
[ 2614.907645] NAME=NONE; INDEX=0; RESULT=65156 
[ 2615.065438] NAME=NONE; INDEX=0; RESULT=65216 
[ 2615.207861] NAME=NONE; INDEX=0; RESULT=65231 
[ 2615.336054] NAME=NONE; INDEX=0; RESULT=65157 
[ 2615.473994] NAME=NONE; INDEX=0; RESULT=64885 
[ 2615.607884] NAME=NONE; INDEX=0; RESULT=65069 
[ 2615.766073] NAME=NONE; INDEX=0; RESULT=65830 
[ 2615.913545] NAME=NONE; INDEX=0; RESULT=65194 
[ 2616.048440] NAME=NONE; INDEX=0; RESULT=65240 
[ 2616.184646] NAME=NONE; INDEX=0; RESULT=65057 
[ 2616.308578] NAME=NONE; INDEX=0; RESULT=65251 
[ 2616.434255] NAME=NONE; INDEX=0; RESULT=65190 
[ 2616.592614] NAME=NONE; INDEX=0; RESULT=65370 
[ 2616.714184] NAME=NONE; INDEX=0; RESULT=65273 
[ 2616.817598] NAME=NONE; INDEX=0; RESULT=65085 
[ 2616.911662] NAME=NONE; INDEX=0; RESULT=65758 
[ 2617.062937] NAME=NONE; INDEX=0; RESULT=65546 
[ 2617.171672] NAME=NONE; INDEX=0; RESULT=65025 
[ 2617.277612] NAME=NONE; INDEX=0; RESULT=65227 
[ 2617.381001] NAME=NONE; INDEX=0; RESULT=65250 
[ 2617.527933] NAME=NONE; INDEX=0; RESULT=65502 
[ 2617.658041] NAME=NONE; INDEX=0; RESULT=64939 
[ 2617.796822] NAME=NONE; INDEX=0; RESULT=65231 
[ 2617.911498] NAME=NONE; INDEX=0; RESULT=65370 
[ 2618.050720] NAME=NONE; INDEX=0; RESULT=65354 
[ 2618.200527] NAME=NONE; INDEX=0; RESULT=64999 
[ 2618.312158] NAME=NONE; INDEX=0; RESULT=65270 
[ 2618.407032] NAME=NONE; INDEX=0; RESULT=65355 
[ 2618.521692] NAME=NONE; INDEX=0; RESULT=65435 
[ 2618.622050] NAME=NONE; INDEX=0; RESULT=65440 
[ 2618.712287] NAME=NONE; INDEX=0; RESULT=65455 
[ 2618.822016] NAME=NONE; INDEX=0; RESULT=65443 
[ 2618.952629] NAME=NONE; INDEX=0; RESULT=65902 
[ 2619.069336] NAME=NONE; INDEX=0; RESULT=65210 
[ 2619.218471] NAME=NONE; INDEX=0; RESULT=65049 
[ 2619.339387] NAME=NONE; INDEX=0; RESULT=64940 
[ 2619.492092] NAME=NONE; INDEX=0; RESULT=65183 
[ 2619.614544] NAME=NONE; INDEX=0; RESULT=65194 
[ 2619.722161] NAME=NONE; INDEX=0; RESULT=65307 
[ 2619.834579] NAME=NONE; INDEX=0; RESULT=65243 
[ 2619.954000] NAME=NONE; INDEX=0; RESULT=65501 
[ 2620.084249] NAME=NONE; INDEX=0; RESULT=65427 
[ 2620.224773] NAME=NONE; INDEX=0; RESULT=64945 
[ 2620.346549] NAME=NONE; INDEX=0; RESULT=65062 
[ 2620.474374] NAME=NONE; INDEX=0; RESULT=65224 
[ 2620.596446] NAME=NONE; INDEX=0; RESULT=65081 
[ 2620.729434] NAME=NONE; INDEX=0; RESULT=65206 
[ 2620.864901] NAME=NONE; INDEX=0; RESULT=65479 
[ 2621.002853] NAME=NONE; INDEX=0; RESULT=65236 
[ 2621.114427] NAME=NONE; INDEX=0; RESULT=65485 
[ 2621.268773] NAME=NONE; INDEX=0; RESULT=65244 
[ 2621.404482] NAME=NONE; INDEX=0; RESULT=65149 
[ 2621.549186] NAME=NONE; INDEX=0; RESULT=65193 
[ 2621.684302] NAME=NONE; INDEX=0; RESULT=65489 
[ 2621.809486] NAME=NONE; INDEX=0; RESULT=65075 
[ 2621.944040] NAME=NONE; INDEX=0; RESULT=65242 
[ 2622.094646] NAME=NONE; INDEX=0; RESULT=65139 
[ 2622.214159] NAME=NONE; INDEX=0; RESULT=65166 
[ 2622.365725] NAME=NONE; INDEX=0; RESULT=65201 
[ 2622.519014] NAME=NONE; INDEX=0; RESULT=65167 
[ 2622.654266] NAME=NONE; INDEX=0; RESULT=65286 
[ 2622.778329] NAME=NONE; INDEX=0; RESULT=65027 
[ 2622.919933] NAME=NONE; INDEX=0; RESULT=65039 
[ 2623.038812] NAME=NONE; INDEX=0; RESULT=65113 
[ 2623.175992] NAME=NONE; INDEX=0; RESULT=64981 
[ 2623.319493] NAME=NONE; INDEX=0; RESULT=65081 
[ 2623.468181] NAME=NONE; INDEX=0; RESULT=65087 
[ 2623.599407] NAME=NONE; INDEX=0; RESULT=65182 
[ 2623.734065] NAME=NONE; INDEX=0; RESULT=65349 
[ 2623.874212] NAME=NONE; INDEX=0; RESULT=65232 
[ 2624.009578] NAME=NONE; INDEX=0; RESULT=65308 
[ 2624.174931] NAME=NONE; INDEX=0; RESULT=65279 
[ 2624.320310] NAME=NONE; INDEX=0; RESULT=65124 
[ 2624.444954] NAME=NONE; INDEX=0; RESULT=65622 
[ 2624.569198] NAME=NONE; INDEX=0; RESULT=65118 
[ 2624.703104] NAME=NONE; INDEX=0; RESULT=65436 
[ 2624.814562] NAME=NONE; INDEX=0; RESULT=65407 
[ 2624.921901] NAME=NONE; INDEX=0; RESULT=65246 
[ 2625.034932] NAME=NONE; INDEX=0; RESULT=65236 
[ 2625.134878] NAME=NONE; INDEX=0; RESULT=65578 
[ 2625.254706] NAME=NONE; INDEX=0; RESULT=65197 
[ 2625.388948] NAME=NONE; INDEX=0; RESULT=65341 
[ 2625.552703] NAME=NONE; INDEX=0; RESULT=65373 
[ 2625.698099] NAME=NONE; INDEX=0; RESULT=65486 
[ 2625.836873] NAME=NONE; INDEX=0; RESULT=65140 
[ 2625.958254] NAME=NONE; INDEX=0; RESULT=65022 
[ 2626.089619] NAME=NONE; INDEX=0; RESULT=65022 
[ 2626.238499] NAME=NONE; INDEX=0; RESULT=65192 
[ 2626.370607] NAME=NONE; INDEX=0; RESULT=65444 
[ 2626.494111] NAME=NONE; INDEX=0; RESULT=65092 
[ 2626.618203] NAME=NONE; INDEX=0; RESULT=65174 
[ 2626.748137] NAME=NONE; INDEX=0; RESULT=65108 
[ 2626.878002] NAME=NONE; INDEX=0; RESULT=65383 
[ 2627.024254] NAME=NONE; INDEX=0; RESULT=65206 
[ 2627.158640] NAME=NONE; INDEX=0; RESULT=65104 
[ 2627.290786] NAME=NONE; INDEX=0; RESULT=65280 
[ 2627.438292] NAME=NONE; INDEX=0; RESULT=65277 
[ 2627.566725] NAME=NONE; INDEX=0; RESULT=65015 
[ 2627.724573] NAME=NONE; INDEX=0; RESULT=65212 
[ 2627.854929] NAME=NONE; INDEX=0; RESULT=65463 
[ 2627.986749] NAME=NONE; INDEX=0; RESULT=65179 
[ 2628.119652] NAME=NONE; INDEX=0; RESULT=65522 
[ 2628.248695] NAME=NONE; INDEX=0; RESULT=65309 
[ 2628.376792] NAME=NONE; INDEX=0; RESULT=65204 
[ 2628.509827] NAME=NONE; INDEX=0; RESULT=65364 
[ 2628.648354] NAME=NONE; INDEX=0; RESULT=65296 
[ 2628.776727] NAME=NONE; INDEX=0; RESULT=65095 
[ 2628.898485] NAME=NONE; INDEX=0; RESULT=65308 
[ 2629.039606] NAME=NONE; INDEX=0; RESULT=65148 
[ 2629.169013] NAME=NONE; INDEX=0; RESULT=65215 
[ 2629.319150] NAME=NONE; INDEX=0; RESULT=65088 
[ 2629.455124] NAME=NONE; INDEX=0; RESULT=65253 
[ 2629.574981] NAME=NONE; INDEX=0; RESULT=65069 
[ 2629.770491] NAME=NONE; INDEX=0; RESULT=65140 
[ 2629.934772] NAME=NONE; INDEX=0; RESULT=65086 
[ 2630.051948] NAME=NONE; INDEX=0; RESULT=65443 
[ 2630.155064] NAME=NONE; INDEX=0; RESULT=65121 
[ 2630.260316] NAME=NONE; INDEX=0; RESULT=65140 
[ 2630.374529] NAME=NONE; INDEX=0; RESULT=65595 
[ 2630.484832] NAME=NONE; INDEX=0; RESULT=65165 
[ 2630.609892] NAME=NONE; INDEX=0; RESULT=65148 
[ 2630.734366] NAME=NONE; INDEX=0; RESULT=65188 
[ 2630.869827] NAME=NONE; INDEX=0; RESULT=65231 
[ 2630.998545] NAME=NONE; INDEX=0; RESULT=65294 
[ 2631.138682] NAME=NONE; INDEX=0; RESULT=65080 
[ 2631.285006] NAME=NONE; INDEX=0; RESULT=65047 
[ 2631.434931] NAME=NONE; INDEX=0; RESULT=65340 
[ 2631.569719] NAME=NONE; INDEX=0; RESULT=65211 
[ 2631.716854] NAME=NONE; INDEX=0; RESULT=65679 
[ 2631.848572] NAME=NONE; INDEX=0; RESULT=65302 
[ 2631.989958] NAME=NONE; INDEX=0; RESULT=65275 
[ 2632.115011] NAME=NONE; INDEX=0; RESULT=65448 
[ 2632.239002] NAME=NONE; INDEX=0; RESULT=65503 
[ 2632.368534] NAME=NONE; INDEX=0; RESULT=65065 
[ 2632.509893] NAME=NONE; INDEX=0; RESULT=65040 
[ 2632.659787] NAME=NONE; INDEX=0; RESULT=64905 
[ 2632.808199] NAME=NONE; INDEX=0; RESULT=65242 
[ 2632.936154] NAME=NONE; INDEX=0; RESULT=65155 
[ 2633.066906] NAME=NONE; INDEX=0; RESULT=65215 
[ 2633.192893] NAME=NONE; INDEX=0; RESULT=65767 
[ 2633.285106] NAME=NONE; INDEX=0; RESULT=65321 
[ 2633.395192] NAME=NONE; INDEX=0; RESULT=65215 
[ 2633.482326] NAME=NONE; INDEX=0; RESULT=64958 
[ 2633.625332] NAME=NONE; INDEX=0; RESULT=65514 
[ 2633.735246] NAME=NONE; INDEX=0; RESULT=65383 
[ 2633.879011] NAME=NONE; INDEX=0; RESULT=65021 
[ 2634.019857] NAME=NONE; INDEX=0; RESULT=65670 
[ 2634.155364] NAME=NONE; INDEX=0; RESULT=65149 
[ 2634.288889] NAME=NONE; INDEX=0; RESULT=65382 
[ 2634.408973] NAME=NONE; INDEX=0; RESULT=65181 
[ 2634.560046] NAME=NONE; INDEX=0; RESULT=65269 
[ 2634.688873] NAME=NONE; INDEX=0; RESULT=65373 
[ 2634.818674] NAME=NONE; INDEX=0; RESULT=65078 
[ 2634.950227] NAME=NONE; INDEX=0; RESULT=65141 
[ 2635.109978] NAME=NONE; INDEX=0; RESULT=65239 
[ 2635.230316] NAME=NONE; INDEX=0; RESULT=64881 
[ 2635.368065] NAME=NONE; INDEX=0; RESULT=65228 
[ 2635.497652] NAME=NONE; INDEX=0; RESULT=65090 
[ 2635.647242] NAME=NONE; INDEX=0; RESULT=65086 
[ 2635.789269] NAME=NONE; INDEX=0; RESULT=65130 
[ 2635.924944] NAME=NONE; INDEX=0; RESULT=65018 
[ 2636.051459] NAME=NONE; INDEX=0; RESULT=64977 
[ 2636.209974] NAME=NONE; INDEX=0; RESULT=65212 
[ 2636.338816] NAME=NONE; INDEX=0; RESULT=65158 
[ 2636.467297] NAME=NONE; INDEX=0; RESULT=65333 
[ 2636.609932] NAME=NONE; INDEX=0; RESULT=65213 
[ 2636.757032] NAME=NONE; INDEX=0; RESULT=65142 
[ 2636.949785] NAME=NONE; INDEX=0; RESULT=65131 
[ 2637.108225] NAME=NONE; INDEX=0; RESULT=65098 
[ 2637.259984] NAME=NONE; INDEX=0; RESULT=64999 
[ 2637.398991] NAME=NONE; INDEX=0; RESULT=65097 
[ 2637.529910] NAME=NONE; INDEX=0; RESULT=65302 
[ 2637.669966] NAME=NONE; INDEX=0; RESULT=65171 
[ 2637.805041] NAME=NONE; INDEX=0; RESULT=65105 
[ 2637.925161] NAME=NONE; INDEX=0; RESULT=65280 
[ 2638.025152] NAME=NONE; INDEX=0; RESULT=65462 
[ 2638.162528] NAME=NONE; INDEX=0; RESULT=65260 
[ 2638.272474] NAME=NONE; INDEX=0; RESULT=65186 
[ 2638.385180] NAME=NONE; INDEX=0; RESULT=65244 
[ 2638.510083] NAME=NONE; INDEX=0; RESULT=65223 
[ 2638.655178] NAME=NONE; INDEX=0; RESULT=64839 
[ 2638.789167] NAME=NONE; INDEX=0; RESULT=65157 
[ 2638.908492] NAME=NONE; INDEX=0; RESULT=65351 
[ 2639.041441] NAME=NONE; INDEX=0; RESULT=65060 
[ 2639.160775] NAME=NONE; INDEX=0; RESULT=65295 
[ 2639.284905] NAME=NONE; INDEX=0; RESULT=65027 
[ 2639.419134] NAME=NONE; INDEX=0; RESULT=64943 
[ 2639.570223] NAME=NONE; INDEX=0; RESULT=65171 
[ 2639.718999] NAME=NONE; INDEX=0; RESULT=65342 
[ 2639.880298] NAME=NONE; INDEX=0; RESULT=65098 
[ 2640.005356] NAME=NONE; INDEX=0; RESULT=65144 
[ 2640.101125] NAME=NONE; INDEX=0; RESULT=65308 
[ 2640.212401] NAME=NONE; INDEX=0; RESULT=65266 
[ 2640.325514] NAME=NONE; INDEX=0; RESULT=65300 
[ 2640.435460] NAME=NONE; INDEX=0; RESULT=65350 
[ 2640.562570] NAME=NONE; INDEX=0; RESULT=65203 
[ 2640.698453] NAME=NONE; INDEX=0; RESULT=65372 
[ 2640.845420] NAME=NONE; INDEX=0; RESULT=65192 
[ 2640.962204] NAME=NONE; INDEX=0; RESULT=65060 
[ 2641.082597] NAME=NONE; INDEX=0; RESULT=65254 
[ 2641.195594] NAME=NONE; INDEX=0; RESULT=65406 
[ 2641.322683] NAME=NONE; INDEX=0; RESULT=65019 
[ 2641.469044] NAME=NONE; INDEX=0; RESULT=65119 
[ 2641.621227] NAME=NONE; INDEX=0; RESULT=65154 
[ 2641.755292] NAME=NONE; INDEX=0; RESULT=65086 
[ 2641.900227] NAME=NONE; INDEX=0; RESULT=65126 
[ 2642.015365] NAME=NONE; INDEX=0; RESULT=64925 
[ 2642.135410] NAME=NONE; INDEX=0; RESULT=65227 
[ 2642.294162] NAME=NONE; INDEX=0; RESULT=65189 
[ 2642.431632] NAME=NONE; INDEX=0; RESULT=65138 
[ 2642.535310] NAME=NONE; INDEX=0; RESULT=65132 
[ 2642.671700] NAME=NONE; INDEX=0; RESULT=65000 
[ 2642.809395] NAME=NONE; INDEX=0; RESULT=65183 
[ 2642.955294] NAME=NONE; INDEX=0; RESULT=64854 
[ 2643.085399] NAME=NONE; INDEX=0; RESULT=65415 
[ 2643.192782] NAME=NONE; INDEX=0; RESULT=65202 
[ 2643.298792] NAME=NONE; INDEX=0; RESULT=65317 
[ 2643.405463] NAME=NONE; INDEX=0; RESULT=65327 
[ 2643.515260] NAME=NONE; INDEX=0; RESULT=65292 
[ 2643.623261] NAME=NONE; INDEX=0; RESULT=65101 
[ 2643.759373] NAME=NONE; INDEX=0; RESULT=65237 
[ 2643.939151] NAME=NONE; INDEX=0; RESULT=65047 
[ 2644.085236] NAME=NONE; INDEX=0; RESULT=65631 
[ 2644.229611] NAME=NONE; INDEX=0; RESULT=65248 
[ 2644.346383] NAME=NONE; INDEX=0; RESULT=65197 
[ 2644.459326] NAME=NONE; INDEX=0; RESULT=65174 
[ 2644.610875] NAME=NONE; INDEX=0; RESULT=65033 
[ 2644.759261] NAME=NONE; INDEX=0; RESULT=65473 
[ 2644.875100] NAME=NONE; INDEX=0; RESULT=65383 
[ 2645.012695] NAME=NONE; INDEX=0; RESULT=65469 
[ 2645.150381] NAME=NONE; INDEX=0; RESULT=65137 
[ 2645.265650] NAME=NONE; INDEX=0; RESULT=65278 
[ 2645.395542] NAME=NONE; INDEX=0; RESULT=65257 
[ 2645.515633] NAME=NONE; INDEX=0; RESULT=65303 
[ 2645.605584] NAME=NONE; INDEX=0; RESULT=65441 
[ 2645.715532] NAME=NONE; INDEX=0; RESULT=65313 
[ 2645.812517] NAME=NONE; INDEX=0; RESULT=65098 
[ 2645.980346] NAME=NONE; INDEX=0; RESULT=65113 
[ 2646.097340] NAME=NONE; INDEX=0; RESULT=65043 
[ 2646.217513] NAME=NONE; INDEX=0; RESULT=65117 
[ 2646.369554] NAME=NONE; INDEX=0; RESULT=65198 
[ 2646.498848] NAME=NONE; INDEX=0; RESULT=64993 
[ 2646.627371] NAME=NONE; INDEX=0; RESULT=65355 
[ 2646.790486] NAME=NONE; INDEX=0; RESULT=65244 
[ 2646.920428] NAME=NONE; INDEX=0; RESULT=65116 
[ 2647.050065] NAME=NONE; INDEX=0; RESULT=65014 
[ 2647.207495] NAME=NONE; INDEX=0; RESULT=65190 
[ 2647.320404] NAME=NONE; INDEX=0; RESULT=65323 
[ 2647.445100] NAME=NONE; INDEX=0; RESULT=65184 
[ 2647.568320] NAME=NONE; INDEX=0; RESULT=65455 
[ 2647.705026] NAME=NONE; INDEX=0; RESULT=65019 
[ 2647.838701] NAME=NONE; INDEX=0; RESULT=65293 
[ 2647.980725] NAME=NONE; INDEX=0; RESULT=65139 
[ 2648.115230] NAME=NONE; INDEX=0; RESULT=65291 
[ 2648.255254] NAME=NONE; INDEX=0; RESULT=65135 
[ 2648.390435] NAME=NONE; INDEX=0; RESULT=65176 
[ 2648.515331] NAME=NONE; INDEX=0; RESULT=65230 
[ 2648.639271] NAME=NONE; INDEX=0; RESULT=65634 
[ 2648.779750] NAME=NONE; INDEX=0; RESULT=65246 
[ 2648.899329] NAME=NONE; INDEX=0; RESULT=65011 
[ 2649.022977] NAME=NONE; INDEX=0; RESULT=65376 
[ 2649.152984] NAME=NONE; INDEX=0; RESULT=65510 
[ 2649.265998] NAME=NONE; INDEX=0; RESULT=65166 
[ 2649.405654] NAME=NONE; INDEX=0; RESULT=64970 
[ 2649.533026] NAME=NONE; INDEX=0; RESULT=65146 
[ 2649.621908] NAME=NONE; INDEX=0; RESULT=65146 
[ 2649.759546] NAME=NONE; INDEX=0; RESULT=64997 
[ 2649.887595] NAME=NONE; INDEX=0; RESULT=65214 
[ 2650.040749] NAME=NONE; INDEX=0; RESULT=65275 
[ 2650.155471] NAME=NONE; INDEX=0; RESULT=65486 
[ 2650.263182] NAME=NONE; INDEX=0; RESULT=65325 
[ 2650.383028] NAME=NONE; INDEX=0; RESULT=66398 
[ 2650.473155] NAME=NONE; INDEX=0; RESULT=65257 
[ 2650.605586] NAME=NONE; INDEX=0; RESULT=65100 
[ 2650.703207] NAME=NONE; INDEX=0; RESULT=65345 
[ 2650.837035] NAME=NONE; INDEX=0; RESULT=65173 
[ 2650.989455] NAME=NONE; INDEX=0; RESULT=65131 
[ 2651.159844] NAME=NONE; INDEX=0; RESULT=65129 
[ 2651.295185] NAME=NONE; INDEX=0; RESULT=65305 
[ 2651.440514] NAME=NONE; INDEX=0; RESULT=65134 
[ 2651.560385] NAME=NONE; INDEX=0; RESULT=65059 
[ 2651.689203] NAME=NONE; INDEX=0; RESULT=65308 
[ 2651.837725] NAME=NONE; INDEX=0; RESULT=65031 
[ 2651.979675] NAME=NONE; INDEX=0; RESULT=65012 
[ 2652.119925] NAME=NONE; INDEX=0; RESULT=65232 
[ 2652.260812] NAME=NONE; INDEX=0; RESULT=65536 
[ 2652.385447] NAME=NONE; INDEX=0; RESULT=65180 
[ 2652.547285] NAME=NONE; INDEX=0; RESULT=64991 
[ 2652.690799] NAME=NONE; INDEX=0; RESULT=65003 
[ 2652.815862] NAME=NONE; INDEX=0; RESULT=65633 
[ 2652.935934] NAME=NONE; INDEX=0; RESULT=65377 
[ 2653.053076] NAME=NONE; INDEX=0; RESULT=64919 
[ 2653.173126] NAME=NONE; INDEX=0; RESULT=65254 
[ 2653.275914] NAME=NONE; INDEX=0; RESULT=65202 
[ 2653.415670] NAME=NONE; INDEX=0; RESULT=65324 
[ 2653.524543] NAME=NONE; INDEX=0; RESULT=65128 
[ 2653.666076] NAME=NONE; INDEX=0; RESULT=65211 
[ 2653.775981] NAME=NONE; INDEX=0; RESULT=65384 
[ 2653.893029] NAME=NONE; INDEX=0; RESULT=65074 
[ 2653.989059] NAME=NONE; INDEX=0; RESULT=65518 
[ 2654.105620] NAME=NONE; INDEX=0; RESULT=65521 
[ 2654.193377] NAME=NONE; INDEX=0; RESULT=65558 
[ 2654.310832] NAME=NONE; INDEX=0; RESULT=65208 
[ 2654.435911] NAME=NONE; INDEX=0; RESULT=65380 
[ 2654.565906] NAME=NONE; INDEX=0; RESULT=64988 
[ 2654.695411] NAME=NONE; INDEX=0; RESULT=65020 
[ 2654.795742] NAME=NONE; INDEX=0; RESULT=65189 
[ 2654.895718] NAME=NONE; INDEX=0; RESULT=65583 
[ 2654.985605] NAME=NONE; INDEX=0; RESULT=65320 
[ 2655.075656] NAME=NONE; INDEX=0; RESULT=65168 
[ 2655.225566] NAME=NONE; INDEX=0; RESULT=65315 
[ 2655.350448] NAME=NONE; INDEX=0; RESULT=65204 
[ 2655.487161] NAME=NONE; INDEX=0; RESULT=65075 
[ 2655.629622] NAME=NONE; INDEX=0; RESULT=65333 
[ 2655.769246] NAME=NONE; INDEX=0; RESULT=65568 
[ 2655.914515] NAME=NONE; INDEX=0; RESULT=65086 
[ 2656.043181] NAME=NONE; INDEX=0; RESULT=65141 
[ 2656.133319] NAME=NONE; INDEX=0; RESULT=65304 
[ 2656.265951] NAME=NONE; INDEX=0; RESULT=65670 
[ 2656.405514] NAME=NONE; INDEX=0; RESULT=65065 
[ 2656.515734] NAME=NONE; INDEX=0; RESULT=65791 
[ 2656.646026] NAME=NONE; INDEX=0; RESULT=65797 
[ 2656.776887] NAME=NONE; INDEX=0; RESULT=65173 
[ 2656.927397] NAME=NONE; INDEX=0; RESULT=65039 
[ 2657.065566] NAME=NONE; INDEX=0; RESULT=65153 
[ 2657.199576] NAME=NONE; INDEX=0; RESULT=65220 
[ 2657.329679] NAME=NONE; INDEX=0; RESULT=65419 
[ 2657.445699] NAME=NONE; INDEX=0; RESULT=65119 
[ 2657.555026] NAME=NONE; INDEX=0; RESULT=65366 
[ 2657.682025] NAME=NONE; INDEX=0; RESULT=65185 
[ 2657.785669] NAME=NONE; INDEX=0; RESULT=65021 
[ 2657.929684] NAME=NONE; INDEX=0; RESULT=64999 
[ 2658.049648] NAME=NONE; INDEX=0; RESULT=65252 
[ 2658.165531] NAME=NONE; INDEX=0; RESULT=65289 
[ 2658.286605] NAME=NONE; INDEX=0; RESULT=65382 
[ 2658.437282] NAME=NONE; INDEX=0; RESULT=65403 
[ 2658.600931] NAME=NONE; INDEX=0; RESULT=65064 
[ 2658.719202] NAME=NONE; INDEX=0; RESULT=65081 
[ 2658.871161] NAME=NONE; INDEX=0; RESULT=65159 
[ 2659.009546] NAME=NONE; INDEX=0; RESULT=65263 
[ 2659.161015] NAME=NONE; INDEX=0; RESULT=65117 
[ 2659.295771] NAME=NONE; INDEX=0; RESULT=65287 
[ 2659.429518] NAME=NONE; INDEX=0; RESULT=65118 
[ 2659.559467] NAME=NONE; INDEX=0; RESULT=65202 
[ 2659.679688] NAME=NONE; INDEX=0; RESULT=64959 
[ 2659.819597] NAME=NONE; INDEX=0; RESULT=65173 
[ 2659.955970] NAME=NONE; INDEX=0; RESULT=64947 
[ 2660.097288] NAME=NONE; INDEX=0; RESULT=65110 
[ 2660.205752] NAME=NONE; INDEX=0; RESULT=65328 
[ 2660.316124] NAME=NONE; INDEX=0; RESULT=65250 
[ 2660.455843] NAME=NONE; INDEX=0; RESULT=65325 
[ 2660.601791] NAME=NONE; INDEX=0; RESULT=65247 
[ 2660.722894] NAME=NONE; INDEX=0; RESULT=65183 
[ 2660.859831] NAME=NONE; INDEX=0; RESULT=65321 
[ 2660.999069] NAME=NONE; INDEX=0; RESULT=65510 
[ 2661.130540] NAME=NONE; INDEX=0; RESULT=65571 
[ 2661.282500] NAME=NONE; INDEX=0; RESULT=65190 
[ 2661.420327] NAME=NONE; INDEX=0; RESULT=65074 
[ 2661.554671] NAME=NONE; INDEX=0; RESULT=65095 
[ 2661.656291] NAME=NONE; INDEX=0; RESULT=65373 
[ 2661.757886] NAME=NONE; INDEX=0; RESULT=65252 
[ 2661.859374] NAME=NONE; INDEX=0; RESULT=65471 
[ 2661.963302] NAME=NONE; INDEX=0; RESULT=65144 
[ 2662.066076] NAME=NONE; INDEX=0; RESULT=65101 
[ 2662.193414] NAME=NONE; INDEX=0; RESULT=65666 
[ 2662.320289] NAME=NONE; INDEX=0; RESULT=64840 
[ 2662.464765] NAME=NONE; INDEX=0; RESULT=65326 
[ 2662.585730] NAME=NONE; INDEX=0; RESULT=65063 
[ 2662.705875] NAME=NONE; INDEX=0; RESULT=65137 
[ 2662.880122] NAME=NONE; INDEX=0; RESULT=65151 
[ 2662.999983] NAME=NONE; INDEX=0; RESULT=65279 
[ 2663.137109] NAME=NONE; INDEX=0; RESULT=64937 
[ 2663.264929] NAME=NONE; INDEX=0; RESULT=65133 
[ 2663.410014] NAME=NONE; INDEX=0; RESULT=65147 
[ 2663.561131] NAME=NONE; INDEX=0; RESULT=65077 
[ 2663.699951] NAME=NONE; INDEX=0; RESULT=65143 
[ 2663.829474] NAME=NONE; INDEX=0; RESULT=65039 
[ 2663.949757] NAME=NONE; INDEX=0; RESULT=65482 
[ 2664.090426] NAME=NONE; INDEX=0; RESULT=65211 
[ 2664.240191] NAME=NONE; INDEX=0; RESULT=64999 
[ 2664.371043] NAME=NONE; INDEX=0; RESULT=65255 
[ 2664.498294] NAME=NONE; INDEX=0; RESULT=65091 
[ 2664.626329] NAME=NONE; INDEX=0; RESULT=65708 
[ 2664.743482] NAME=NONE; INDEX=0; RESULT=65297 
[ 2664.836002] NAME=NONE; INDEX=0; RESULT=65099 
[ 2664.933806] NAME=NONE; INDEX=0; RESULT=65216 
[ 2665.033910] NAME=NONE; INDEX=0; RESULT=65549 
[ 2665.123929] NAME=NONE; INDEX=0; RESULT=65994 
[ 2665.233762] NAME=NONE; INDEX=0; RESULT=65263 
[ 2665.350801] NAME=NONE; INDEX=0; RESULT=65228 
[ 2665.500510] NAME=NONE; INDEX=0; RESULT=65418 
[ 2665.632935] NAME=NONE; INDEX=0; RESULT=65238 
[ 2665.752398] NAME=NONE; INDEX=0; RESULT=65244 
[ 2665.896806] NAME=NONE; INDEX=0; RESULT=65250 
[ 2666.010525] NAME=NONE; INDEX=0; RESULT=65207 
[ 2666.134897] NAME=NONE; INDEX=0; RESULT=65259 
[ 2666.235199] NAME=NONE; INDEX=0; RESULT=65022 
[ 2666.353732] NAME=NONE; INDEX=0; RESULT=65231 
[ 2666.453840] NAME=NONE; INDEX=0; RESULT=65035 
[ 2666.575011] NAME=NONE; INDEX=0; RESULT=65303 
[ 2666.703862] NAME=NONE; INDEX=0; RESULT=65358 
[ 2666.809372] NAME=NONE; INDEX=0; RESULT=65086 
[ 2666.945503] NAME=NONE; INDEX=0; RESULT=65500 
[ 2667.107516] NAME=NONE; INDEX=0; RESULT=65115 
[ 2667.259756] NAME=NONE; INDEX=0; RESULT=65378 
[ 2667.399324] NAME=NONE; INDEX=0; RESULT=65446 
[ 2667.560593] NAME=NONE; INDEX=0; RESULT=65079 
[ 2667.689705] NAME=NONE; INDEX=0; RESULT=65156 
[ 2667.822259] NAME=NONE; INDEX=0; RESULT=64975 
[ 2667.956095] NAME=NONE; INDEX=0; RESULT=65496 
[ 2668.091150] NAME=NONE; INDEX=0; RESULT=65098 
[ 2668.221219] NAME=NONE; INDEX=0; RESULT=65069 
[ 2668.339754] NAME=NONE; INDEX=0; RESULT=65136 
[ 2668.455467] NAME=NONE; INDEX=0; RESULT=65001 
[ 2668.609970] NAME=NONE; INDEX=0; RESULT=65000 
[ 2668.751331] NAME=NONE; INDEX=0; RESULT=65053 
[ 2668.870581] NAME=NONE; INDEX=0; RESULT=65062 
[ 2668.996026] NAME=NONE; INDEX=0; RESULT=65218 
[ 2669.151276] NAME=NONE; INDEX=0; RESULT=64979 
[ 2669.276158] NAME=NONE; INDEX=0; RESULT=65279 
[ 2669.397153] NAME=NONE; INDEX=0; RESULT=65364 
[ 2669.519955] NAME=NONE; INDEX=0; RESULT=65436 
[ 2669.640091] NAME=NONE; INDEX=0; RESULT=65303 
[ 2669.781198] NAME=NONE; INDEX=0; RESULT=65382 
[ 2669.910261] NAME=NONE; INDEX=0; RESULT=65097 
[ 2670.025771] NAME=NONE; INDEX=0; RESULT=65188 
[ 2670.146172] NAME=NONE; INDEX=0; RESULT=65263 
[ 2670.280567] NAME=NONE; INDEX=0; RESULT=65186 
[ 2670.399977] NAME=NONE; INDEX=0; RESULT=65162 
[ 2670.541194] NAME=NONE; INDEX=0; RESULT=65063 
[ 2670.687902] NAME=NONE; INDEX=0; RESULT=65079 
[ 2670.820347] NAME=NONE; INDEX=0; RESULT=65275 
[ 2670.969562] NAME=NONE; INDEX=0; RESULT=65003 
[ 2671.121142] NAME=NONE; INDEX=0; RESULT=65406 
[ 2671.269553] NAME=NONE; INDEX=0; RESULT=65083 
[ 2671.422778] NAME=NONE; INDEX=0; RESULT=65031 
[ 2671.590917] NAME=NONE; INDEX=0; RESULT=65164 
[ 2671.719842] NAME=NONE; INDEX=0; RESULT=65164 
[ 2671.855888] NAME=NONE; INDEX=0; RESULT=65407 
[ 2671.965735] NAME=NONE; INDEX=0; RESULT=65152 
[ 2672.079495] NAME=NONE; INDEX=0; RESULT=65125 
[ 2672.220930] NAME=NONE; INDEX=0; RESULT=65212 
[ 2672.339696] NAME=NONE; INDEX=0; RESULT=65199 
[ 2672.465187] NAME=NONE; INDEX=0; RESULT=65407 
[ 2672.606021] NAME=NONE; INDEX=0; RESULT=66867 
[ 2672.739098] NAME=NONE; INDEX=0; RESULT=65781 
[ 2672.885855] NAME=NONE; INDEX=0; RESULT=65099 
[ 2673.050822] NAME=NONE; INDEX=0; RESULT=65131 
[ 2673.165718] NAME=NONE; INDEX=0; RESULT=65065 
[ 2673.276076] NAME=NONE; INDEX=0; RESULT=65329 
[ 2673.373090] NAME=NONE; INDEX=0; RESULT=65246 
[ 2673.473507] NAME=NONE; INDEX=0; RESULT=65179 
[ 2673.606079] NAME=NONE; INDEX=0; RESULT=65326 
[ 2673.733299] NAME=NONE; INDEX=0; RESULT=65215 
[ 2673.836176] NAME=NONE; INDEX=0; RESULT=65623 
[ 2673.969959] NAME=NONE; INDEX=0; RESULT=64878 
[ 2674.099903] NAME=NONE; INDEX=0; RESULT=65575 
[ 2674.260415] NAME=NONE; INDEX=0; RESULT=65047 
[ 2674.379483] NAME=NONE; INDEX=0; RESULT=65509 
[ 2674.511016] NAME=NONE; INDEX=0; RESULT=65358 
[ 2674.655985] NAME=NONE; INDEX=0; RESULT=65628 
[ 2674.787367] NAME=NONE; INDEX=0; RESULT=65371 
[ 2674.920313] NAME=NONE; INDEX=0; RESULT=65220 
[ 2675.066006] NAME=NONE; INDEX=0; RESULT=65490 
[ 2675.185822] NAME=NONE; INDEX=0; RESULT=65941 
[ 2675.283349] NAME=NONE; INDEX=0; RESULT=65279 
[ 2675.383293] NAME=NONE; INDEX=0; RESULT=65463 
[ 2675.484511] NAME=NONE; INDEX=0; RESULT=65413 
[ 2675.613344] NAME=NONE; INDEX=0; RESULT=65334 
[ 2675.744783] NAME=NONE; INDEX=0; RESULT=65309 
[ 2675.865877] NAME=NONE; INDEX=0; RESULT=65673 
[ 2675.955862] NAME=NONE; INDEX=0; RESULT=65485 
[ 2676.049213] NAME=NONE; INDEX=0; RESULT=65207 
[ 2676.154076] NAME=NONE; INDEX=0; RESULT=65345 
[ 2676.255703] NAME=NONE; INDEX=0; RESULT=65580 
[ 2676.361731] NAME=NONE; INDEX=0; RESULT=65243 
[ 2676.483186] NAME=NONE; INDEX=0; RESULT=65423 
[ 2676.600062] NAME=NONE; INDEX=0; RESULT=65141 
[ 2676.734231] NAME=NONE; INDEX=0; RESULT=65238 
[ 2676.867714] NAME=NONE; INDEX=0; RESULT=65175 
[ 2677.000823] NAME=NONE; INDEX=0; RESULT=65262 
[ 2677.120146] NAME=NONE; INDEX=0; RESULT=65352 
[ 2677.250716] NAME=NONE; INDEX=0; RESULT=65417 
[ 2677.370773] NAME=NONE; INDEX=0; RESULT=64979 
[ 2677.503767] NAME=NONE; INDEX=0; RESULT=65255 
[ 2677.625614] NAME=NONE; INDEX=0; RESULT=65144 
[ 2677.725593] NAME=NONE; INDEX=0; RESULT=65504 
[ 2677.845629] NAME=NONE; INDEX=0; RESULT=65526 
[ 2677.945810] NAME=NONE; INDEX=0; RESULT=65520 
[ 2678.065960] NAME=NONE; INDEX=0; RESULT=65085 
[ 2678.200672] NAME=NONE; INDEX=0; RESULT=65292 
[ 2678.325483] NAME=NONE; INDEX=0; RESULT=65445 
[ 2678.490719] NAME=NONE; INDEX=0; RESULT=65225 
[ 2678.613732] NAME=NONE; INDEX=0; RESULT=65317 
[ 2678.713601] NAME=NONE; INDEX=0; RESULT=65555 
[ 2678.803147] NAME=NONE; INDEX=0; RESULT=65349 
[ 2678.925636] NAME=NONE; INDEX=0; RESULT=65332 
[ 2679.025629] NAME=NONE; INDEX=0; RESULT=65442 
[ 2679.155704] NAME=NONE; INDEX=0; RESULT=65248 
[ 2679.287023] NAME=NONE; INDEX=0; RESULT=65191 
[ 2679.449569] NAME=NONE; INDEX=0; RESULT=65102 
[ 2679.590753] NAME=NONE; INDEX=0; RESULT=64863 
[ 2679.740617] NAME=NONE; INDEX=0; RESULT=65273 
[ 2679.879547] NAME=NONE; INDEX=0; RESULT=65187 
[ 2680.000770] NAME=NONE; INDEX=0; RESULT=65108 
[ 2680.142141] NAME=NONE; INDEX=0; RESULT=65432 
[ 2680.285337] NAME=NONE; INDEX=0; RESULT=65031 
[ 2680.420576] NAME=NONE; INDEX=0; RESULT=64950 
[ 2680.555813] NAME=NONE; INDEX=0; RESULT=65327 
[ 2680.655468] NAME=NONE; INDEX=0; RESULT=65450 
[ 2680.792535] NAME=NONE; INDEX=0; RESULT=65449 
[ 2680.892741] NAME=NONE; INDEX=0; RESULT=65278 
[ 2681.035894] NAME=NONE; INDEX=0; RESULT=65271 
[ 2681.141826] NAME=NONE; INDEX=0; RESULT=65479 
[ 2681.253507] NAME=NONE; INDEX=0; RESULT=65181 
[ 2681.381936] NAME=NONE; INDEX=0; RESULT=64974 
[ 2681.504769] NAME=NONE; INDEX=0; RESULT=65301 
[ 2681.640589] NAME=NONE; INDEX=0; RESULT=65071 
[ 2681.757706] NAME=NONE; INDEX=0; RESULT=65232 
[ 2681.889644] NAME=NONE; INDEX=0; RESULT=65122 
[ 2682.026248] NAME=NONE; INDEX=0; RESULT=65492 
[ 2682.159594] NAME=NONE; INDEX=0; RESULT=65347 
[ 2682.285338] NAME=NONE; INDEX=0; RESULT=65362 
[ 2682.415547] NAME=NONE; INDEX=0; RESULT=65056 
[ 2682.549160] NAME=NONE; INDEX=0; RESULT=65233 
[ 2682.683003] NAME=NONE; INDEX=0; RESULT=65507 
[ 2682.783908] NAME=NONE; INDEX=0; RESULT=65398 
[ 2682.894417] NAME=NONE; INDEX=0; RESULT=65115 
[ 2682.993121] NAME=NONE; INDEX=0; RESULT=64790 
[ 2683.123144] NAME=NONE; INDEX=0; RESULT=65536 
[ 2683.223002] NAME=NONE; INDEX=0; RESULT=65316 
[ 2683.338494] NAME=NONE; INDEX=0; RESULT=65296 
[ 2683.460387] NAME=NONE; INDEX=0; RESULT=65068 
[ 2683.585306] NAME=NONE; INDEX=0; RESULT=66105 
[ 2683.731952] NAME=NONE; INDEX=0; RESULT=65247 
[ 2683.859110] NAME=NONE; INDEX=0; RESULT=65053 
[ 2683.999173] NAME=NONE; INDEX=0; RESULT=65091 
[ 2684.129064] NAME=NONE; INDEX=0; RESULT=64888 
[ 2684.286077] NAME=NONE; INDEX=0; RESULT=65130 
[ 2684.397920] NAME=NONE; INDEX=0; RESULT=65342 
[ 2684.508056] NAME=NONE; INDEX=0; RESULT=65504 
[ 2684.650659] NAME=NONE; INDEX=0; RESULT=65376 
[ 2684.782155] NAME=NONE; INDEX=0; RESULT=65446 
[ 2684.939778] NAME=NONE; INDEX=0; RESULT=65142 
[ 2685.083361] NAME=NONE; INDEX=0; RESULT=65408 
[ 2685.190395] NAME=NONE; INDEX=0; RESULT=65165 
[ 2685.318910] NAME=NONE; INDEX=0; RESULT=65177 
[ 2685.467036] NAME=NONE; INDEX=0; RESULT=65096 
[ 2685.587198] NAME=NONE; INDEX=0; RESULT=65444 
[ 2685.710683] NAME=NONE; INDEX=0; RESULT=65210 
[ 2685.860283] NAME=NONE; INDEX=0; RESULT=65671 
[ 2685.987242] NAME=NONE; INDEX=0; RESULT=65128 
[ 2686.107180] NAME=NONE; INDEX=0; RESULT=65082 
[ 2686.250818] NAME=NONE; INDEX=0; RESULT=64959 
[ 2686.390475] NAME=NONE; INDEX=0; RESULT=65196 
[ 2686.540223] NAME=NONE; INDEX=0; RESULT=64947 
[ 2686.699021] NAME=NONE; INDEX=0; RESULT=64944 
[ 2686.827462] NAME=NONE; INDEX=0; RESULT=65028 
[ 2686.988720] NAME=NONE; INDEX=0; RESULT=65318 
[ 2687.135082] NAME=NONE; INDEX=0; RESULT=65358 
[ 2687.266267] NAME=NONE; INDEX=0; RESULT=65289 
[ 2687.388690] NAME=NONE; INDEX=0; RESULT=65106 
[ 2687.483949] NAME=NONE; INDEX=0; RESULT=65293 
[ 2687.622616] NAME=NONE; INDEX=0; RESULT=65399 
[ 2687.715393] NAME=NONE; INDEX=0; RESULT=65589 
[ 2687.808673] NAME=NONE; INDEX=0; RESULT=65307 
[ 2687.902630] NAME=NONE; INDEX=0; RESULT=65237 
[ 2688.022560] NAME=NONE; INDEX=0; RESULT=65292 
[ 2688.125067] NAME=NONE; INDEX=0; RESULT=65387 
[ 2688.230434] NAME=NONE; INDEX=0; RESULT=65479 
[ 2688.366234] NAME=NONE; INDEX=0; RESULT=64836 
[ 2688.520171] NAME=NONE; INDEX=0; RESULT=65224 
[ 2688.641825] NAME=NONE; INDEX=0; RESULT=65318 
[ 2688.786147] NAME=NONE; INDEX=0; RESULT=65060 
[ 2688.929126] NAME=NONE; INDEX=0; RESULT=64981 
[ 2689.054967] NAME=NONE; INDEX=0; RESULT=65288 
[ 2689.190030] NAME=NONE; INDEX=0; RESULT=65265 
[ 2689.320297] NAME=NONE; INDEX=0; RESULT=65223 
[ 2689.444540] NAME=NONE; INDEX=0; RESULT=65175 
[ 2689.585590] NAME=NONE; INDEX=0; RESULT=65137 
[ 2689.739436] NAME=NONE; INDEX=0; RESULT=64985 
[ 2689.869046] NAME=NONE; INDEX=0; RESULT=64945 
[ 2690.005217] NAME=NONE; INDEX=0; RESULT=65191 
[ 2690.139423] NAME=NONE; INDEX=0; RESULT=65071 
[ 2690.285005] NAME=NONE; INDEX=0; RESULT=65697 
[ 2690.410080] NAME=NONE; INDEX=0; RESULT=65185 
[ 2690.560229] NAME=NONE; INDEX=0; RESULT=65301 
[ 2690.707246] NAME=NONE; INDEX=0; RESULT=65008 
[ 2690.849295] NAME=NONE; INDEX=0; RESULT=65155 
[ 2691.004694] NAME=NONE; INDEX=0; RESULT=65201 
[ 2691.156657] NAME=NONE; INDEX=0; RESULT=65039 
[ 2691.299291] NAME=NONE; INDEX=0; RESULT=65077 
[ 2691.438995] NAME=NONE; INDEX=0; RESULT=65241 
[ 2691.559226] NAME=NONE; INDEX=0; RESULT=64864 
[ 2691.699305] NAME=NONE; INDEX=0; RESULT=65007 
[ 2691.848724] NAME=NONE; INDEX=0; RESULT=65248 
[ 2691.989191] NAME=NONE; INDEX=0; RESULT=65002 
[ 2692.129080] NAME=NONE; INDEX=0; RESULT=65483 
[ 2692.270179] NAME=NONE; INDEX=0; RESULT=65286 
[ 2692.398805] NAME=NONE; INDEX=0; RESULT=64973 
[ 2692.528978] NAME=NONE; INDEX=0; RESULT=65053 
[ 2692.668774] NAME=NONE; INDEX=0; RESULT=65111 
[ 2692.799951] NAME=NONE; INDEX=0; RESULT=65295 
[ 2692.934668] NAME=NONE; INDEX=0; RESULT=65465 
[ 2693.049211] NAME=NONE; INDEX=0; RESULT=65198 
[ 2693.179439] NAME=NONE; INDEX=0; RESULT=64966 
[ 2693.317545] NAME=NONE; INDEX=0; RESULT=65191 
[ 2693.434892] NAME=NONE; INDEX=0; RESULT=66852 
[ 2693.544773] NAME=NONE; INDEX=0; RESULT=65070 
[ 2693.669663] NAME=NONE; INDEX=0; RESULT=65376 
[ 2693.805646] NAME=NONE; INDEX=0; RESULT=65126 
[ 2693.950003] NAME=NONE; INDEX=0; RESULT=65232 
[ 2694.088894] NAME=NONE; INDEX=0; RESULT=65358 
[ 2694.225965] NAME=NONE; INDEX=0; RESULT=65084 
[ 2694.358518] NAME=NONE; INDEX=0; RESULT=64963 
[ 2694.488476] NAME=NONE; INDEX=0; RESULT=65594 
[ 2694.626043] NAME=NONE; INDEX=0; RESULT=64925 
[ 2694.755266] NAME=NONE; INDEX=0; RESULT=65115 
[ 2694.888891] NAME=NONE; INDEX=0; RESULT=65041 
[ 2695.038625] NAME=NONE; INDEX=0; RESULT=65251 
[ 2695.178848] NAME=NONE; INDEX=0; RESULT=65129 
[ 2695.294215] NAME=NONE; INDEX=0; RESULT=65630 
[ 2695.424758] NAME=NONE; INDEX=0; RESULT=64883 
[ 2695.549033] NAME=NONE; INDEX=0; RESULT=65206 
[ 2695.672304] NAME=NONE; INDEX=0; RESULT=65258 
[ 2695.775075] NAME=NONE; INDEX=0; RESULT=65233 
[ 2695.894782] NAME=NONE; INDEX=0; RESULT=66562 
[ 2695.994796] NAME=NONE; INDEX=0; RESULT=65593 
[ 2696.124735] NAME=NONE; INDEX=0; RESULT=65273 
[ 2696.234976] NAME=NONE; INDEX=0; RESULT=65557 
[ 2696.342214] NAME=NONE; INDEX=0; RESULT=65276 
[ 2696.494098] NAME=NONE; INDEX=0; RESULT=65038 
[ 2696.649627] NAME=NONE; INDEX=0; RESULT=65119 
[ 2696.779994] NAME=NONE; INDEX=0; RESULT=65064 
[ 2696.899171] NAME=NONE; INDEX=0; RESULT=65041 
[ 2697.016956] NAME=NONE; INDEX=0; RESULT=65230 
[ 2697.144708] NAME=NONE; INDEX=0; RESULT=65599 
[ 2697.269632] NAME=NONE; INDEX=0; RESULT=65105 
[ 2697.429847] NAME=NONE; INDEX=0; RESULT=65411 
[ 2697.566943] NAME=NONE; INDEX=0; RESULT=65087 
[ 2697.698652] NAME=NONE; INDEX=0; RESULT=65469 
[ 2697.838565] NAME=NONE; INDEX=0; RESULT=65119 
[ 2697.984943] NAME=NONE; INDEX=0; RESULT=65090 
[ 2698.098773] NAME=NONE; INDEX=0; RESULT=65365 
[ 2698.215247] NAME=NONE; INDEX=0; RESULT=65495 
[ 2698.358406] NAME=NONE; INDEX=0; RESULT=65076 
[ 2698.488904] NAME=NONE; INDEX=0; RESULT=65127 
[ 2698.619511] NAME=NONE; INDEX=0; RESULT=65747 
[ 2698.774886] NAME=NONE; INDEX=0; RESULT=65709 
[ 2698.864499] NAME=NONE; INDEX=0; RESULT=65475 
[ 2698.954418] NAME=NONE; INDEX=0; RESULT=65495 
[ 2699.050610] NAME=NONE; INDEX=0; RESULT=65064 
[ 2699.174790] NAME=NONE; INDEX=0; RESULT=65639 
[ 2699.264586] NAME=NONE; INDEX=0; RESULT=65525 
[ 2699.371990] NAME=NONE; INDEX=0; RESULT=65426 
[ 2699.493632] NAME=NONE; INDEX=0; RESULT=65190 
[ 2699.629679] NAME=NONE; INDEX=0; RESULT=65337 
[ 2699.752229] NAME=NONE; INDEX=0; RESULT=65631 
[ 2699.899922] NAME=NONE; INDEX=0; RESULT=65023 
[ 2700.059899] NAME=NONE; INDEX=0; RESULT=65411 
[ 2700.175032] NAME=NONE; INDEX=0; RESULT=65182 
[ 2700.284921] NAME=NONE; INDEX=0; RESULT=65262 
[ 2700.408839] NAME=NONE; INDEX=0; RESULT=65234 
[ 2700.524375] NAME=NONE; INDEX=0; RESULT=65284 
[ 2700.624704] NAME=NONE; INDEX=0; RESULT=65260 
[ 2700.754920] NAME=NONE; INDEX=0; RESULT=65330 
[ 2700.862079] NAME=NONE; INDEX=0; RESULT=65638 
[ 2701.004662] NAME=NONE; INDEX=0; RESULT=65144 
[ 2701.132013] NAME=NONE; INDEX=0; RESULT=65264 
[ 2701.239088] NAME=NONE; INDEX=0; RESULT=65228 
[ 2701.399564] NAME=NONE; INDEX=0; RESULT=65150 
[ 2701.523611] NAME=NONE; INDEX=0; RESULT=65299 
[ 2701.644510] NAME=NONE; INDEX=0; RESULT=65567 
[ 2701.769336] NAME=NONE; INDEX=0; RESULT=65221 
[ 2701.899676] NAME=NONE; INDEX=0; RESULT=65209 
[ 2702.031109] NAME=NONE; INDEX=0; RESULT=65061 
[ 2702.138367] NAME=NONE; INDEX=0; RESULT=65462 
[ 2702.275216] NAME=NONE; INDEX=0; RESULT=65449 
[ 2702.428498] NAME=NONE; INDEX=0; RESULT=65157 
[ 2702.568259] NAME=NONE; INDEX=0; RESULT=65080 
[ 2702.700929] NAME=NONE; INDEX=0; RESULT=64919 
[ 2702.829044] NAME=NONE; INDEX=0; RESULT=65400 
[ 2702.966593] NAME=NONE; INDEX=0; RESULT=65064 
[ 2703.088518] NAME=NONE; INDEX=0; RESULT=65043 
[ 2703.229595] NAME=NONE; INDEX=0; RESULT=65140 
[ 2703.374177] NAME=NONE; INDEX=0; RESULT=65573 
[ 2703.488549] NAME=NONE; INDEX=0; RESULT=65247 
[ 2703.626549] NAME=NONE; INDEX=0; RESULT=65042 
[ 2703.743283] NAME=NONE; INDEX=0; RESULT=65263 
[ 2703.862909] NAME=NONE; INDEX=0; RESULT=65149 
[ 2703.974326] NAME=NONE; INDEX=0; RESULT=65302 
[ 2704.108993] NAME=NONE; INDEX=0; RESULT=65328 
[ 2704.249504] NAME=NONE; INDEX=0; RESULT=65186 
[ 2704.371813] NAME=NONE; INDEX=0; RESULT=64921 
[ 2704.501895] NAME=NONE; INDEX=0; RESULT=65362 
[ 2704.594791] NAME=NONE; INDEX=0; RESULT=65413 
[ 2704.714908] NAME=NONE; INDEX=0; RESULT=65292 
[ 2704.824928] NAME=NONE; INDEX=0; RESULT=65496 
[ 2704.961703] NAME=NONE; INDEX=0; RESULT=65251 
[ 2705.109785] NAME=NONE; INDEX=0; RESULT=65129 
[ 2705.226541] NAME=NONE; INDEX=0; RESULT=65077 
[ 2705.358065] NAME=NONE; INDEX=0; RESULT=65261 
[ 2705.489538] NAME=NONE; INDEX=0; RESULT=64945 
[ 2705.618341] NAME=NONE; INDEX=0; RESULT=65263 
[ 2705.744744] NAME=NONE; INDEX=0; RESULT=65426 
[ 2705.876593] NAME=NONE; INDEX=0; RESULT=64969 
[ 2706.004494] NAME=NONE; INDEX=0; RESULT=65490 
[ 2706.133743] NAME=NONE; INDEX=0; RESULT=65470 
[ 2706.265412] NAME=NONE; INDEX=0; RESULT=65178 
[ 2706.394351] NAME=NONE; INDEX=0; RESULT=65363 
[ 2706.530398] NAME=NONE; INDEX=0; RESULT=65227 
[ 2706.668065] NAME=NONE; INDEX=0; RESULT=65177 
[ 2706.797238] NAME=NONE; INDEX=0; RESULT=64951 
[ 2706.924314] NAME=NONE; INDEX=0; RESULT=65060 
[ 2707.044569] NAME=NONE; INDEX=0; RESULT=65469 
[ 2707.185323] NAME=NONE; INDEX=0; RESULT=65086 
[ 2707.328833] NAME=NONE; INDEX=0; RESULT=65210 
[ 2707.484619] NAME=NONE; INDEX=0; RESULT=65003 
[ 2707.638232] NAME=NONE; INDEX=0; RESULT=65095 
[ 2707.774528] NAME=NONE; INDEX=0; RESULT=65235 
[ 2707.894765] NAME=NONE; INDEX=0; RESULT=65260 
[ 2708.050856] NAME=NONE; INDEX=0; RESULT=65152 
[ 2708.187987] NAME=NONE; INDEX=0; RESULT=65086 
[ 2708.317654] NAME=NONE; INDEX=0; RESULT=65064 
[ 2708.448335] NAME=NONE; INDEX=0; RESULT=65014 
[ 2708.588392] NAME=NONE; INDEX=0; RESULT=65062 
[ 2708.729230] NAME=NONE; INDEX=0; RESULT=65980 
[ 2708.864236] NAME=NONE; INDEX=0; RESULT=65087 
[ 2709.014325] NAME=NONE; INDEX=0; RESULT=65267 
[ 2709.149479] NAME=NONE; INDEX=0; RESULT=65228 
[ 2709.300522] NAME=NONE; INDEX=0; RESULT=65161 
[ 2709.426470] NAME=NONE; INDEX=0; RESULT=65111 
[ 2709.570880] NAME=NONE; INDEX=0; RESULT=64979 
[ 2709.705019] NAME=NONE; INDEX=0; RESULT=65196 
[ 2709.834515] NAME=NONE; INDEX=0; RESULT=65235 
[ 2709.989586] NAME=NONE; INDEX=0; RESULT=65063 
[ 2710.119717] NAME=NONE; INDEX=0; RESULT=65096 
[ 2710.247955] NAME=NONE; INDEX=0; RESULT=65106 
[ 2710.398970] NAME=NONE; INDEX=0; RESULT=65184 
[ 2710.526254] NAME=NONE; INDEX=0; RESULT=64974 
[ 2710.664010] NAME=NONE; INDEX=0; RESULT=65276 
[ 2710.808605] NAME=NONE; INDEX=0; RESULT=65441 
[ 2710.934413] NAME=NONE; INDEX=0; RESULT=65401 
[ 2711.064406] NAME=NONE; INDEX=0; RESULT=65395 
[ 2711.202087] NAME=NONE; INDEX=0; RESULT=65261 
[ 2711.322815] NAME=NONE; INDEX=0; RESULT=65718 
[ 2711.431683] NAME=NONE; INDEX=0; RESULT=65421 
[ 2711.529273] NAME=NONE; INDEX=0; RESULT=65179 
[ 2711.659225] NAME=NONE; INDEX=0; RESULT=65089 
[ 2711.785828] NAME=NONE; INDEX=0; RESULT=65187 
[ 2711.915903] NAME=NONE; INDEX=0; RESULT=65085 
[ 2712.034535] NAME=NONE; INDEX=0; RESULT=65222 
[ 2712.153213] NAME=NONE; INDEX=0; RESULT=65244 
[ 2712.271373] NAME=NONE; INDEX=0; RESULT=65181 
[ 2712.364082] NAME=NONE; INDEX=0; RESULT=65401 
[ 2712.458870] NAME=NONE; INDEX=0; RESULT=65622 
[ 2712.554490] NAME=NONE; INDEX=0; RESULT=65178 
[ 2712.664671] NAME=NONE; INDEX=0; RESULT=65479 
[ 2712.764585] NAME=NONE; INDEX=0; RESULT=65878 
[ 2712.868961] NAME=NONE; INDEX=0; RESULT=65457 
[ 2713.008207] NAME=NONE; INDEX=0; RESULT=65056 
[ 2713.159272] NAME=NONE; INDEX=0; RESULT=65131 
[ 2713.272122] NAME=NONE; INDEX=0; RESULT=65519 
[ 2713.384055] NAME=NONE; INDEX=0; RESULT=65364 
[ 2713.504300] NAME=NONE; INDEX=0; RESULT=65329 
[ 2713.604489] NAME=NONE; INDEX=0; RESULT=65506 
[ 2713.701848] NAME=NONE; INDEX=0; RESULT=65951 
[ 2713.794408] NAME=NONE; INDEX=0; RESULT=65157 
[ 2713.901220] NAME=NONE; INDEX=0; RESULT=65465 
[ 2714.055885] NAME=NONE; INDEX=0; RESULT=65076 
[ 2714.187658] NAME=NONE; INDEX=0; RESULT=65233 
[ 2714.326187] NAME=NONE; INDEX=0; RESULT=65257 
[ 2714.468230] NAME=NONE; INDEX=0; RESULT=65545 
[ 2714.604259] NAME=NONE; INDEX=0; RESULT=65419 
[ 2714.739620] NAME=NONE; INDEX=0; RESULT=65177 
[ 2714.858075] NAME=NONE; INDEX=0; RESULT=65118 
[ 2714.988993] NAME=NONE; INDEX=0; RESULT=65229 
[ 2715.149392] NAME=NONE; INDEX=0; RESULT=65180 
[ 2715.273953] NAME=NONE; INDEX=0; RESULT=65248 
[ 2715.397571] NAME=NONE; INDEX=0; RESULT=65271 
[ 2715.523568] NAME=NONE; INDEX=0; RESULT=65111 
[ 2715.648395] NAME=NONE; INDEX=0; RESULT=65208 
[ 2715.808339] NAME=NONE; INDEX=0; RESULT=65145 
[ 2715.943408] NAME=NONE; INDEX=0; RESULT=65362 
[ 2716.078204] NAME=NONE; INDEX=0; RESULT=65167 
