[ 2716.596393] NAME=NONE; INDEX=0; RESULT=5249 
[ 2716.714119] NAME=NONE; INDEX=0; RESULT=5289 
[ 2716.831349] NAME=NONE; INDEX=0; RESULT=5381 
[ 2716.934065] NAME=NONE; INDEX=0; RESULT=5237 
[ 2717.024326] NAME=NONE; INDEX=0; RESULT=5148 
[ 2717.121491] NAME=NONE; INDEX=0; RESULT=5221 
[ 2717.248863] NAME=NONE; INDEX=0; RESULT=5224 
[ 2717.388449] NAME=NONE; INDEX=0; RESULT=5192 
[ 2717.533704] NAME=NONE; INDEX=0; RESULT=5337 
[ 2717.667836] NAME=NONE; INDEX=0; RESULT=5172 
[ 2717.808935] NAME=NONE; INDEX=0; RESULT=5152 
[ 2717.963725] NAME=NONE; INDEX=0; RESULT=5158 
[ 2718.095827] NAME=NONE; INDEX=0; RESULT=5059 
[ 2718.212315] NAME=NONE; INDEX=0; RESULT=5291 
[ 2718.333601] NAME=NONE; INDEX=0; RESULT=5223 
[ 2718.477926] NAME=NONE; INDEX=0; RESULT=5186 
[ 2718.626893] NAME=NONE; INDEX=0; RESULT=5201 
[ 2718.763598] NAME=NONE; INDEX=0; RESULT=5481 
[ 2718.894349] NAME=NONE; INDEX=0; RESULT=5321 
[ 2719.060712] NAME=NONE; INDEX=0; RESULT=5239 
[ 2719.233870] NAME=NONE; INDEX=0; RESULT=5259 
[ 2719.327199] NAME=NONE; INDEX=0; RESULT=5205 
[ 2719.411015] NAME=NONE; INDEX=0; RESULT=5340 
[ 2719.532570] NAME=NONE; INDEX=0; RESULT=5324 
[ 2719.631278] NAME=NONE; INDEX=0; RESULT=5346 
[ 2719.731381] NAME=NONE; INDEX=0; RESULT=5460 
[ 2719.828516] NAME=NONE; INDEX=0; RESULT=5344 
[ 2719.959054] NAME=NONE; INDEX=0; RESULT=5184 
[ 2720.117691] NAME=NONE; INDEX=0; RESULT=5296 
[ 2720.257074] NAME=NONE; INDEX=0; RESULT=5216 
[ 2720.374863] NAME=NONE; INDEX=0; RESULT=5020 
[ 2720.518749] NAME=NONE; INDEX=0; RESULT=5246 
[ 2720.647947] NAME=NONE; INDEX=0; RESULT=5207 
[ 2720.776923] NAME=NONE; INDEX=0; RESULT=5161 
[ 2720.908807] NAME=NONE; INDEX=0; RESULT=5338 
[ 2721.057154] NAME=NONE; INDEX=0; RESULT=5329 
[ 2721.188766] NAME=NONE; INDEX=0; RESULT=5215 
[ 2721.343463] NAME=NONE; INDEX=0; RESULT=5238 
[ 2721.498448] NAME=NONE; INDEX=0; RESULT=5272 
[ 2721.623768] NAME=NONE; INDEX=0; RESULT=5409 
[ 2721.743668] NAME=NONE; INDEX=0; RESULT=5541 
[ 2721.833787] NAME=NONE; INDEX=0; RESULT=5425 
[ 2721.943326] NAME=NONE; INDEX=0; RESULT=5279 
[ 2722.051222] NAME=NONE; INDEX=0; RESULT=5297 
[ 2722.151296] NAME=NONE; INDEX=0; RESULT=5319 
[ 2722.272337] NAME=NONE; INDEX=0; RESULT=5392 
[ 2722.397840] NAME=NONE; INDEX=0; RESULT=5168 
[ 2722.543572] NAME=NONE; INDEX=0; RESULT=5190 
[ 2722.653564] NAME=NONE; INDEX=0; RESULT=5402 
[ 2722.785295] NAME=NONE; INDEX=0; RESULT=5018 
[ 2722.899013] NAME=NONE; INDEX=0; RESULT=5174 
[ 2723.038144] NAME=NONE; INDEX=0; RESULT=5201 
[ 2723.153802] NAME=NONE; INDEX=0; RESULT=5180 
[ 2723.284016] NAME=NONE; INDEX=0; RESULT=5295 
[ 2723.427853] NAME=NONE; INDEX=0; RESULT=5179 
[ 2723.547029] NAME=NONE; INDEX=0; RESULT=5279 
[ 2723.673967] NAME=NONE; INDEX=0; RESULT=5171 
[ 2723.815774] NAME=NONE; INDEX=0; RESULT=5278 
[ 2723.947717] NAME=NONE; INDEX=0; RESULT=5222 
[ 2724.085144] NAME=NONE; INDEX=0; RESULT=5146 
[ 2724.214069] NAME=NONE; INDEX=0; RESULT=5169 
[ 2724.345795] NAME=NONE; INDEX=0; RESULT=5202 
[ 2724.499997] NAME=NONE; INDEX=0; RESULT=5138 
[ 2724.588041] NAME=NONE; INDEX=0; RESULT=5397 
[ 2724.699788] NAME=NONE; INDEX=0; RESULT=5261 
[ 2724.821180] NAME=NONE; INDEX=0; RESULT=5329 
[ 2724.931147] NAME=NONE; INDEX=0; RESULT=5364 
[ 2725.043879] NAME=NONE; INDEX=0; RESULT=5425 
[ 2725.140765] NAME=NONE; INDEX=0; RESULT=5246 
[ 2725.253693] NAME=NONE; INDEX=0; RESULT=5494 
[ 2725.397807] NAME=NONE; INDEX=0; RESULT=5154 
[ 2725.517016] NAME=NONE; INDEX=0; RESULT=5305 
[ 2725.667306] NAME=NONE; INDEX=0; RESULT=5192 
[ 2725.808711] NAME=NONE; INDEX=0; RESULT=5220 
[ 2725.937373] NAME=NONE; INDEX=0; RESULT=5254 
[ 2726.067034] NAME=NONE; INDEX=0; RESULT=5224 
[ 2726.208618] NAME=NONE; INDEX=0; RESULT=5211 
[ 2726.347106] NAME=NONE; INDEX=0; RESULT=5275 
[ 2726.487554] NAME=NONE; INDEX=0; RESULT=5160 
[ 2726.628740] NAME=NONE; INDEX=0; RESULT=5307 
[ 2726.767277] NAME=NONE; INDEX=0; RESULT=5198 
[ 2726.907772] NAME=NONE; INDEX=0; RESULT=5156 
[ 2727.034747] NAME=NONE; INDEX=0; RESULT=5129 
[ 2727.153139] NAME=NONE; INDEX=0; RESULT=5380 
[ 2727.270078] NAME=NONE; INDEX=0; RESULT=5233 
[ 2727.407003] NAME=NONE; INDEX=0; RESULT=5211 
[ 2727.548398] NAME=NONE; INDEX=0; RESULT=5520 
[ 2727.689929] NAME=NONE; INDEX=0; RESULT=5278 
[ 2727.803460] NAME=NONE; INDEX=0; RESULT=5278 
[ 2727.957491] NAME=NONE; INDEX=0; RESULT=5191 
[ 2728.074161] NAME=NONE; INDEX=0; RESULT=5320 
[ 2728.189974] NAME=NONE; INDEX=0; RESULT=5240 
[ 2728.317591] NAME=NONE; INDEX=0; RESULT=5134 
[ 2728.457490] NAME=NONE; INDEX=0; RESULT=5207 
[ 2728.593478] NAME=NONE; INDEX=0; RESULT=5259 
[ 2728.742737] NAME=NONE; INDEX=0; RESULT=5216 
[ 2728.877549] NAME=NONE; INDEX=0; RESULT=5228 
[ 2729.023352] NAME=NONE; INDEX=0; RESULT=5309 
[ 2729.180874] NAME=NONE; INDEX=0; RESULT=5157 
[ 2729.306945] NAME=NONE; INDEX=0; RESULT=5358 
[ 2729.442974] NAME=NONE; INDEX=0; RESULT=5197 
[ 2729.567131] NAME=NONE; INDEX=0; RESULT=5195 
[ 2729.697707] NAME=NONE; INDEX=0; RESULT=5273 
[ 2729.857734] NAME=NONE; INDEX=0; RESULT=5333 
[ 2729.973753] NAME=NONE; INDEX=0; RESULT=5279 
[ 2730.070920] NAME=NONE; INDEX=0; RESULT=5411 
[ 2730.190145] NAME=NONE; INDEX=0; RESULT=5510 
[ 2730.290562] NAME=NONE; INDEX=0; RESULT=5347 
[ 2730.400486] NAME=NONE; INDEX=0; RESULT=5335 
[ 2730.490828] NAME=NONE; INDEX=0; RESULT=5316 
[ 2730.590873] NAME=NONE; INDEX=0; RESULT=5226 
[ 2730.737521] NAME=NONE; INDEX=0; RESULT=5274 
[ 2730.873077] NAME=NONE; INDEX=0; RESULT=5240 
[ 2731.002791] NAME=NONE; INDEX=0; RESULT=5266 
[ 2731.126521] NAME=NONE; INDEX=0; RESULT=5145 
[ 2731.263045] NAME=NONE; INDEX=0; RESULT=5298 
[ 2731.383639] NAME=NONE; INDEX=0; RESULT=5315 
[ 2731.507213] NAME=NONE; INDEX=0; RESULT=5414 
[ 2731.638539] NAME=NONE; INDEX=0; RESULT=5333 
[ 2731.768375] NAME=NONE; INDEX=0; RESULT=5312 
[ 2731.902741] NAME=NONE; INDEX=0; RESULT=5184 
[ 2732.038437] NAME=NONE; INDEX=0; RESULT=5387 
[ 2732.178495] NAME=NONE; INDEX=0; RESULT=5381 
[ 2732.315277] NAME=NONE; INDEX=0; RESULT=5064 
[ 2732.450588] NAME=NONE; INDEX=0; RESULT=5172 
[ 2732.612994] NAME=NONE; INDEX=0; RESULT=5223 
[ 2732.743308] NAME=NONE; INDEX=0; RESULT=5233 
[ 2732.875456] NAME=NONE; INDEX=0; RESULT=5165 
[ 2733.002934] NAME=NONE; INDEX=0; RESULT=5242 
[ 2733.139801] NAME=NONE; INDEX=0; RESULT=5338 
[ 2733.273984] NAME=NONE; INDEX=0; RESULT=5278 
[ 2733.433925] NAME=NONE; INDEX=0; RESULT=5371 
[ 2733.567447] NAME=NONE; INDEX=0; RESULT=5270 
[ 2733.707357] NAME=NONE; INDEX=0; RESULT=5255 
[ 2733.867414] NAME=NONE; INDEX=0; RESULT=5138 
[ 2734.016908] NAME=NONE; INDEX=0; RESULT=5195 
[ 2734.123516] NAME=NONE; INDEX=0; RESULT=5179 
[ 2734.248242] NAME=NONE; INDEX=0; RESULT=5216 
[ 2734.362200] NAME=NONE; INDEX=0; RESULT=5288 
[ 2734.507240] NAME=NONE; INDEX=0; RESULT=5336 
[ 2734.647072] NAME=NONE; INDEX=0; RESULT=5224 
[ 2734.787208] NAME=NONE; INDEX=0; RESULT=5203 
[ 2734.929847] NAME=NONE; INDEX=0; RESULT=5221 
[ 2735.047513] NAME=NONE; INDEX=0; RESULT=5280 
[ 2735.187029] NAME=NONE; INDEX=0; RESULT=5269 
[ 2735.328582] NAME=NONE; INDEX=0; RESULT=5269 
[ 2735.478174] NAME=NONE; INDEX=0; RESULT=5183 
[ 2735.606981] NAME=NONE; INDEX=0; RESULT=5194 
[ 2735.736495] NAME=NONE; INDEX=0; RESULT=5171 
[ 2735.877479] NAME=NONE; INDEX=0; RESULT=5211 
[ 2736.024105] NAME=NONE; INDEX=0; RESULT=5159 
[ 2736.167648] NAME=NONE; INDEX=0; RESULT=5364 
[ 2736.303325] NAME=NONE; INDEX=0; RESULT=5198 
[ 2736.411809] NAME=NONE; INDEX=0; RESULT=5211 
[ 2736.521156] NAME=NONE; INDEX=0; RESULT=5242 
[ 2736.641967] NAME=NONE; INDEX=0; RESULT=5269 
[ 2736.780988] NAME=NONE; INDEX=0; RESULT=5236 
[ 2736.872197] NAME=NONE; INDEX=0; RESULT=5251 
[ 2736.992144] NAME=NONE; INDEX=0; RESULT=5387 
[ 2737.137395] NAME=NONE; INDEX=0; RESULT=5247 
[ 2737.298103] NAME=NONE; INDEX=0; RESULT=5271 
[ 2737.432581] NAME=NONE; INDEX=0; RESULT=5306 
[ 2737.578911] NAME=NONE; INDEX=0; RESULT=5212 
[ 2737.717996] NAME=NONE; INDEX=0; RESULT=5231 
[ 2737.867249] NAME=NONE; INDEX=0; RESULT=5145 
[ 2738.018070] NAME=NONE; INDEX=0; RESULT=5209 
[ 2738.155252] NAME=NONE; INDEX=0; RESULT=5168 
[ 2738.308262] NAME=NONE; INDEX=0; RESULT=5237 
[ 2738.433159] NAME=NONE; INDEX=0; RESULT=5579 
[ 2738.520465] NAME=NONE; INDEX=0; RESULT=5292 
[ 2738.640285] NAME=NONE; INDEX=0; RESULT=5273 
[ 2738.740324] NAME=NONE; INDEX=0; RESULT=5372 
[ 2738.860285] NAME=NONE; INDEX=0; RESULT=5313 
[ 2738.990607] NAME=NONE; INDEX=0; RESULT=5211 
[ 2739.138091] NAME=NONE; INDEX=0; RESULT=5137 
[ 2739.240329] NAME=NONE; INDEX=0; RESULT=6122 
[ 2739.370368] NAME=NONE; INDEX=0; RESULT=5727 
[ 2739.480276] NAME=NONE; INDEX=0; RESULT=5294 
[ 2739.580348] NAME=NONE; INDEX=0; RESULT=5512 
[ 2739.683341] NAME=NONE; INDEX=0; RESULT=5451 
[ 2739.800507] NAME=NONE; INDEX=0; RESULT=5359 
[ 2739.936932] NAME=NONE; INDEX=0; RESULT=5159 
[ 2740.072373] NAME=NONE; INDEX=0; RESULT=5243 
[ 2740.216967] NAME=NONE; INDEX=0; RESULT=5174 
[ 2740.362794] NAME=NONE; INDEX=0; RESULT=5346 
[ 2740.478039] NAME=NONE; INDEX=0; RESULT=5168 
[ 2740.612519] NAME=NONE; INDEX=0; RESULT=5173 
[ 2740.748492] NAME=NONE; INDEX=0; RESULT=5249 
[ 2740.872980] NAME=NONE; INDEX=0; RESULT=5415 
[ 2741.010985] NAME=NONE; INDEX=0; RESULT=5540 
[ 2741.158245] NAME=NONE; INDEX=0; RESULT=5154 
[ 2741.297332] NAME=NONE; INDEX=0; RESULT=5185 
[ 2741.434987] NAME=NONE; INDEX=0; RESULT=5165 
[ 2741.571444] NAME=NONE; INDEX=0; RESULT=5256 
[ 2741.681599] NAME=NONE; INDEX=0; RESULT=5316 
[ 2741.814588] NAME=NONE; INDEX=0; RESULT=5097 
[ 2741.955683] NAME=NONE; INDEX=0; RESULT=5151 
[ 2742.098164] NAME=NONE; INDEX=0; RESULT=5151 
[ 2742.202887] NAME=NONE; INDEX=0; RESULT=5223 
[ 2742.331068] NAME=NONE; INDEX=0; RESULT=5569 
[ 2742.472936] NAME=NONE; INDEX=0; RESULT=5321 
[ 2742.573049] NAME=NONE; INDEX=0; RESULT=5373 
[ 2742.676220] NAME=NONE; INDEX=0; RESULT=5325 
[ 2742.771033] NAME=NONE; INDEX=0; RESULT=5499 
[ 2742.875130] NAME=NONE; INDEX=0; RESULT=5327 
[ 2743.002876] NAME=NONE; INDEX=0; RESULT=5245 
[ 2743.156733] NAME=NONE; INDEX=0; RESULT=5249 
[ 2743.286999] NAME=NONE; INDEX=0; RESULT=5204 
[ 2743.417883] NAME=NONE; INDEX=0; RESULT=5127 
[ 2743.530641] NAME=NONE; INDEX=0; RESULT=5573 
[ 2743.633199] NAME=NONE; INDEX=0; RESULT=5237 
[ 2743.733166] NAME=NONE; INDEX=0; RESULT=5205 
[ 2743.823258] NAME=NONE; INDEX=0; RESULT=5298 
[ 2743.912953] NAME=NONE; INDEX=0; RESULT=5255 
[ 2744.003052] NAME=NONE; INDEX=0; RESULT=5423 
[ 2744.120138] NAME=NONE; INDEX=0; RESULT=5343 
[ 2744.227789] NAME=NONE; INDEX=0; RESULT=5222 
[ 2744.342869] NAME=NONE; INDEX=0; RESULT=5405 
[ 2744.473158] NAME=NONE; INDEX=0; RESULT=5265 
[ 2744.570270] NAME=NONE; INDEX=0; RESULT=5294 
[ 2744.673262] NAME=NONE; INDEX=0; RESULT=5449 
[ 2744.782872] NAME=NONE; INDEX=0; RESULT=5190 
[ 2744.910030] NAME=NONE; INDEX=0; RESULT=5377 
[ 2745.023129] NAME=NONE; INDEX=0; RESULT=5265 
[ 2745.150889] NAME=NONE; INDEX=0; RESULT=5616 
[ 2745.272599] NAME=NONE; INDEX=0; RESULT=5376 
[ 2745.380334] NAME=NONE; INDEX=0; RESULT=5387 
[ 2745.510338] NAME=NONE; INDEX=0; RESULT=5771 
[ 2745.630262] NAME=NONE; INDEX=0; RESULT=5638 
[ 2745.733411] NAME=NONE; INDEX=0; RESULT=5422 
[ 2745.863185] NAME=NONE; INDEX=0; RESULT=5161 
[ 2746.009971] NAME=NONE; INDEX=0; RESULT=5252 
[ 2746.172271] NAME=NONE; INDEX=0; RESULT=5750 
[ 2746.301985] NAME=NONE; INDEX=0; RESULT=5194 
[ 2746.406729] NAME=NONE; INDEX=0; RESULT=5304 
[ 2746.532706] NAME=NONE; INDEX=0; RESULT=5197 
[ 2746.662672] NAME=NONE; INDEX=0; RESULT=5210 
[ 2746.779234] NAME=NONE; INDEX=0; RESULT=5185 
[ 2746.932501] NAME=NONE; INDEX=0; RESULT=5249 
[ 2747.054821] NAME=NONE; INDEX=0; RESULT=5140 
[ 2747.192311] NAME=NONE; INDEX=0; RESULT=5444 
[ 2747.312620] NAME=NONE; INDEX=0; RESULT=5276 
[ 2747.447162] NAME=NONE; INDEX=0; RESULT=5327 
[ 2747.573994] NAME=NONE; INDEX=0; RESULT=5021 
[ 2747.682619] NAME=NONE; INDEX=0; RESULT=5412 
[ 2747.812611] NAME=NONE; INDEX=0; RESULT=5207 
[ 2747.952049] NAME=NONE; INDEX=0; RESULT=5229 
[ 2748.076808] NAME=NONE; INDEX=0; RESULT=5128 
[ 2748.211953] NAME=NONE; INDEX=0; RESULT=5317 
[ 2748.336843] NAME=NONE; INDEX=0; RESULT=5230 
[ 2748.461689] NAME=NONE; INDEX=0; RESULT=5173 
[ 2748.593576] NAME=NONE; INDEX=0; RESULT=5018 
[ 2748.722359] NAME=NONE; INDEX=0; RESULT=5362 
[ 2748.827024] NAME=NONE; INDEX=0; RESULT=5196 
[ 2748.960176] NAME=NONE; INDEX=0; RESULT=5383 
[ 2749.059873] NAME=NONE; INDEX=0; RESULT=5185 
[ 2749.210156] NAME=NONE; INDEX=0; RESULT=5251 
[ 2749.332849] NAME=NONE; INDEX=0; RESULT=5291 
[ 2749.429852] NAME=NONE; INDEX=0; RESULT=5293 
[ 2749.559885] NAME=NONE; INDEX=0; RESULT=5220 
[ 2749.696907] NAME=NONE; INDEX=0; RESULT=5219 
[ 2749.837844] NAME=NONE; INDEX=0; RESULT=5317 
[ 2749.956630] NAME=NONE; INDEX=0; RESULT=5220 
[ 2750.076717] NAME=NONE; INDEX=0; RESULT=5153 
[ 2750.208476] NAME=NONE; INDEX=0; RESULT=5205 
[ 2750.343116] NAME=NONE; INDEX=0; RESULT=5194 
[ 2750.472728] NAME=NONE; INDEX=0; RESULT=5180 
[ 2750.606260] NAME=NONE; INDEX=0; RESULT=5297 
[ 2750.736929] NAME=NONE; INDEX=0; RESULT=5168 
[ 2750.864757] NAME=NONE; INDEX=0; RESULT=5270 
[ 2750.992418] NAME=NONE; INDEX=0; RESULT=5240 
[ 2751.128468] NAME=NONE; INDEX=0; RESULT=5296 
[ 2751.242715] NAME=NONE; INDEX=0; RESULT=5249 
[ 2751.389971] NAME=NONE; INDEX=0; RESULT=5614 
[ 2751.519750] NAME=NONE; INDEX=0; RESULT=5329 
[ 2751.622703] NAME=NONE; INDEX=0; RESULT=5340 
[ 2751.742554] NAME=NONE; INDEX=0; RESULT=5325 
[ 2751.872396] NAME=NONE; INDEX=0; RESULT=5273 
[ 2751.978070] NAME=NONE; INDEX=0; RESULT=5242 
[ 2752.111941] NAME=NONE; INDEX=0; RESULT=5208 
[ 2752.257569] NAME=NONE; INDEX=0; RESULT=5258 
[ 2752.402090] NAME=NONE; INDEX=0; RESULT=5272 
[ 2752.565324] NAME=NONE; INDEX=0; RESULT=5202 
[ 2752.696208] NAME=NONE; INDEX=0; RESULT=5211 
[ 2752.834572] NAME=NONE; INDEX=0; RESULT=5170 
[ 2752.977454] NAME=NONE; INDEX=0; RESULT=5242 
[ 2753.116445] NAME=NONE; INDEX=0; RESULT=5133 
[ 2753.257697] NAME=NONE; INDEX=0; RESULT=5194 
[ 2753.377466] NAME=NONE; INDEX=0; RESULT=5129 
[ 2753.516375] NAME=NONE; INDEX=0; RESULT=5134 
[ 2753.665558] NAME=NONE; INDEX=0; RESULT=5179 
[ 2753.806674] NAME=NONE; INDEX=0; RESULT=5182 
[ 2753.916305] NAME=NONE; INDEX=0; RESULT=5272 
[ 2754.042329] NAME=NONE; INDEX=0; RESULT=5166 
[ 2754.175620] NAME=NONE; INDEX=0; RESULT=5222 
[ 2754.327434] NAME=NONE; INDEX=0; RESULT=5171 
[ 2754.462666] NAME=NONE; INDEX=0; RESULT=5308 
[ 2754.582225] NAME=NONE; INDEX=0; RESULT=5299 
[ 2754.692147] NAME=NONE; INDEX=0; RESULT=5374 
[ 2754.812736] NAME=NONE; INDEX=0; RESULT=5262 
[ 2754.932874] NAME=NONE; INDEX=0; RESULT=5329 
[ 2755.029067] NAME=NONE; INDEX=0; RESULT=5404 
[ 2755.157472] NAME=NONE; INDEX=0; RESULT=5137 
[ 2755.308244] NAME=NONE; INDEX=0; RESULT=5376 
[ 2755.448983] NAME=NONE; INDEX=0; RESULT=5178 
[ 2755.564603] NAME=NONE; INDEX=0; RESULT=5155 
[ 2755.713626] NAME=NONE; INDEX=0; RESULT=5022 
[ 2755.867658] NAME=NONE; INDEX=0; RESULT=5210 
[ 2755.995915] NAME=NONE; INDEX=0; RESULT=5207 
[ 2756.127484] NAME=NONE; INDEX=0; RESULT=5330 
[ 2756.266297] NAME=NONE; INDEX=0; RESULT=5229 
[ 2756.406564] NAME=NONE; INDEX=0; RESULT=5242 
[ 2756.547608] NAME=NONE; INDEX=0; RESULT=5169 
[ 2756.691972] NAME=NONE; INDEX=0; RESULT=5206 
[ 2756.830944] NAME=NONE; INDEX=0; RESULT=5211 
[ 2756.950104] NAME=NONE; INDEX=0; RESULT=5223 
[ 2757.081797] NAME=NONE; INDEX=0; RESULT=5266 
[ 2757.185611] NAME=NONE; INDEX=0; RESULT=5189 
[ 2757.300017] NAME=NONE; INDEX=0; RESULT=5980 
[ 2757.409585] NAME=NONE; INDEX=0; RESULT=5779 
[ 2757.499635] NAME=NONE; INDEX=0; RESULT=5319 
[ 2757.619541] NAME=NONE; INDEX=0; RESULT=5249 
[ 2757.732055] NAME=NONE; INDEX=0; RESULT=5250 
[ 2757.829906] NAME=NONE; INDEX=0; RESULT=5191 
[ 2757.962522] NAME=NONE; INDEX=0; RESULT=5244 
[ 2758.077121] NAME=NONE; INDEX=0; RESULT=5379 
[ 2758.206369] NAME=NONE; INDEX=0; RESULT=5413 
[ 2758.347259] NAME=NONE; INDEX=0; RESULT=5191 
[ 2758.482038] NAME=NONE; INDEX=0; RESULT=5372 
[ 2758.615713] NAME=NONE; INDEX=0; RESULT=5341 
[ 2758.735728] NAME=NONE; INDEX=0; RESULT=5225 
[ 2758.868163] NAME=NONE; INDEX=0; RESULT=5213 
[ 2759.002346] NAME=NONE; INDEX=0; RESULT=5242 
[ 2759.144311] NAME=NONE; INDEX=0; RESULT=5140 
[ 2759.287280] NAME=NONE; INDEX=0; RESULT=5168 
[ 2759.421805] NAME=NONE; INDEX=0; RESULT=5244 
[ 2759.597753] NAME=NONE; INDEX=0; RESULT=5505 
[ 2759.722313] NAME=NONE; INDEX=0; RESULT=5371 
[ 2759.842516] NAME=NONE; INDEX=0; RESULT=5507 
[ 2759.949975] NAME=NONE; INDEX=0; RESULT=5300 
[ 2760.082596] NAME=NONE; INDEX=0; RESULT=5570 
[ 2760.179805] NAME=NONE; INDEX=0; RESULT=5282 
[ 2760.300184] NAME=NONE; INDEX=0; RESULT=5197 
[ 2760.410268] NAME=NONE; INDEX=0; RESULT=5220 
[ 2760.566010] NAME=NONE; INDEX=0; RESULT=5196 
[ 2760.707432] NAME=NONE; INDEX=0; RESULT=5198 
[ 2760.845881] NAME=NONE; INDEX=0; RESULT=5287 
[ 2760.984412] NAME=NONE; INDEX=0; RESULT=5330 
[ 2761.126516] NAME=NONE; INDEX=0; RESULT=5142 
[ 2761.255885] NAME=NONE; INDEX=0; RESULT=5176 
[ 2761.392212] NAME=NONE; INDEX=0; RESULT=5268 
[ 2761.526563] NAME=NONE; INDEX=0; RESULT=5157 
[ 2761.634999] NAME=NONE; INDEX=0; RESULT=5216 
[ 2761.771581] NAME=NONE; INDEX=0; RESULT=5230 
[ 2761.892233] NAME=NONE; INDEX=0; RESULT=5504 
[ 2762.008550] NAME=NONE; INDEX=0; RESULT=5189 
[ 2762.145897] NAME=NONE; INDEX=0; RESULT=5265 
[ 2762.296284] NAME=NONE; INDEX=0; RESULT=5238 
[ 2762.436340] NAME=NONE; INDEX=0; RESULT=5148 
[ 2762.572021] NAME=NONE; INDEX=0; RESULT=5715 
[ 2762.701725] NAME=NONE; INDEX=0; RESULT=5452 
[ 2762.822092] NAME=NONE; INDEX=0; RESULT=5283 
[ 2762.975265] NAME=NONE; INDEX=0; RESULT=5227 
[ 2763.098727] NAME=NONE; INDEX=0; RESULT=5178 
[ 2763.215803] NAME=NONE; INDEX=0; RESULT=5146 
[ 2763.346152] NAME=NONE; INDEX=0; RESULT=5204 
[ 2763.517091] NAME=NONE; INDEX=0; RESULT=5286 
[ 2763.652141] NAME=NONE; INDEX=0; RESULT=5280 
[ 2763.786407] NAME=NONE; INDEX=0; RESULT=5181 
[ 2763.921592] NAME=NONE; INDEX=0; RESULT=5345 
[ 2764.061996] NAME=NONE; INDEX=0; RESULT=5893 
[ 2764.196459] NAME=NONE; INDEX=0; RESULT=5247 
[ 2764.356320] NAME=NONE; INDEX=0; RESULT=5266 
[ 2764.496798] NAME=NONE; INDEX=0; RESULT=5256 
[ 2764.642067] NAME=NONE; INDEX=0; RESULT=5853 
[ 2764.758280] NAME=NONE; INDEX=0; RESULT=5191 
[ 2764.872267] NAME=NONE; INDEX=0; RESULT=5521 
[ 2764.991240] NAME=NONE; INDEX=0; RESULT=5183 
[ 2765.117231] NAME=NONE; INDEX=0; RESULT=5201 
[ 2765.250435] NAME=NONE; INDEX=0; RESULT=5321 
[ 2765.381869] NAME=NONE; INDEX=0; RESULT=5271 
[ 2765.516422] NAME=NONE; INDEX=0; RESULT=5202 
[ 2765.653880] NAME=NONE; INDEX=0; RESULT=5299 
[ 2765.797167] NAME=NONE; INDEX=0; RESULT=5042 
[ 2765.937214] NAME=NONE; INDEX=0; RESULT=5180 
[ 2766.087181] NAME=NONE; INDEX=0; RESULT=5224 
[ 2766.210521] NAME=NONE; INDEX=0; RESULT=5254 
[ 2766.346737] NAME=NONE; INDEX=0; RESULT=5216 
[ 2766.492020] NAME=NONE; INDEX=0; RESULT=5338 
[ 2766.621982] NAME=NONE; INDEX=0; RESULT=5294 
[ 2766.757373] NAME=NONE; INDEX=0; RESULT=5309 
[ 2766.873058] NAME=NONE; INDEX=0; RESULT=5028 
[ 2767.021922] NAME=NONE; INDEX=0; RESULT=5470 
[ 2767.147155] NAME=NONE; INDEX=0; RESULT=5213 
[ 2767.295621] NAME=NONE; INDEX=0; RESULT=5195 
[ 2767.424061] NAME=NONE; INDEX=0; RESULT=5025 
[ 2767.536434] NAME=NONE; INDEX=0; RESULT=5163 
[ 2767.656368] NAME=NONE; INDEX=0; RESULT=5261 
[ 2767.824022] NAME=NONE; INDEX=0; RESULT=5429 
[ 2767.940972] NAME=NONE; INDEX=0; RESULT=5282 
[ 2768.072685] NAME=NONE; INDEX=0; RESULT=5233 
[ 2768.216082] NAME=NONE; INDEX=0; RESULT=5280 
[ 2768.355473] NAME=NONE; INDEX=0; RESULT=5188 
[ 2768.486940] NAME=NONE; INDEX=0; RESULT=5184 
[ 2768.615897] NAME=NONE; INDEX=0; RESULT=5252 
[ 2768.742008] NAME=NONE; INDEX=0; RESULT=5544 
[ 2768.872329] NAME=NONE; INDEX=0; RESULT=5249 
[ 2769.027149] NAME=NONE; INDEX=0; RESULT=5141 
[ 2769.171656] NAME=NONE; INDEX=0; RESULT=5290 
[ 2769.316919] NAME=NONE; INDEX=0; RESULT=5193 
[ 2769.451734] NAME=NONE; INDEX=0; RESULT=5309 
[ 2769.566137] NAME=NONE; INDEX=0; RESULT=5244 
[ 2769.695426] NAME=NONE; INDEX=0; RESULT=5163 
[ 2769.827240] NAME=NONE; INDEX=0; RESULT=5156 
[ 2769.973014] NAME=NONE; INDEX=0; RESULT=5030 
[ 2770.096207] NAME=NONE; INDEX=0; RESULT=5149 
[ 2770.236837] NAME=NONE; INDEX=0; RESULT=5201 
[ 2770.385684] NAME=NONE; INDEX=0; RESULT=5195 
[ 2770.515685] NAME=NONE; INDEX=0; RESULT=5214 
[ 2770.645211] NAME=NONE; INDEX=0; RESULT=5261 
[ 2770.772551] NAME=NONE; INDEX=0; RESULT=5265 
[ 2770.894065] NAME=NONE; INDEX=0; RESULT=5168 
[ 2771.005646] NAME=NONE; INDEX=0; RESULT=5154 
[ 2771.125559] NAME=NONE; INDEX=0; RESULT=5216 
[ 2771.244095] NAME=NONE; INDEX=0; RESULT=5281 
[ 2771.397216] NAME=NONE; INDEX=0; RESULT=5257 
[ 2771.532311] NAME=NONE; INDEX=0; RESULT=5398 
[ 2771.622221] NAME=NONE; INDEX=0; RESULT=5274 
[ 2771.752051] NAME=NONE; INDEX=0; RESULT=5452 
[ 2771.852292] NAME=NONE; INDEX=0; RESULT=5311 
[ 2771.981962] NAME=NONE; INDEX=0; RESULT=5753 
[ 2772.091861] NAME=NONE; INDEX=0; RESULT=5548 
[ 2772.236944] NAME=NONE; INDEX=0; RESULT=5272 
[ 2772.364116] NAME=NONE; INDEX=0; RESULT=5151 
[ 2772.506774] NAME=NONE; INDEX=0; RESULT=5258 
[ 2772.631798] NAME=NONE; INDEX=0; RESULT=5193 
[ 2772.770883] NAME=NONE; INDEX=0; RESULT=5257 
[ 2772.896158] NAME=NONE; INDEX=0; RESULT=5180 
[ 2773.041912] NAME=NONE; INDEX=0; RESULT=5378 
[ 2773.171890] NAME=NONE; INDEX=0; RESULT=5342 
[ 2773.316707] NAME=NONE; INDEX=0; RESULT=5166 
[ 2773.455346] NAME=NONE; INDEX=0; RESULT=5167 
[ 2773.596438] NAME=NONE; INDEX=0; RESULT=5184 
[ 2773.726550] NAME=NONE; INDEX=0; RESULT=5200 
[ 2773.876009] NAME=NONE; INDEX=0; RESULT=5326 
[ 2774.017712] NAME=NONE; INDEX=0; RESULT=5490 
[ 2774.165428] NAME=NONE; INDEX=0; RESULT=5304 
[ 2774.282062] NAME=NONE; INDEX=0; RESULT=5199 
[ 2774.399261] NAME=NONE; INDEX=0; RESULT=5169 
[ 2774.531911] NAME=NONE; INDEX=0; RESULT=5332 
[ 2774.669421] NAME=NONE; INDEX=0; RESULT=5839 
[ 2774.802230] NAME=NONE; INDEX=0; RESULT=5710 
[ 2774.942083] NAME=NONE; INDEX=0; RESULT=5193 
[ 2775.092061] NAME=NONE; INDEX=0; RESULT=5583 
[ 2775.221886] NAME=NONE; INDEX=0; RESULT=5308 
[ 2775.365974] NAME=NONE; INDEX=0; RESULT=5172 
[ 2775.509531] NAME=NONE; INDEX=0; RESULT=5868 
[ 2775.641887] NAME=NONE; INDEX=0; RESULT=5304 
[ 2775.735298] NAME=NONE; INDEX=0; RESULT=5367 
[ 2775.829271] NAME=NONE; INDEX=0; RESULT=5308 
[ 2775.931951] NAME=NONE; INDEX=0; RESULT=5263 
[ 2776.019413] NAME=NONE; INDEX=0; RESULT=5430 
[ 2776.119276] NAME=NONE; INDEX=0; RESULT=5316 
[ 2776.246720] NAME=NONE; INDEX=0; RESULT=5205 
[ 2776.364409] NAME=NONE; INDEX=0; RESULT=5158 
[ 2776.496816] NAME=NONE; INDEX=0; RESULT=5150 
[ 2776.621741] NAME=NONE; INDEX=0; RESULT=5532 
[ 2776.739264] NAME=NONE; INDEX=0; RESULT=5284 
[ 2776.839313] NAME=NONE; INDEX=0; RESULT=5201 
[ 2776.934791] NAME=NONE; INDEX=0; RESULT=5223 
[ 2777.049929] NAME=NONE; INDEX=0; RESULT=5461 
[ 2777.139523] NAME=NONE; INDEX=0; RESULT=5558 
[ 2777.273897] NAME=NONE; INDEX=0; RESULT=5148 
[ 2777.436775] NAME=NONE; INDEX=0; RESULT=5140 
[ 2777.556947] NAME=NONE; INDEX=0; RESULT=5077 
[ 2777.716692] NAME=NONE; INDEX=0; RESULT=5156 
[ 2777.845516] NAME=NONE; INDEX=0; RESULT=5205 
[ 2777.976665] NAME=NONE; INDEX=0; RESULT=5202 
[ 2778.126956] NAME=NONE; INDEX=0; RESULT=5245 
[ 2778.261485] NAME=NONE; INDEX=0; RESULT=5307 
[ 2778.405950] NAME=NONE; INDEX=0; RESULT=5207 
[ 2778.555175] NAME=NONE; INDEX=0; RESULT=5247 
[ 2778.718481] NAME=NONE; INDEX=0; RESULT=5157 
[ 2778.839085] NAME=NONE; INDEX=0; RESULT=5230 
[ 2778.981464] NAME=NONE; INDEX=0; RESULT=5156 
[ 2779.123294] NAME=NONE; INDEX=0; RESULT=5050 
[ 2779.255806] NAME=NONE; INDEX=0; RESULT=5286 
[ 2779.395027] NAME=NONE; INDEX=0; RESULT=5216 
[ 2779.559387] NAME=NONE; INDEX=0; RESULT=5167 
[ 2779.698172] NAME=NONE; INDEX=0; RESULT=5437 
[ 2779.835901] NAME=NONE; INDEX=0; RESULT=5036 
[ 2779.964650] NAME=NONE; INDEX=0; RESULT=5312 
[ 2780.119256] NAME=NONE; INDEX=0; RESULT=5468 
[ 2780.208792] NAME=NONE; INDEX=0; RESULT=5563 
[ 2780.315259] NAME=NONE; INDEX=0; RESULT=5387 
[ 2780.418778] NAME=NONE; INDEX=0; RESULT=5767 
[ 2780.531263] NAME=NONE; INDEX=0; RESULT=5352 
[ 2780.658843] NAME=NONE; INDEX=0; RESULT=5176 
[ 2780.786569] NAME=NONE; INDEX=0; RESULT=5192 
[ 2780.899476] NAME=NONE; INDEX=0; RESULT=5471 
[ 2781.021600] NAME=NONE; INDEX=0; RESULT=5500 
[ 2781.121591] NAME=NONE; INDEX=0; RESULT=5434 
[ 2781.237353] NAME=NONE; INDEX=0; RESULT=5306 
[ 2781.339031] NAME=NONE; INDEX=0; RESULT=5226 
[ 2781.459019] NAME=NONE; INDEX=0; RESULT=5257 
[ 2781.583033] NAME=NONE; INDEX=0; RESULT=5092 
[ 2781.726608] NAME=NONE; INDEX=0; RESULT=5256 
[ 2781.861016] NAME=NONE; INDEX=0; RESULT=5451 
[ 2782.025855] NAME=NONE; INDEX=0; RESULT=5144 
[ 2782.151372] NAME=NONE; INDEX=0; RESULT=5203 
[ 2782.286553] NAME=NONE; INDEX=0; RESULT=5200 
[ 2782.421610] NAME=NONE; INDEX=0; RESULT=5486 
[ 2782.565513] NAME=NONE; INDEX=0; RESULT=5373 
[ 2782.728236] NAME=NONE; INDEX=0; RESULT=5180 
[ 2782.861316] NAME=NONE; INDEX=0; RESULT=5326 
[ 2782.967180] NAME=NONE; INDEX=0; RESULT=5380 
[ 2783.088673] NAME=NONE; INDEX=0; RESULT=5261 
[ 2783.191664] NAME=NONE; INDEX=0; RESULT=5330 
[ 2783.301919] NAME=NONE; INDEX=0; RESULT=5201 
[ 2783.408992] NAME=NONE; INDEX=0; RESULT=5259 
[ 2783.517096] NAME=NONE; INDEX=0; RESULT=5181 
[ 2783.661321] NAME=NONE; INDEX=0; RESULT=5259 
[ 2783.791223] NAME=NONE; INDEX=0; RESULT=5280 
[ 2783.926532] NAME=NONE; INDEX=0; RESULT=5138 
[ 2784.071470] NAME=NONE; INDEX=0; RESULT=5336 
[ 2784.196534] NAME=NONE; INDEX=0; RESULT=5270 
[ 2784.335775] NAME=NONE; INDEX=0; RESULT=5212 
[ 2784.456177] NAME=NONE; INDEX=0; RESULT=5354 
[ 2784.577546] NAME=NONE; INDEX=0; RESULT=5162 
[ 2784.756041] NAME=NONE; INDEX=0; RESULT=5260 
[ 2784.896877] NAME=NONE; INDEX=0; RESULT=5189 
[ 2785.045233] NAME=NONE; INDEX=0; RESULT=5215 
[ 2785.184977] NAME=NONE; INDEX=0; RESULT=5203 
[ 2785.344997] NAME=NONE; INDEX=0; RESULT=5139 
[ 2785.506351] NAME=NONE; INDEX=0; RESULT=5173 
[ 2785.645058] NAME=NONE; INDEX=0; RESULT=5342 
[ 2785.777033] NAME=NONE; INDEX=0; RESULT=5339 
[ 2785.926396] NAME=NONE; INDEX=0; RESULT=5150 
[ 2786.061145] NAME=NONE; INDEX=0; RESULT=5135 
[ 2786.170210] NAME=NONE; INDEX=0; RESULT=5196 
[ 2786.301034] NAME=NONE; INDEX=0; RESULT=5222 
[ 2786.421187] NAME=NONE; INDEX=0; RESULT=5142 
[ 2786.541196] NAME=NONE; INDEX=0; RESULT=5346 
[ 2786.685278] NAME=NONE; INDEX=0; RESULT=5175 
[ 2786.846500] NAME=NONE; INDEX=0; RESULT=5175 
[ 2786.995420] NAME=NONE; INDEX=0; RESULT=5139 
[ 2787.166395] NAME=NONE; INDEX=0; RESULT=5215 
[ 2787.305224] NAME=NONE; INDEX=0; RESULT=5187 
[ 2787.435655] NAME=NONE; INDEX=0; RESULT=5238 
[ 2787.566355] NAME=NONE; INDEX=0; RESULT=5245 
[ 2787.711016] NAME=NONE; INDEX=0; RESULT=5233 
[ 2787.846350] NAME=NONE; INDEX=0; RESULT=5166 
[ 2787.961561] NAME=NONE; INDEX=0; RESULT=5186 
[ 2788.081414] NAME=NONE; INDEX=0; RESULT=5381 
[ 2788.224902] NAME=NONE; INDEX=0; RESULT=5212 
[ 2788.366485] NAME=NONE; INDEX=0; RESULT=5133 
[ 2788.497766] NAME=NONE; INDEX=0; RESULT=5328 
[ 2788.631345] NAME=NONE; INDEX=0; RESULT=5291 
[ 2788.796251] NAME=NONE; INDEX=0; RESULT=5956 
[ 2788.941418] NAME=NONE; INDEX=0; RESULT=5258 
[ 2789.096456] NAME=NONE; INDEX=0; RESULT=5133 
[ 2789.221637] NAME=NONE; INDEX=0; RESULT=5414 
[ 2789.351347] NAME=NONE; INDEX=0; RESULT=5249 
[ 2789.461976] NAME=NONE; INDEX=0; RESULT=5351 
[ 2789.571645] NAME=NONE; INDEX=0; RESULT=5588 
[ 2789.701402] NAME=NONE; INDEX=0; RESULT=5391 
[ 2789.801483] NAME=NONE; INDEX=0; RESULT=5290 
[ 2789.956339] NAME=NONE; INDEX=0; RESULT=5193 
[ 2790.085077] NAME=NONE; INDEX=0; RESULT=5240 
[ 2790.211286] NAME=NONE; INDEX=0; RESULT=5730 
[ 2790.341327] NAME=NONE; INDEX=0; RESULT=5194 
[ 2790.484601] NAME=NONE; INDEX=0; RESULT=5170 
[ 2790.615675] NAME=NONE; INDEX=0; RESULT=5187 
[ 2790.780917] NAME=NONE; INDEX=0; RESULT=5168 
[ 2790.912618] NAME=NONE; INDEX=0; RESULT=5042 
[ 2791.021071] NAME=NONE; INDEX=0; RESULT=5278 
[ 2791.142908] NAME=NONE; INDEX=0; RESULT=5029 
[ 2791.272720] NAME=NONE; INDEX=0; RESULT=5172 
[ 2791.396029] NAME=NONE; INDEX=0; RESULT=5186 
[ 2791.522049] NAME=NONE; INDEX=0; RESULT=5259 
[ 2791.646406] NAME=NONE; INDEX=0; RESULT=5142 
[ 2791.759371] NAME=NONE; INDEX=0; RESULT=5264 
[ 2791.879637] NAME=NONE; INDEX=0; RESULT=5595 
[ 2792.039962] NAME=NONE; INDEX=0; RESULT=5252 
[ 2792.180910] NAME=NONE; INDEX=0; RESULT=5270 
[ 2792.321529] NAME=NONE; INDEX=0; RESULT=5269 
[ 2792.450549] NAME=NONE; INDEX=0; RESULT=5238 
[ 2792.582489] NAME=NONE; INDEX=0; RESULT=5028 
[ 2792.698939] NAME=NONE; INDEX=0; RESULT=5398 
[ 2792.821501] NAME=NONE; INDEX=0; RESULT=5257 
[ 2792.955911] NAME=NONE; INDEX=0; RESULT=5180 
[ 2793.070631] NAME=NONE; INDEX=0; RESULT=5283 
[ 2793.190666] NAME=NONE; INDEX=0; RESULT=5340 
[ 2793.332599] NAME=NONE; INDEX=0; RESULT=5051 
[ 2793.496900] NAME=NONE; INDEX=0; RESULT=5197 
[ 2793.630909] NAME=NONE; INDEX=0; RESULT=5336 
[ 2793.774708] NAME=NONE; INDEX=0; RESULT=5185 
[ 2793.914904] NAME=NONE; INDEX=0; RESULT=5216 
[ 2794.054890] NAME=NONE; INDEX=0; RESULT=5202 
[ 2794.186743] NAME=NONE; INDEX=0; RESULT=5143 
[ 2794.317648] NAME=NONE; INDEX=0; RESULT=5220 
[ 2794.418421] NAME=NONE; INDEX=0; RESULT=5204 
[ 2794.550930] NAME=NONE; INDEX=0; RESULT=5299 
[ 2794.671227] NAME=NONE; INDEX=0; RESULT=5210 
[ 2794.785968] NAME=NONE; INDEX=0; RESULT=5184 
[ 2794.900804] NAME=NONE; INDEX=0; RESULT=5197 
[ 2795.036112] NAME=NONE; INDEX=0; RESULT=5330 
[ 2795.184720] NAME=NONE; INDEX=0; RESULT=5272 
[ 2795.316182] NAME=NONE; INDEX=0; RESULT=5215 
[ 2795.460297] NAME=NONE; INDEX=0; RESULT=5287 
[ 2795.580926] NAME=NONE; INDEX=0; RESULT=5455 
[ 2795.729786] NAME=NONE; INDEX=0; RESULT=5315 
[ 2795.874783] NAME=NONE; INDEX=0; RESULT=5169 
[ 2796.006308] NAME=NONE; INDEX=0; RESULT=5258 
[ 2796.134725] NAME=NONE; INDEX=0; RESULT=5260 
[ 2796.266149] NAME=NONE; INDEX=0; RESULT=5134 
[ 2796.383137] NAME=NONE; INDEX=0; RESULT=5039 
[ 2796.500995] NAME=NONE; INDEX=0; RESULT=5177 
[ 2796.623072] NAME=NONE; INDEX=0; RESULT=5148 
[ 2796.755603] NAME=NONE; INDEX=0; RESULT=5341 
[ 2796.901313] NAME=NONE; INDEX=0; RESULT=5206 
[ 2797.056106] NAME=NONE; INDEX=0; RESULT=5151 
[ 2797.195443] NAME=NONE; INDEX=0; RESULT=5162 
[ 2797.345201] NAME=NONE; INDEX=0; RESULT=5203 
[ 2797.475157] NAME=NONE; INDEX=0; RESULT=5244 
[ 2797.610745] NAME=NONE; INDEX=0; RESULT=5404 
[ 2797.761103] NAME=NONE; INDEX=0; RESULT=5176 
[ 2797.885983] NAME=NONE; INDEX=0; RESULT=5247 
[ 2798.015266] NAME=NONE; INDEX=0; RESULT=5298 
[ 2798.154544] NAME=NONE; INDEX=0; RESULT=5230 
[ 2798.296628] NAME=NONE; INDEX=0; RESULT=5166 
[ 2798.424842] NAME=NONE; INDEX=0; RESULT=5202 
[ 2798.570710] NAME=NONE; INDEX=0; RESULT=5300 
[ 2798.705424] NAME=NONE; INDEX=0; RESULT=5153 
[ 2798.845352] NAME=NONE; INDEX=0; RESULT=5209 
[ 2799.005236] NAME=NONE; INDEX=0; RESULT=5230 
[ 2799.145299] NAME=NONE; INDEX=0; RESULT=5317 
[ 2799.285028] NAME=NONE; INDEX=0; RESULT=5220 
[ 2799.425400] NAME=NONE; INDEX=0; RESULT=5286 
[ 2799.545231] NAME=NONE; INDEX=0; RESULT=5432 
[ 2799.660448] NAME=NONE; INDEX=0; RESULT=5231 
[ 2799.794749] NAME=NONE; INDEX=0; RESULT=5223 
[ 2799.924274] NAME=NONE; INDEX=0; RESULT=5287 
[ 2800.066104] NAME=NONE; INDEX=0; RESULT=5147 
[ 2800.184733] NAME=NONE; INDEX=0; RESULT=5181 
[ 2800.325566] NAME=NONE; INDEX=0; RESULT=5151 
[ 2800.465938] NAME=NONE; INDEX=0; RESULT=5486 
[ 2800.595048] NAME=NONE; INDEX=0; RESULT=5234 
[ 2800.724703] NAME=NONE; INDEX=0; RESULT=5168 
[ 2800.865904] NAME=NONE; INDEX=0; RESULT=5151 
[ 2800.991014] NAME=NONE; INDEX=0; RESULT=5193 
[ 2801.143080] NAME=NONE; INDEX=0; RESULT=5274 
[ 2801.294573] NAME=NONE; INDEX=0; RESULT=5223 
[ 2801.430822] NAME=NONE; INDEX=0; RESULT=5411 
[ 2801.612276] NAME=NONE; INDEX=0; RESULT=5067 
[ 2801.762700] NAME=NONE; INDEX=0; RESULT=5053 
[ 2801.927622] NAME=NONE; INDEX=0; RESULT=5196 
[ 2802.054757] NAME=NONE; INDEX=0; RESULT=5469 
[ 2802.172657] NAME=NONE; INDEX=0; RESULT=5043 
[ 2802.311611] NAME=NONE; INDEX=0; RESULT=5349 
[ 2802.439044] NAME=NONE; INDEX=0; RESULT=5311 
[ 2802.592363] NAME=NONE; INDEX=0; RESULT=5138 
[ 2802.723055] NAME=NONE; INDEX=0; RESULT=5206 
[ 2802.857380] NAME=NONE; INDEX=0; RESULT=5173 
[ 2802.992569] NAME=NONE; INDEX=0; RESULT=5295 
[ 2803.135585] NAME=NONE; INDEX=0; RESULT=5210 
[ 2803.238685] NAME=NONE; INDEX=0; RESULT=5224 
[ 2803.379150] NAME=NONE; INDEX=0; RESULT=5319 
[ 2803.515939] NAME=NONE; INDEX=0; RESULT=5307 
[ 2803.674641] NAME=NONE; INDEX=0; RESULT=5193 
[ 2803.809542] NAME=NONE; INDEX=0; RESULT=5212 
[ 2803.939736] NAME=NONE; INDEX=0; RESULT=5284 
[ 2804.068340] NAME=NONE; INDEX=0; RESULT=5281 
[ 2804.168471] NAME=NONE; INDEX=0; RESULT=5419 
[ 2804.289286] NAME=NONE; INDEX=0; RESULT=5571 
[ 2804.388228] NAME=NONE; INDEX=0; RESULT=5288 
[ 2804.509858] NAME=NONE; INDEX=0; RESULT=5775 
[ 2804.655944] NAME=NONE; INDEX=0; RESULT=5216 
[ 2804.794511] NAME=NONE; INDEX=0; RESULT=5282 
[ 2804.935035] NAME=NONE; INDEX=0; RESULT=5238 
[ 2805.085930] NAME=NONE; INDEX=0; RESULT=5223 
[ 2805.199657] NAME=NONE; INDEX=0; RESULT=5306 
[ 2805.352782] NAME=NONE; INDEX=0; RESULT=5004 
[ 2805.505836] NAME=NONE; INDEX=0; RESULT=5114 
[ 2805.650813] NAME=NONE; INDEX=0; RESULT=5278 
[ 2805.805885] NAME=NONE; INDEX=0; RESULT=5158 
[ 2805.928912] NAME=NONE; INDEX=0; RESULT=5631 
[ 2806.030982] NAME=NONE; INDEX=0; RESULT=5502 
[ 2806.118782] NAME=NONE; INDEX=0; RESULT=5298 
[ 2806.218375] NAME=NONE; INDEX=0; RESULT=5297 
[ 2806.340816] NAME=NONE; INDEX=0; RESULT=5276 
[ 2806.450660] NAME=NONE; INDEX=0; RESULT=5831 
[ 2806.546958] NAME=NONE; INDEX=0; RESULT=5563 
[ 2806.674864] NAME=NONE; INDEX=0; RESULT=5255 
[ 2806.825825] NAME=NONE; INDEX=0; RESULT=5356 
[ 2806.986090] NAME=NONE; INDEX=0; RESULT=5254 
[ 2807.105920] NAME=NONE; INDEX=0; RESULT=5171 
[ 2807.249313] NAME=NONE; INDEX=0; RESULT=5135 
[ 2807.395781] NAME=NONE; INDEX=0; RESULT=5299 
[ 2807.535024] NAME=NONE; INDEX=0; RESULT=5227 
[ 2807.664366] NAME=NONE; INDEX=0; RESULT=5178 
[ 2807.805753] NAME=NONE; INDEX=0; RESULT=5199 
[ 2807.944462] NAME=NONE; INDEX=0; RESULT=5213 
[ 2808.074734] NAME=NONE; INDEX=0; RESULT=5394 
[ 2808.204819] NAME=NONE; INDEX=0; RESULT=5393 
[ 2808.339680] NAME=NONE; INDEX=0; RESULT=5141 
[ 2808.456936] NAME=NONE; INDEX=0; RESULT=5449 
[ 2808.580085] NAME=NONE; INDEX=0; RESULT=5270 
[ 2808.704685] NAME=NONE; INDEX=0; RESULT=5158 
[ 2808.845669] NAME=NONE; INDEX=0; RESULT=5146 
[ 2808.966758] NAME=NONE; INDEX=0; RESULT=5254 
[ 2809.080442] NAME=NONE; INDEX=0; RESULT=5378 
[ 2809.199930] NAME=NONE; INDEX=0; RESULT=5136 
[ 2809.322717] NAME=NONE; INDEX=0; RESULT=5199 
[ 2809.434783] NAME=NONE; INDEX=0; RESULT=5164 
[ 2809.557160] NAME=NONE; INDEX=0; RESULT=5242 
[ 2809.672944] NAME=NONE; INDEX=0; RESULT=5041 
[ 2809.830624] NAME=NONE; INDEX=0; RESULT=5384 
[ 2809.965395] NAME=NONE; INDEX=0; RESULT=5249 
[ 2810.094847] NAME=NONE; INDEX=0; RESULT=5447 
[ 2810.229290] NAME=NONE; INDEX=0; RESULT=5365 
[ 2810.360776] NAME=NONE; INDEX=0; RESULT=5818 
[ 2810.471072] NAME=NONE; INDEX=0; RESULT=5705 
[ 2810.580886] NAME=NONE; INDEX=0; RESULT=5347 
[ 2810.688460] NAME=NONE; INDEX=0; RESULT=5263 
[ 2810.821110] NAME=NONE; INDEX=0; RESULT=5342 
[ 2810.965726] NAME=NONE; INDEX=0; RESULT=5176 
[ 2811.104244] NAME=NONE; INDEX=0; RESULT=5238 
[ 2811.255022] NAME=NONE; INDEX=0; RESULT=5242 
[ 2811.415792] NAME=NONE; INDEX=0; RESULT=5241 
[ 2811.542656] NAME=NONE; INDEX=0; RESULT=5293 
[ 2811.675319] NAME=NONE; INDEX=0; RESULT=5187 
[ 2811.800793] NAME=NONE; INDEX=0; RESULT=5341 
[ 2811.918119] NAME=NONE; INDEX=0; RESULT=5709 
[ 2812.020691] NAME=NONE; INDEX=0; RESULT=5557 
[ 2812.138237] NAME=NONE; INDEX=0; RESULT=5505 
[ 2812.248069] NAME=NONE; INDEX=0; RESULT=5570 
[ 2812.367940] NAME=NONE; INDEX=0; RESULT=5420 
[ 2812.458110] NAME=NONE; INDEX=0; RESULT=5668 
[ 2812.584738] NAME=NONE; INDEX=0; RESULT=5339 
[ 2812.720821] NAME=NONE; INDEX=0; RESULT=5257 
[ 2812.840650] NAME=NONE; INDEX=0; RESULT=5444 
[ 2812.970366] NAME=NONE; INDEX=0; RESULT=5204 
[ 2813.084939] NAME=NONE; INDEX=0; RESULT=5189 
[ 2813.220074] NAME=NONE; INDEX=0; RESULT=5207 
[ 2813.403990] NAME=NONE; INDEX=0; RESULT=5225 
[ 2813.540626] NAME=NONE; INDEX=0; RESULT=5352 
[ 2813.670420] NAME=NONE; INDEX=0; RESULT=5384 
[ 2813.813605] NAME=NONE; INDEX=0; RESULT=5145 
[ 2813.950999] NAME=NONE; INDEX=0; RESULT=5341 
[ 2814.097799] NAME=NONE; INDEX=0; RESULT=5228 
[ 2814.263060] NAME=NONE; INDEX=0; RESULT=5157 
[ 2814.390527] NAME=NONE; INDEX=0; RESULT=5176 
[ 2814.533872] NAME=NONE; INDEX=0; RESULT=5332 
[ 2814.677729] NAME=NONE; INDEX=0; RESULT=5233 
[ 2814.790934] NAME=NONE; INDEX=0; RESULT=5330 
[ 2814.890611] NAME=NONE; INDEX=0; RESULT=5245 
[ 2815.003151] NAME=NONE; INDEX=0; RESULT=5055 
[ 2815.118105] NAME=NONE; INDEX=0; RESULT=5417 
[ 2815.229422] NAME=NONE; INDEX=0; RESULT=5305 
[ 2815.384649] NAME=NONE; INDEX=0; RESULT=5061 
[ 2815.510383] NAME=NONE; INDEX=0; RESULT=5156 
[ 2815.645753] NAME=NONE; INDEX=0; RESULT=5257 
[ 2815.774280] NAME=NONE; INDEX=0; RESULT=5151 
[ 2815.922509] NAME=NONE; INDEX=0; RESULT=5202 
[ 2816.055680] NAME=NONE; INDEX=0; RESULT=5055 
[ 2816.162586] NAME=NONE; INDEX=0; RESULT=5154 
[ 2816.305648] NAME=NONE; INDEX=0; RESULT=5191 
[ 2816.487104] NAME=NONE; INDEX=0; RESULT=5274 
[ 2816.604212] NAME=NONE; INDEX=0; RESULT=5231 
[ 2816.729816] NAME=NONE; INDEX=0; RESULT=5312 
[ 2816.861226] NAME=NONE; INDEX=0; RESULT=5305 
[ 2816.991479] NAME=NONE; INDEX=0; RESULT=5179 
[ 2817.134495] NAME=NONE; INDEX=0; RESULT=5190 
[ 2817.264030] NAME=NONE; INDEX=0; RESULT=5121 
[ 2817.375543] NAME=NONE; INDEX=0; RESULT=5231 
[ 2817.513838] NAME=NONE; INDEX=0; RESULT=5100 
[ 2817.660207] NAME=NONE; INDEX=0; RESULT=5230 
[ 2817.805479] NAME=NONE; INDEX=0; RESULT=5307 
[ 2817.944916] NAME=NONE; INDEX=0; RESULT=5205 
[ 2818.132225] NAME=NONE; INDEX=0; RESULT=5118 
[ 2818.263975] NAME=NONE; INDEX=0; RESULT=5272 
[ 2818.415444] NAME=NONE; INDEX=0; RESULT=5169 
[ 2818.540637] NAME=NONE; INDEX=0; RESULT=5235 
[ 2818.675481] NAME=NONE; INDEX=0; RESULT=5172 
[ 2818.823651] NAME=NONE; INDEX=0; RESULT=5176 
[ 2818.942651] NAME=NONE; INDEX=0; RESULT=5233 
[ 2819.050332] NAME=NONE; INDEX=0; RESULT=5458 
[ 2819.184224] NAME=NONE; INDEX=0; RESULT=5293 
[ 2819.322587] NAME=NONE; INDEX=0; RESULT=5145 
[ 2819.437215] NAME=NONE; INDEX=0; RESULT=5332 
[ 2819.540821] NAME=NONE; INDEX=0; RESULT=5551 
[ 2819.630602] NAME=NONE; INDEX=0; RESULT=5751 
[ 2819.760255] NAME=NONE; INDEX=0; RESULT=5584 
[ 2819.860713] NAME=NONE; INDEX=0; RESULT=5319 
[ 2819.977822] NAME=NONE; INDEX=0; RESULT=5356 
[ 2820.100386] NAME=NONE; INDEX=0; RESULT=5183 
[ 2820.225499] NAME=NONE; INDEX=0; RESULT=5163 
[ 2820.353962] NAME=NONE; INDEX=0; RESULT=5320 
[ 2820.495403] NAME=NONE; INDEX=0; RESULT=5217 
[ 2820.613172] NAME=NONE; INDEX=0; RESULT=5040 
[ 2820.722397] NAME=NONE; INDEX=0; RESULT=5023 
[ 2820.844092] NAME=NONE; INDEX=0; RESULT=5202 
[ 2820.982758] NAME=NONE; INDEX=0; RESULT=5154 
[ 2821.104235] NAME=NONE; INDEX=0; RESULT=5244 
[ 2821.242395] NAME=NONE; INDEX=0; RESULT=5035 
[ 2821.391922] NAME=NONE; INDEX=0; RESULT=5071 
[ 2821.534147] NAME=NONE; INDEX=0; RESULT=5419 
[ 2821.673660] NAME=NONE; INDEX=0; RESULT=5276 
[ 2821.815327] NAME=NONE; INDEX=0; RESULT=5336 
[ 2821.954523] NAME=NONE; INDEX=0; RESULT=5214 
[ 2822.094793] NAME=NONE; INDEX=0; RESULT=5157 
[ 2822.229681] NAME=NONE; INDEX=0; RESULT=5466 
[ 2822.363980] NAME=NONE; INDEX=0; RESULT=5363 
[ 2822.507276] NAME=NONE; INDEX=0; RESULT=5312 
[ 2822.643787] NAME=NONE; INDEX=0; RESULT=5200 
[ 2822.774108] NAME=NONE; INDEX=0; RESULT=5131 
[ 2822.927073] NAME=NONE; INDEX=0; RESULT=5228 
[ 2823.063998] NAME=NONE; INDEX=0; RESULT=5162 
[ 2823.183802] NAME=NONE; INDEX=0; RESULT=5345 
[ 2823.323816] NAME=NONE; INDEX=0; RESULT=5297 
[ 2823.440873] NAME=NONE; INDEX=0; RESULT=5319 
[ 2823.582394] NAME=NONE; INDEX=0; RESULT=5161 
[ 2823.698704] NAME=NONE; INDEX=0; RESULT=5216 
[ 2823.854339] NAME=NONE; INDEX=0; RESULT=5156 
[ 2824.002395] NAME=NONE; INDEX=0; RESULT=5530 
[ 2824.131615] NAME=NONE; INDEX=0; RESULT=5029 
[ 2824.274521] NAME=NONE; INDEX=0; RESULT=5189 
[ 2824.440363] NAME=NONE; INDEX=0; RESULT=5211 
[ 2824.575202] NAME=NONE; INDEX=0; RESULT=5383 
[ 2824.730195] NAME=NONE; INDEX=0; RESULT=5437 
[ 2824.878928] NAME=NONE; INDEX=0; RESULT=5189 
[ 2825.014053] NAME=NONE; INDEX=0; RESULT=5152 
[ 2825.154464] NAME=NONE; INDEX=0; RESULT=5059 
[ 2825.284457] NAME=NONE; INDEX=0; RESULT=5221 
[ 2825.433886] NAME=NONE; INDEX=0; RESULT=5461 
[ 2825.575165] NAME=NONE; INDEX=0; RESULT=5264 
[ 2825.697287] NAME=NONE; INDEX=0; RESULT=5209 
[ 2825.855698] NAME=NONE; INDEX=0; RESULT=5116 
[ 2825.984957] NAME=NONE; INDEX=0; RESULT=5205 
[ 2826.112539] NAME=NONE; INDEX=0; RESULT=5075 
[ 2826.257421] NAME=NONE; INDEX=0; RESULT=5196 
[ 2826.385077] NAME=NONE; INDEX=0; RESULT=5178 
[ 2826.516633] NAME=NONE; INDEX=0; RESULT=5228 
[ 2826.643762] NAME=NONE; INDEX=0; RESULT=5348 
[ 2826.753924] NAME=NONE; INDEX=0; RESULT=5270 
[ 2826.874285] NAME=NONE; INDEX=0; RESULT=5300 
[ 2827.002291] NAME=NONE; INDEX=0; RESULT=5875 
[ 2827.131300] NAME=NONE; INDEX=0; RESULT=5191 
[ 2827.265353] NAME=NONE; INDEX=0; RESULT=5252 
[ 2827.382318] NAME=NONE; INDEX=0; RESULT=5212 
[ 2827.490107] NAME=NONE; INDEX=0; RESULT=5220 
[ 2827.624500] NAME=NONE; INDEX=0; RESULT=5162 
[ 2827.764022] NAME=NONE; INDEX=0; RESULT=5218 
[ 2827.902206] NAME=NONE; INDEX=0; RESULT=5184 
[ 2828.044951] NAME=NONE; INDEX=0; RESULT=5194 
[ 2828.193801] NAME=NONE; INDEX=0; RESULT=5146 
[ 2828.323833] NAME=NONE; INDEX=0; RESULT=5344 
[ 2828.445288] NAME=NONE; INDEX=0; RESULT=5151 
[ 2828.595426] NAME=NONE; INDEX=0; RESULT=5137 
[ 2828.712155] NAME=NONE; INDEX=0; RESULT=5154 
[ 2828.853747] NAME=NONE; INDEX=0; RESULT=5190 
[ 2828.975321] NAME=NONE; INDEX=0; RESULT=5193 
[ 2829.105657] NAME=NONE; INDEX=0; RESULT=5229 
[ 2829.233950] NAME=NONE; INDEX=0; RESULT=5166 
[ 2829.376370] NAME=NONE; INDEX=0; RESULT=5285 
[ 2829.519654] NAME=NONE; INDEX=0; RESULT=5302 
[ 2829.652191] NAME=NONE; INDEX=0; RESULT=5176 
[ 2829.785227] NAME=NONE; INDEX=0; RESULT=5503 
[ 2829.924439] NAME=NONE; INDEX=0; RESULT=5213 
[ 2830.054302] NAME=NONE; INDEX=0; RESULT=5174 
[ 2830.185622] NAME=NONE; INDEX=0; RESULT=5190 
[ 2830.310557] NAME=NONE; INDEX=0; RESULT=5201 
[ 2830.427167] NAME=NONE; INDEX=0; RESULT=5197 
[ 2830.563764] NAME=NONE; INDEX=0; RESULT=5288 
[ 2830.684297] NAME=NONE; INDEX=0; RESULT=5191 
[ 2830.825181] NAME=NONE; INDEX=0; RESULT=5164 
[ 2830.953949] NAME=NONE; INDEX=0; RESULT=5169 
[ 2831.084359] NAME=NONE; INDEX=0; RESULT=5191 
[ 2831.205130] NAME=NONE; INDEX=0; RESULT=5218 
[ 2831.353649] NAME=NONE; INDEX=0; RESULT=5245 
[ 2831.483781] NAME=NONE; INDEX=0; RESULT=5308 
[ 2831.603772] NAME=NONE; INDEX=0; RESULT=5167 
[ 2831.755285] NAME=NONE; INDEX=0; RESULT=5156 
[ 2831.883918] NAME=NONE; INDEX=0; RESULT=5228 
[ 2832.014359] NAME=NONE; INDEX=0; RESULT=5192 
[ 2832.159052] NAME=NONE; INDEX=0; RESULT=5198 
[ 2832.303023] NAME=NONE; INDEX=0; RESULT=5295 
[ 2832.435090] NAME=NONE; INDEX=0; RESULT=5264 
[ 2832.570845] NAME=NONE; INDEX=0; RESULT=5244 
[ 2832.704106] NAME=NONE; INDEX=0; RESULT=5233 
[ 2832.856010] NAME=NONE; INDEX=0; RESULT=5120 
[ 2833.003830] NAME=NONE; INDEX=0; RESULT=5275 
[ 2833.150672] NAME=NONE; INDEX=0; RESULT=5307 
[ 2833.274572] NAME=NONE; INDEX=0; RESULT=5240 
[ 2833.415070] NAME=NONE; INDEX=0; RESULT=5277 
[ 2833.543869] NAME=NONE; INDEX=0; RESULT=5351 
[ 2833.676019] NAME=NONE; INDEX=0; RESULT=5181 
[ 2833.813621] NAME=NONE; INDEX=0; RESULT=5238 
[ 2833.942051] NAME=NONE; INDEX=0; RESULT=5152 
[ 2834.064943] NAME=NONE; INDEX=0; RESULT=5202 
[ 2834.193868] NAME=NONE; INDEX=0; RESULT=5442 
[ 2834.323980] NAME=NONE; INDEX=0; RESULT=5211 
[ 2834.453409] NAME=NONE; INDEX=0; RESULT=5291 
[ 2834.574943] NAME=NONE; INDEX=0; RESULT=5265 
[ 2834.714983] NAME=NONE; INDEX=0; RESULT=5135 
[ 2834.852246] NAME=NONE; INDEX=0; RESULT=5040 
[ 2834.995060] NAME=NONE; INDEX=0; RESULT=5157 
[ 2835.108885] NAME=NONE; INDEX=0; RESULT=5236 
[ 2835.242075] NAME=NONE; INDEX=0; RESULT=5168 
[ 2835.417039] NAME=NONE; INDEX=0; RESULT=5159 
[ 2835.538712] NAME=NONE; INDEX=0; RESULT=5272 
[ 2835.627434] NAME=NONE; INDEX=0; RESULT=5252 
[ 2835.730101] NAME=NONE; INDEX=0; RESULT=5402 
[ 2835.839966] NAME=NONE; INDEX=0; RESULT=5229 
[ 2835.940397] NAME=NONE; INDEX=0; RESULT=5316 
[ 2836.027250] NAME=NONE; INDEX=0; RESULT=5236 
[ 2836.130429] NAME=NONE; INDEX=0; RESULT=5266 
[ 2836.265034] NAME=NONE; INDEX=0; RESULT=5156 
[ 2836.393799] NAME=NONE; INDEX=0; RESULT=5306 
[ 2836.533194] NAME=NONE; INDEX=0; RESULT=5165 
[ 2836.665050] NAME=NONE; INDEX=0; RESULT=5211 
[ 2836.793551] NAME=NONE; INDEX=0; RESULT=5236 
[ 2836.933324] NAME=NONE; INDEX=0; RESULT=5070 
[ 2837.054973] NAME=NONE; INDEX=0; RESULT=5198 
[ 2837.204956] NAME=NONE; INDEX=0; RESULT=5210 
[ 2837.332022] NAME=NONE; INDEX=0; RESULT=5031 
[ 2837.473114] NAME=NONE; INDEX=0; RESULT=5138 
[ 2837.594139] NAME=NONE; INDEX=0; RESULT=5504 
[ 2837.722106] NAME=NONE; INDEX=0; RESULT=5191 
[ 2837.833562] NAME=NONE; INDEX=0; RESULT=5330 
[ 2837.976052] NAME=NONE; INDEX=0; RESULT=5137 
[ 2838.113614] NAME=NONE; INDEX=0; RESULT=5235 
[ 2838.253592] NAME=NONE; INDEX=0; RESULT=5328 
[ 2838.395003] NAME=NONE; INDEX=0; RESULT=5226 
[ 2838.499921] NAME=NONE; INDEX=0; RESULT=5210 
[ 2838.623422] NAME=NONE; INDEX=0; RESULT=5196 
[ 2838.753521] NAME=NONE; INDEX=0; RESULT=5291 
[ 2838.883270] NAME=NONE; INDEX=0; RESULT=5274 
[ 2839.010065] NAME=NONE; INDEX=0; RESULT=5149 
[ 2839.153963] NAME=NONE; INDEX=0; RESULT=5274 
[ 2839.273682] NAME=NONE; INDEX=0; RESULT=5438 
[ 2839.406106] NAME=NONE; INDEX=0; RESULT=5055 
[ 2839.539869] NAME=NONE; INDEX=0; RESULT=5361 
[ 2839.670006] NAME=NONE; INDEX=0; RESULT=5254 
[ 2839.814207] NAME=NONE; INDEX=0; RESULT=5190 
[ 2839.985128] NAME=NONE; INDEX=0; RESULT=5206 
[ 2840.132431] NAME=NONE; INDEX=0; RESULT=5031 
[ 2840.237044] NAME=NONE; INDEX=0; RESULT=5219 
[ 2840.373774] NAME=NONE; INDEX=0; RESULT=5157 
[ 2840.511859] NAME=NONE; INDEX=0; RESULT=5161 
[ 2840.644800] NAME=NONE; INDEX=0; RESULT=5191 
[ 2840.774904] NAME=NONE; INDEX=0; RESULT=5201 
[ 2840.900207] NAME=NONE; INDEX=0; RESULT=5257 
[ 2841.033127] NAME=NONE; INDEX=0; RESULT=5219 
[ 2841.174844] NAME=NONE; INDEX=0; RESULT=5167 
[ 2841.302847] NAME=NONE; INDEX=0; RESULT=5144 
[ 2841.434405] NAME=NONE; INDEX=0; RESULT=5157 
[ 2841.596380] NAME=NONE; INDEX=0; RESULT=5255 
[ 2841.687302] NAME=NONE; INDEX=0; RESULT=5396 
[ 2841.800104] NAME=NONE; INDEX=0; RESULT=5406 
[ 2841.905566] NAME=NONE; INDEX=0; RESULT=5329 
[ 2842.029830] NAME=NONE; INDEX=0; RESULT=5227 
[ 2842.127897] NAME=NONE; INDEX=0; RESULT=5355 
[ 2842.218819] NAME=NONE; INDEX=0; RESULT=5285 
[ 2842.357632] NAME=NONE; INDEX=0; RESULT=5185 
[ 2842.496200] NAME=NONE; INDEX=0; RESULT=5172 
[ 2842.621909] NAME=NONE; INDEX=0; RESULT=5038 
[ 2842.744572] NAME=NONE; INDEX=0; RESULT=5245 
[ 2842.873673] NAME=NONE; INDEX=0; RESULT=5239 
[ 2843.029623] NAME=NONE; INDEX=0; RESULT=5224 
[ 2843.164799] NAME=NONE; INDEX=0; RESULT=5154 
[ 2843.287435] NAME=NONE; INDEX=0; RESULT=5233 
[ 2843.423552] NAME=NONE; INDEX=0; RESULT=5296 
[ 2843.551739] NAME=NONE; INDEX=0; RESULT=5052 
[ 2843.703952] NAME=NONE; INDEX=0; RESULT=5165 
[ 2843.849925] NAME=NONE; INDEX=0; RESULT=5237 
[ 2843.981278] NAME=NONE; INDEX=0; RESULT=5150 
[ 2844.121550] NAME=NONE; INDEX=0; RESULT=5028 
[ 2844.281231] NAME=NONE; INDEX=0; RESULT=5040 
[ 2844.430018] NAME=NONE; INDEX=0; RESULT=5250 
[ 2844.546958] NAME=NONE; INDEX=0; RESULT=5323 
[ 2844.671456] NAME=NONE; INDEX=0; RESULT=5114 
[ 2844.849565] NAME=NONE; INDEX=0; RESULT=5140 
[ 2844.997452] NAME=NONE; INDEX=0; RESULT=5204 
[ 2845.134153] NAME=NONE; INDEX=0; RESULT=5188 
[ 2845.261433] NAME=NONE; INDEX=0; RESULT=5030 
[ 2845.385282] NAME=NONE; INDEX=0; RESULT=5267 
[ 2845.525222] NAME=NONE; INDEX=0; RESULT=5339 
[ 2845.644174] NAME=NONE; INDEX=0; RESULT=5232 
[ 2845.801340] NAME=NONE; INDEX=0; RESULT=5115 
[ 2845.955208] NAME=NONE; INDEX=0; RESULT=5172 
[ 2846.091171] NAME=NONE; INDEX=0; RESULT=5101 
[ 2846.254766] NAME=NONE; INDEX=0; RESULT=5171 
[ 2846.382764] NAME=NONE; INDEX=0; RESULT=5170 
[ 2846.509504] NAME=NONE; INDEX=0; RESULT=5208 
[ 2846.644976] NAME=NONE; INDEX=0; RESULT=5209 
[ 2846.764361] NAME=NONE; INDEX=0; RESULT=5153 
[ 2846.891699] NAME=NONE; INDEX=0; RESULT=5112 
