[ 2977.085271] NAME=NONE; INDEX=0; RESULT=6089 
[ 2977.204962] NAME=NONE; INDEX=0; RESULT=6020 
[ 2977.314865] NAME=NONE; INDEX=0; RESULT=5746 
[ 2977.424850] NAME=NONE; INDEX=0; RESULT=5507 
[ 2977.527649] NAME=NONE; INDEX=0; RESULT=6218 
[ 2977.630155] NAME=NONE; INDEX=0; RESULT=5499 
[ 2977.761606] NAME=NONE; INDEX=0; RESULT=5470 
[ 2977.902292] NAME=NONE; INDEX=0; RESULT=5838 
[ 2978.041609] NAME=NONE; INDEX=0; RESULT=5665 
[ 2978.181384] NAME=NONE; INDEX=0; RESULT=5895 
[ 2978.323510] NAME=NONE; INDEX=0; RESULT=5751 
[ 2978.460927] NAME=NONE; INDEX=0; RESULT=5730 
[ 2978.590866] NAME=NONE; INDEX=0; RESULT=5575 
[ 2978.732432] NAME=NONE; INDEX=0; RESULT=5582 
[ 2978.861478] NAME=NONE; INDEX=0; RESULT=5620 
[ 2979.001080] NAME=NONE; INDEX=0; RESULT=5577 
[ 2979.132223] NAME=NONE; INDEX=0; RESULT=5513 
[ 2979.254776] NAME=NONE; INDEX=0; RESULT=5466 
[ 2979.387297] NAME=NONE; INDEX=0; RESULT=5784 
[ 2979.503964] NAME=NONE; INDEX=0; RESULT=5879 
[ 2979.631616] NAME=NONE; INDEX=0; RESULT=5398 
[ 2979.782421] NAME=NONE; INDEX=0; RESULT=5674 
[ 2979.897352] NAME=NONE; INDEX=0; RESULT=5654 
[ 2980.021443] NAME=NONE; INDEX=0; RESULT=6051 
[ 2980.162471] NAME=NONE; INDEX=0; RESULT=5436 
[ 2980.271056] NAME=NONE; INDEX=0; RESULT=5711 
[ 2980.397203] NAME=NONE; INDEX=0; RESULT=5794 
[ 2980.530964] NAME=NONE; INDEX=0; RESULT=5691 
[ 2980.657011] NAME=NONE; INDEX=0; RESULT=5581 
[ 2980.821768] NAME=NONE; INDEX=0; RESULT=5954 
[ 2980.951770] NAME=NONE; INDEX=0; RESULT=5509 
[ 2981.081015] NAME=NONE; INDEX=0; RESULT=5589 
[ 2981.218795] NAME=NONE; INDEX=0; RESULT=5480 
[ 2981.369053] NAME=NONE; INDEX=0; RESULT=5764 
[ 2981.512695] NAME=NONE; INDEX=0; RESULT=5618 
[ 2981.637545] NAME=NONE; INDEX=0; RESULT=5685 
[ 2981.745490] NAME=NONE; INDEX=0; RESULT=5673 
[ 2981.882809] NAME=NONE; INDEX=0; RESULT=5840 
[ 2982.032299] NAME=NONE; INDEX=0; RESULT=5477 
[ 2982.156885] NAME=NONE; INDEX=0; RESULT=5653 
[ 2982.273855] NAME=NONE; INDEX=0; RESULT=5476 
[ 2982.412365] NAME=NONE; INDEX=0; RESULT=5767 
[ 2982.551283] NAME=NONE; INDEX=0; RESULT=5507 
[ 2982.681111] NAME=NONE; INDEX=0; RESULT=5577 
[ 2982.835852] NAME=NONE; INDEX=0; RESULT=5939 
[ 2982.953971] NAME=NONE; INDEX=0; RESULT=5438 
[ 2983.097351] NAME=NONE; INDEX=0; RESULT=5671 
[ 2983.242496] NAME=NONE; INDEX=0; RESULT=5575 
[ 2983.377362] NAME=NONE; INDEX=0; RESULT=7512 
[ 2983.487511] NAME=NONE; INDEX=0; RESULT=5705 
[ 2983.587310] NAME=NONE; INDEX=0; RESULT=5776 
[ 2983.703181] NAME=NONE; INDEX=0; RESULT=5813 
[ 2983.814751] NAME=NONE; INDEX=0; RESULT=5816 
[ 2983.924858] NAME=NONE; INDEX=0; RESULT=5739 
[ 2984.082403] NAME=NONE; INDEX=0; RESULT=5480 
[ 2984.204018] NAME=NONE; INDEX=0; RESULT=5753 
[ 2984.324001] NAME=NONE; INDEX=0; RESULT=5760 
[ 2984.479415] NAME=NONE; INDEX=0; RESULT=5609 
[ 2984.617504] NAME=NONE; INDEX=0; RESULT=5671 
[ 2984.749086] NAME=NONE; INDEX=0; RESULT=5386 
[ 2984.926707] NAME=NONE; INDEX=0; RESULT=6012 
[ 2985.040855] NAME=NONE; INDEX=0; RESULT=5488 
[ 2985.171104] NAME=NONE; INDEX=0; RESULT=5683 
[ 2985.302394] NAME=NONE; INDEX=0; RESULT=5582 
[ 2985.436986] NAME=NONE; INDEX=0; RESULT=5962 
[ 2985.570364] NAME=NONE; INDEX=0; RESULT=5609 
[ 2985.682231] NAME=NONE; INDEX=0; RESULT=5496 
[ 2985.784431] NAME=NONE; INDEX=0; RESULT=6017 
[ 2985.897563] NAME=NONE; INDEX=0; RESULT=5520 
[ 2986.007573] NAME=NONE; INDEX=0; RESULT=5677 
[ 2986.115666] NAME=NONE; INDEX=0; RESULT=5742 
[ 2986.210791] NAME=NONE; INDEX=0; RESULT=5482 
[ 2986.315342] NAME=NONE; INDEX=0; RESULT=5805 
[ 2986.441827] NAME=NONE; INDEX=0; RESULT=5815 
[ 2986.571664] NAME=NONE; INDEX=0; RESULT=5473 
[ 2986.702249] NAME=NONE; INDEX=0; RESULT=5535 
[ 2986.842333] NAME=NONE; INDEX=0; RESULT=5617 
[ 2986.976593] NAME=NONE; INDEX=0; RESULT=5681 
[ 2987.122571] NAME=NONE; INDEX=0; RESULT=5518 
[ 2987.227905] NAME=NONE; INDEX=0; RESULT=5914 
[ 2987.371054] NAME=NONE; INDEX=0; RESULT=5606 
[ 2987.522663] NAME=NONE; INDEX=0; RESULT=5537 
[ 2987.648512] NAME=NONE; INDEX=0; RESULT=5732 
[ 2987.771336] NAME=NONE; INDEX=0; RESULT=5592 
[ 2987.911365] NAME=NONE; INDEX=0; RESULT=5436 
[ 2988.051566] NAME=NONE; INDEX=0; RESULT=5649 
[ 2988.167226] NAME=NONE; INDEX=0; RESULT=5547 
[ 2988.318671] NAME=NONE; INDEX=0; RESULT=5489 
[ 2988.460774] NAME=NONE; INDEX=0; RESULT=5512 
[ 2988.581033] NAME=NONE; INDEX=0; RESULT=5453 
[ 2988.711366] NAME=NONE; INDEX=0; RESULT=5455 
[ 2988.857162] NAME=NONE; INDEX=0; RESULT=5614 
[ 2988.981139] NAME=NONE; INDEX=0; RESULT=5672 
[ 2989.121287] NAME=NONE; INDEX=0; RESULT=5797 
[ 2989.271096] NAME=NONE; INDEX=0; RESULT=5571 
[ 2989.377684] NAME=NONE; INDEX=0; RESULT=5711 
[ 2989.507448] NAME=NONE; INDEX=0; RESULT=5698 
[ 2989.637007] NAME=NONE; INDEX=0; RESULT=6282 
[ 2989.772324] NAME=NONE; INDEX=0; RESULT=5632 
[ 2989.903466] NAME=NONE; INDEX=0; RESULT=5458 
[ 2990.041109] NAME=NONE; INDEX=0; RESULT=5469 
[ 2990.170535] NAME=NONE; INDEX=0; RESULT=5638 
[ 2990.316361] NAME=NONE; INDEX=0; RESULT=5515 
[ 2990.450953] NAME=NONE; INDEX=0; RESULT=5848 
[ 2990.620521] NAME=NONE; INDEX=0; RESULT=5587 
[ 2990.749489] NAME=NONE; INDEX=0; RESULT=5655 
[ 2990.877170] NAME=NONE; INDEX=0; RESULT=5850 
[ 2991.007881] NAME=NONE; INDEX=0; RESULT=5678 
[ 2991.141883] NAME=NONE; INDEX=0; RESULT=5490 
[ 2991.257516] NAME=NONE; INDEX=0; RESULT=5891 
[ 2991.377053] NAME=NONE; INDEX=0; RESULT=5876 
[ 2991.477196] NAME=NONE; INDEX=0; RESULT=5772 
[ 2991.587542] NAME=NONE; INDEX=0; RESULT=5687 
[ 2991.687207] NAME=NONE; INDEX=0; RESULT=5569 
[ 2991.783487] NAME=NONE; INDEX=0; RESULT=6051 
[ 2991.907950] NAME=NONE; INDEX=0; RESULT=6022 
[ 2992.052437] NAME=NONE; INDEX=0; RESULT=5679 
[ 2992.187013] NAME=NONE; INDEX=0; RESULT=5658 
[ 2992.321014] NAME=NONE; INDEX=0; RESULT=5798 
[ 2992.447388] NAME=NONE; INDEX=0; RESULT=5785 
[ 2992.576790] NAME=NONE; INDEX=0; RESULT=5877 
[ 2992.696593] NAME=NONE; INDEX=0; RESULT=5838 
[ 2992.817436] NAME=NONE; INDEX=0; RESULT=5491 
[ 2992.938552] NAME=NONE; INDEX=0; RESULT=5667 
[ 2993.077078] NAME=NONE; INDEX=0; RESULT=5977 
[ 2993.206914] NAME=NONE; INDEX=0; RESULT=5817 
[ 2993.332333] NAME=NONE; INDEX=0; RESULT=5648 
[ 2993.450125] NAME=NONE; INDEX=0; RESULT=5749 
[ 2993.592365] NAME=NONE; INDEX=0; RESULT=5679 
[ 2993.737182] NAME=NONE; INDEX=0; RESULT=5932 
[ 2993.882607] NAME=NONE; INDEX=0; RESULT=5883 
[ 2994.009283] NAME=NONE; INDEX=0; RESULT=5663 
[ 2994.139009] NAME=NONE; INDEX=0; RESULT=5406 
[ 2994.271349] NAME=NONE; INDEX=0; RESULT=5777 
[ 2994.408852] NAME=NONE; INDEX=0; RESULT=5567 
[ 2994.521252] NAME=NONE; INDEX=0; RESULT=5493 
[ 2994.635914] NAME=NONE; INDEX=0; RESULT=5529 
[ 2994.744740] NAME=NONE; INDEX=0; RESULT=5460 
[ 2994.844955] NAME=NONE; INDEX=0; RESULT=5731 
[ 2994.945073] NAME=NONE; INDEX=0; RESULT=5546 
[ 2995.064939] NAME=NONE; INDEX=0; RESULT=5672 
[ 2995.160879] NAME=NONE; INDEX=0; RESULT=5632 
[ 2995.265652] NAME=NONE; INDEX=0; RESULT=5530 
[ 2995.397978] NAME=NONE; INDEX=0; RESULT=5887 
[ 2995.531376] NAME=NONE; INDEX=0; RESULT=5604 
[ 2995.657455] NAME=NONE; INDEX=0; RESULT=5540 
[ 2995.767522] NAME=NONE; INDEX=0; RESULT=5751 
[ 2995.887686] NAME=NONE; INDEX=0; RESULT=5898 
[ 2995.970678] NAME=NONE; INDEX=0; RESULT=5660 
[ 2996.067270] NAME=NONE; INDEX=0; RESULT=6137 
[ 2996.157530] NAME=NONE; INDEX=0; RESULT=5918 
[ 2996.264689] NAME=NONE; INDEX=0; RESULT=6137 
[ 2996.392356] NAME=NONE; INDEX=0; RESULT=5721 
[ 2996.517889] NAME=NONE; INDEX=0; RESULT=5637 
[ 2996.662203] NAME=NONE; INDEX=0; RESULT=5489 
[ 2996.776567] NAME=NONE; INDEX=0; RESULT=5466 
[ 2996.931127] NAME=NONE; INDEX=0; RESULT=5547 
[ 2997.052674] NAME=NONE; INDEX=0; RESULT=5582 
[ 2997.187102] NAME=NONE; INDEX=0; RESULT=6437 
[ 2997.311037] NAME=NONE; INDEX=0; RESULT=5460 
[ 2997.420759] NAME=NONE; INDEX=0; RESULT=5450 
[ 2997.572230] NAME=NONE; INDEX=0; RESULT=5738 
[ 2997.687073] NAME=NONE; INDEX=0; RESULT=6041 
[ 2997.794271] NAME=NONE; INDEX=0; RESULT=6023 
[ 2997.907467] NAME=NONE; INDEX=0; RESULT=5707 
[ 2998.004761] NAME=NONE; INDEX=0; RESULT=5762 
[ 2998.114763] NAME=NONE; INDEX=0; RESULT=5879 
[ 2998.217517] NAME=NONE; INDEX=0; RESULT=5502 
[ 2998.333011] NAME=NONE; INDEX=0; RESULT=5887 
[ 2998.465810] NAME=NONE; INDEX=0; RESULT=5594 
[ 2998.582128] NAME=NONE; INDEX=0; RESULT=5499 
[ 2998.690216] NAME=NONE; INDEX=0; RESULT=5517 
[ 2998.797387] NAME=NONE; INDEX=0; RESULT=5651 
[ 2998.885215] NAME=NONE; INDEX=0; RESULT=6249 
[ 2999.007478] NAME=NONE; INDEX=0; RESULT=5694 
[ 2999.117558] NAME=NONE; INDEX=0; RESULT=5663 
[ 2999.227344] NAME=NONE; INDEX=0; RESULT=6031 
[ 2999.317404] NAME=NONE; INDEX=0; RESULT=5547 
[ 2999.462312] NAME=NONE; INDEX=0; RESULT=5582 
[ 2999.586955] NAME=NONE; INDEX=0; RESULT=5506 
[ 2999.720616] NAME=NONE; INDEX=0; RESULT=6580 
[ 2999.851438] NAME=NONE; INDEX=0; RESULT=5453 
[ 2999.992216] NAME=NONE; INDEX=0; RESULT=5462 
[ 3000.126942] NAME=NONE; INDEX=0; RESULT=5832 
[ 3000.270366] NAME=NONE; INDEX=0; RESULT=5916 
[ 3000.432217] NAME=NONE; INDEX=0; RESULT=5569 
[ 3000.582298] NAME=NONE; INDEX=0; RESULT=5774 
[ 3000.711534] NAME=NONE; INDEX=0; RESULT=5775 
[ 3000.861219] NAME=NONE; INDEX=0; RESULT=6036 
[ 3001.002455] NAME=NONE; INDEX=0; RESULT=5500 
[ 3001.152033] NAME=NONE; INDEX=0; RESULT=5715 
[ 3001.272302] NAME=NONE; INDEX=0; RESULT=5741 
[ 3001.387138] NAME=NONE; INDEX=0; RESULT=5516 
[ 3001.542423] NAME=NONE; INDEX=0; RESULT=5451 
[ 3001.680678] NAME=NONE; INDEX=0; RESULT=5553 
[ 3001.802274] NAME=NONE; INDEX=0; RESULT=5751 
[ 3001.940845] NAME=NONE; INDEX=0; RESULT=5717 
[ 3002.076875] NAME=NONE; INDEX=0; RESULT=7138 
[ 3002.204559] NAME=NONE; INDEX=0; RESULT=5493 
[ 3002.329053] NAME=NONE; INDEX=0; RESULT=5517 
[ 3002.446857] NAME=NONE; INDEX=0; RESULT=5719 
[ 3002.580696] NAME=NONE; INDEX=0; RESULT=5585 
[ 3002.711349] NAME=NONE; INDEX=0; RESULT=5499 
[ 3002.842114] NAME=NONE; INDEX=0; RESULT=5587 
[ 3002.982238] NAME=NONE; INDEX=0; RESULT=5605 
[ 3003.111252] NAME=NONE; INDEX=0; RESULT=5709 
[ 3003.252285] NAME=NONE; INDEX=0; RESULT=5646 
[ 3003.370555] NAME=NONE; INDEX=0; RESULT=5522 
[ 3003.511078] NAME=NONE; INDEX=0; RESULT=5429 
[ 3003.653631] NAME=NONE; INDEX=0; RESULT=5432 
[ 3003.791134] NAME=NONE; INDEX=0; RESULT=5438 
[ 3003.920728] NAME=NONE; INDEX=0; RESULT=5659 
[ 3004.062460] NAME=NONE; INDEX=0; RESULT=5481 
[ 3004.195432] NAME=NONE; INDEX=0; RESULT=5574 
[ 3004.307320] NAME=NONE; INDEX=0; RESULT=5638 
[ 3004.417210] NAME=NONE; INDEX=0; RESULT=5881 
[ 3004.514441] NAME=NONE; INDEX=0; RESULT=5782 
[ 3004.636997] NAME=NONE; INDEX=0; RESULT=5444 
[ 3004.757216] NAME=NONE; INDEX=0; RESULT=5851 
[ 3004.877370] NAME=NONE; INDEX=0; RESULT=5705 
[ 3005.001478] NAME=NONE; INDEX=0; RESULT=5638 
[ 3005.130861] NAME=NONE; INDEX=0; RESULT=5701 
[ 3005.282170] NAME=NONE; INDEX=0; RESULT=5562 
[ 3005.417173] NAME=NONE; INDEX=0; RESULT=5496 
[ 3005.547101] NAME=NONE; INDEX=0; RESULT=5679 
[ 3005.681053] NAME=NONE; INDEX=0; RESULT=5781 
[ 3005.822115] NAME=NONE; INDEX=0; RESULT=5711 
[ 3005.937384] NAME=NONE; INDEX=0; RESULT=5458 
[ 3006.045285] NAME=NONE; INDEX=0; RESULT=5945 
[ 3006.147503] NAME=NONE; INDEX=0; RESULT=5586 
[ 3006.244793] NAME=NONE; INDEX=0; RESULT=5901 
[ 3006.330546] NAME=NONE; INDEX=0; RESULT=5740 
[ 3006.430200] NAME=NONE; INDEX=0; RESULT=5607 
[ 3006.525084] NAME=NONE; INDEX=0; RESULT=5943 
[ 3006.641941] NAME=NONE; INDEX=0; RESULT=5458 
[ 3006.760695] NAME=NONE; INDEX=0; RESULT=5621 
[ 3006.870770] NAME=NONE; INDEX=0; RESULT=5702 
[ 3006.980785] NAME=NONE; INDEX=0; RESULT=5806 
[ 3007.103152] NAME=NONE; INDEX=0; RESULT=5624 
[ 3007.250755] NAME=NONE; INDEX=0; RESULT=5476 
[ 3007.379180] NAME=NONE; INDEX=0; RESULT=5582 
[ 3007.522172] NAME=NONE; INDEX=0; RESULT=5457 
[ 3007.646995] NAME=NONE; INDEX=0; RESULT=6447 
[ 3007.792078] NAME=NONE; INDEX=0; RESULT=5506 
[ 3007.932153] NAME=NONE; INDEX=0; RESULT=5624 
[ 3008.076801] NAME=NONE; INDEX=0; RESULT=5758 
[ 3008.190471] NAME=NONE; INDEX=0; RESULT=5740 
[ 3008.320246] NAME=NONE; INDEX=0; RESULT=5446 
[ 3008.462076] NAME=NONE; INDEX=0; RESULT=5426 
[ 3008.600578] NAME=NONE; INDEX=0; RESULT=5839 
[ 3008.772111] NAME=NONE; INDEX=0; RESULT=5664 
[ 3008.910731] NAME=NONE; INDEX=0; RESULT=5487 
[ 3009.031017] NAME=NONE; INDEX=0; RESULT=5478 
[ 3009.171153] NAME=NONE; INDEX=0; RESULT=5629 
[ 3009.310829] NAME=NONE; INDEX=0; RESULT=5741 
[ 3009.436833] NAME=NONE; INDEX=0; RESULT=5811 
[ 3009.572047] NAME=NONE; INDEX=0; RESULT=5411 
[ 3009.681179] NAME=NONE; INDEX=0; RESULT=5605 
[ 3009.821163] NAME=NONE; INDEX=0; RESULT=5870 
[ 3009.951083] NAME=NONE; INDEX=0; RESULT=5563 
[ 3010.078504] NAME=NONE; INDEX=0; RESULT=5459 
[ 3010.207084] NAME=NONE; INDEX=0; RESULT=5844 
[ 3010.321426] NAME=NONE; INDEX=0; RESULT=5536 
[ 3010.436983] NAME=NONE; INDEX=0; RESULT=5721 
[ 3010.582381] NAME=NONE; INDEX=0; RESULT=5898 
[ 3010.711980] NAME=NONE; INDEX=0; RESULT=6026 
[ 3010.845140] NAME=NONE; INDEX=0; RESULT=5942 
[ 3010.954433] NAME=NONE; INDEX=0; RESULT=5595 
[ 3011.054607] NAME=NONE; INDEX=0; RESULT=5642 
[ 3011.194978] NAME=NONE; INDEX=0; RESULT=5529 
[ 3011.297423] NAME=NONE; INDEX=0; RESULT=5651 
[ 3011.407203] NAME=NONE; INDEX=0; RESULT=5632 
[ 3011.522198] NAME=NONE; INDEX=0; RESULT=5704 
[ 3011.656791] NAME=NONE; INDEX=0; RESULT=5768 
[ 3011.812009] NAME=NONE; INDEX=0; RESULT=5562 
[ 3011.947212] NAME=NONE; INDEX=0; RESULT=5515 
[ 3012.080705] NAME=NONE; INDEX=0; RESULT=5735 
[ 3012.232151] NAME=NONE; INDEX=0; RESULT=5600 
[ 3012.361097] NAME=NONE; INDEX=0; RESULT=5566 
[ 3012.489164] NAME=NONE; INDEX=0; RESULT=5545 
[ 3012.652032] NAME=NONE; INDEX=0; RESULT=5664 
[ 3012.780500] NAME=NONE; INDEX=0; RESULT=5570 
[ 3012.920499] NAME=NONE; INDEX=0; RESULT=5496 
[ 3013.051106] NAME=NONE; INDEX=0; RESULT=5792 
[ 3013.197031] NAME=NONE; INDEX=0; RESULT=5511 
[ 3013.311506] NAME=NONE; INDEX=0; RESULT=5693 
[ 3013.451344] NAME=NONE; INDEX=0; RESULT=5605 
[ 3013.597044] NAME=NONE; INDEX=0; RESULT=6186 
[ 3013.742061] NAME=NONE; INDEX=0; RESULT=5473 
[ 3013.876796] NAME=NONE; INDEX=0; RESULT=5664 
[ 3014.000440] NAME=NONE; INDEX=0; RESULT=5466 
[ 3014.139136] NAME=NONE; INDEX=0; RESULT=5564 
[ 3014.271092] NAME=NONE; INDEX=0; RESULT=5498 
[ 3014.387720] NAME=NONE; INDEX=0; RESULT=6034 
[ 3014.513249] NAME=NONE; INDEX=0; RESULT=5923 
[ 3014.651428] NAME=NONE; INDEX=0; RESULT=5686 
[ 3014.790991] NAME=NONE; INDEX=0; RESULT=5543 
[ 3014.949135] NAME=NONE; INDEX=0; RESULT=5684 
[ 3015.069199] NAME=NONE; INDEX=0; RESULT=5671 
[ 3015.197110] NAME=NONE; INDEX=0; RESULT=5707 
[ 3015.340384] NAME=NONE; INDEX=0; RESULT=5495 
[ 3015.491927] NAME=NONE; INDEX=0; RESULT=5493 
[ 3015.623425] NAME=NONE; INDEX=0; RESULT=5660 
[ 3015.741633] NAME=NONE; INDEX=0; RESULT=5572 
[ 3015.845600] NAME=NONE; INDEX=0; RESULT=5866 
[ 3015.947289] NAME=NONE; INDEX=0; RESULT=5632 
[ 3016.064560] NAME=NONE; INDEX=0; RESULT=6209 
[ 3016.177334] NAME=NONE; INDEX=0; RESULT=6016 
[ 3016.277403] NAME=NONE; INDEX=0; RESULT=5645 
[ 3016.397257] NAME=NONE; INDEX=0; RESULT=5771 
[ 3016.518714] NAME=NONE; INDEX=0; RESULT=5448 
[ 3016.650481] NAME=NONE; INDEX=0; RESULT=6116 
[ 3016.780697] NAME=NONE; INDEX=0; RESULT=5421 
[ 3016.922137] NAME=NONE; INDEX=0; RESULT=5554 
[ 3017.058222] NAME=NONE; INDEX=0; RESULT=5420 
[ 3017.190850] NAME=NONE; INDEX=0; RESULT=5568 
[ 3017.322121] NAME=NONE; INDEX=0; RESULT=5655 
[ 3017.432111] NAME=NONE; INDEX=0; RESULT=5719 
[ 3017.536777] NAME=NONE; INDEX=0; RESULT=5854 
[ 3017.627279] NAME=NONE; INDEX=0; RESULT=5524 
[ 3017.727099] NAME=NONE; INDEX=0; RESULT=5848 
[ 3017.840046] NAME=NONE; INDEX=0; RESULT=5515 
[ 3017.947309] NAME=NONE; INDEX=0; RESULT=5669 
[ 3018.044459] NAME=NONE; INDEX=0; RESULT=6031 
[ 3018.182068] NAME=NONE; INDEX=0; RESULT=5590 
[ 3018.316863] NAME=NONE; INDEX=0; RESULT=5601 
[ 3018.457477] NAME=NONE; INDEX=0; RESULT=5665 
[ 3018.621453] NAME=NONE; INDEX=0; RESULT=5607 
[ 3018.771150] NAME=NONE; INDEX=0; RESULT=5461 
[ 3018.906966] NAME=NONE; INDEX=0; RESULT=6111 
[ 3019.042082] NAME=NONE; INDEX=0; RESULT=5511 
[ 3019.167735] NAME=NONE; INDEX=0; RESULT=5712 
[ 3019.277424] NAME=NONE; INDEX=0; RESULT=7543 
[ 3019.395995] NAME=NONE; INDEX=0; RESULT=5467 
[ 3019.517102] NAME=NONE; INDEX=0; RESULT=5595 
[ 3019.652163] NAME=NONE; INDEX=0; RESULT=5477 
[ 3019.791917] NAME=NONE; INDEX=0; RESULT=5545 
[ 3019.916926] NAME=NONE; INDEX=0; RESULT=5656 
[ 3020.041948] NAME=NONE; INDEX=0; RESULT=5769 
[ 3020.200721] NAME=NONE; INDEX=0; RESULT=5582 
[ 3020.340547] NAME=NONE; INDEX=0; RESULT=5644 
[ 3020.471901] NAME=NONE; INDEX=0; RESULT=5461 
[ 3020.588419] NAME=NONE; INDEX=0; RESULT=5622 
[ 3020.710546] NAME=NONE; INDEX=0; RESULT=5833 
[ 3020.840766] NAME=NONE; INDEX=0; RESULT=5583 
[ 3020.960614] NAME=NONE; INDEX=0; RESULT=5918 
[ 3021.112104] NAME=NONE; INDEX=0; RESULT=5677 
[ 3021.254014] NAME=NONE; INDEX=0; RESULT=5581 
[ 3021.391197] NAME=NONE; INDEX=0; RESULT=5610 
[ 3021.530880] NAME=NONE; INDEX=0; RESULT=5698 
[ 3021.678874] NAME=NONE; INDEX=0; RESULT=5514 
[ 3021.810924] NAME=NONE; INDEX=0; RESULT=5590 
[ 3021.960804] NAME=NONE; INDEX=0; RESULT=6228 
[ 3022.087228] NAME=NONE; INDEX=0; RESULT=5786 
[ 3022.232000] NAME=NONE; INDEX=0; RESULT=5489 
[ 3022.351562] NAME=NONE; INDEX=0; RESULT=5876 
[ 3022.466341] NAME=NONE; INDEX=0; RESULT=5644 
[ 3022.588993] NAME=NONE; INDEX=0; RESULT=5404 
[ 3022.702075] NAME=NONE; INDEX=0; RESULT=5507 
[ 3022.816715] NAME=NONE; INDEX=0; RESULT=5642 
[ 3022.951042] NAME=NONE; INDEX=0; RESULT=5492 
[ 3023.076821] NAME=NONE; INDEX=0; RESULT=5723 
[ 3023.216786] NAME=NONE; INDEX=0; RESULT=5629 
[ 3023.330521] NAME=NONE; INDEX=0; RESULT=5405 
[ 3023.459005] NAME=NONE; INDEX=0; RESULT=5882 
[ 3023.582102] NAME=NONE; INDEX=0; RESULT=5650 
[ 3023.716871] NAME=NONE; INDEX=0; RESULT=5640 
[ 3023.841903] NAME=NONE; INDEX=0; RESULT=5578 
[ 3023.970943] NAME=NONE; INDEX=0; RESULT=5604 
[ 3024.093401] NAME=NONE; INDEX=0; RESULT=5810 
[ 3024.221996] NAME=NONE; INDEX=0; RESULT=5480 
[ 3024.351995] NAME=NONE; INDEX=0; RESULT=5748 
[ 3024.490811] NAME=NONE; INDEX=0; RESULT=5616 
[ 3024.633441] NAME=NONE; INDEX=0; RESULT=5521 
[ 3024.762049] NAME=NONE; INDEX=0; RESULT=5664 
[ 3024.882464] NAME=NONE; INDEX=0; RESULT=5668 
[ 3025.006659] NAME=NONE; INDEX=0; RESULT=5917 
[ 3025.133604] NAME=NONE; INDEX=0; RESULT=5706 
[ 3025.271967] NAME=NONE; INDEX=0; RESULT=5798 
[ 3025.407491] NAME=NONE; INDEX=0; RESULT=5523 
[ 3025.530771] NAME=NONE; INDEX=0; RESULT=5799 
[ 3025.731154] NAME=NONE; INDEX=0; RESULT=5479 
[ 3025.863015] NAME=NONE; INDEX=0; RESULT=5495 
[ 3026.013596] NAME=NONE; INDEX=0; RESULT=5559 
[ 3026.153610] NAME=NONE; INDEX=0; RESULT=5713 
[ 3026.252379] NAME=NONE; INDEX=0; RESULT=5766 
[ 3026.366834] NAME=NONE; INDEX=0; RESULT=6055 
[ 3026.532156] NAME=NONE; INDEX=0; RESULT=5600 
[ 3026.646861] NAME=NONE; INDEX=0; RESULT=5866 
[ 3026.788978] NAME=NONE; INDEX=0; RESULT=5500 
[ 3026.942138] NAME=NONE; INDEX=0; RESULT=5489 
[ 3027.090647] NAME=NONE; INDEX=0; RESULT=5804 
[ 3027.230849] NAME=NONE; INDEX=0; RESULT=5523 
[ 3027.376889] NAME=NONE; INDEX=0; RESULT=5729 
[ 3027.496511] NAME=NONE; INDEX=0; RESULT=5671 
[ 3027.611959] NAME=NONE; INDEX=0; RESULT=5596 
[ 3027.739039] NAME=NONE; INDEX=0; RESULT=5548 
[ 3027.870649] NAME=NONE; INDEX=0; RESULT=5638 
[ 3028.020340] NAME=NONE; INDEX=0; RESULT=5572 
[ 3028.161288] NAME=NONE; INDEX=0; RESULT=5448 
[ 3028.300818] NAME=NONE; INDEX=0; RESULT=5797 
[ 3028.436650] NAME=NONE; INDEX=0; RESULT=5550 
[ 3028.585765] NAME=NONE; INDEX=0; RESULT=5681 
[ 3028.741544] NAME=NONE; INDEX=0; RESULT=5901 
[ 3028.881466] NAME=NONE; INDEX=0; RESULT=5754 
[ 3029.001168] NAME=NONE; INDEX=0; RESULT=6051 
[ 3029.149071] NAME=NONE; INDEX=0; RESULT=5574 
[ 3029.272031] NAME=NONE; INDEX=0; RESULT=5721 
[ 3029.411883] NAME=NONE; INDEX=0; RESULT=5553 
[ 3029.550687] NAME=NONE; INDEX=0; RESULT=5647 
[ 3029.681932] NAME=NONE; INDEX=0; RESULT=5482 
[ 3029.830723] NAME=NONE; INDEX=0; RESULT=5690 
[ 3029.970837] NAME=NONE; INDEX=0; RESULT=6867 
[ 3030.110339] NAME=NONE; INDEX=0; RESULT=5789 
[ 3030.230454] NAME=NONE; INDEX=0; RESULT=5475 
[ 3030.401852] NAME=NONE; INDEX=0; RESULT=5521 
[ 3030.546603] NAME=NONE; INDEX=0; RESULT=5929 
[ 3030.667066] NAME=NONE; INDEX=0; RESULT=5605 
[ 3030.791905] NAME=NONE; INDEX=0; RESULT=5859 
[ 3030.927344] NAME=NONE; INDEX=0; RESULT=5729 
[ 3031.059037] NAME=NONE; INDEX=0; RESULT=5614 
[ 3031.200886] NAME=NONE; INDEX=0; RESULT=5621 
[ 3031.331908] NAME=NONE; INDEX=0; RESULT=5740 
[ 3031.480933] NAME=NONE; INDEX=0; RESULT=5621 
[ 3031.631231] NAME=NONE; INDEX=0; RESULT=5477 
[ 3031.755867] NAME=NONE; INDEX=0; RESULT=6487 
[ 3031.847133] NAME=NONE; INDEX=0; RESULT=5477 
[ 3031.947135] NAME=NONE; INDEX=0; RESULT=5545 
[ 3032.044499] NAME=NONE; INDEX=0; RESULT=6138 
[ 3032.156642] NAME=NONE; INDEX=0; RESULT=5964 
[ 3032.260387] NAME=NONE; INDEX=0; RESULT=5498 
[ 3032.352929] NAME=NONE; INDEX=0; RESULT=5862 
[ 3032.511909] NAME=NONE; INDEX=0; RESULT=5621 
[ 3032.661946] NAME=NONE; INDEX=0; RESULT=5650 
[ 3032.806822] NAME=NONE; INDEX=0; RESULT=5609 
[ 3032.928894] NAME=NONE; INDEX=0; RESULT=5584 
[ 3033.039109] NAME=NONE; INDEX=0; RESULT=5669 
[ 3033.177239] NAME=NONE; INDEX=0; RESULT=5970 
[ 3033.310739] NAME=NONE; INDEX=0; RESULT=5467 
[ 3033.458795] NAME=NONE; INDEX=0; RESULT=5530 
[ 3033.593721] NAME=NONE; INDEX=0; RESULT=5627 
[ 3033.740943] NAME=NONE; INDEX=0; RESULT=5533 
[ 3033.892007] NAME=NONE; INDEX=0; RESULT=5687 
[ 3034.011948] NAME=NONE; INDEX=0; RESULT=5591 
[ 3034.117031] NAME=NONE; INDEX=0; RESULT=5637 
[ 3034.230307] NAME=NONE; INDEX=0; RESULT=5629 
[ 3034.336695] NAME=NONE; INDEX=0; RESULT=5557 
[ 3034.446988] NAME=NONE; INDEX=0; RESULT=6125 
[ 3034.566909] NAME=NONE; INDEX=0; RESULT=5658 
[ 3034.662644] NAME=NONE; INDEX=0; RESULT=6274 
[ 3034.774361] NAME=NONE; INDEX=0; RESULT=6111 
[ 3034.901851] NAME=NONE; INDEX=0; RESULT=5658 
[ 3035.071926] NAME=NONE; INDEX=0; RESULT=5563 
[ 3035.201771] NAME=NONE; INDEX=0; RESULT=5958 
[ 3035.315993] NAME=NONE; INDEX=0; RESULT=5778 
[ 3035.448950] NAME=NONE; INDEX=0; RESULT=5558 
[ 3035.576770] NAME=NONE; INDEX=0; RESULT=5520 
[ 3035.686887] NAME=NONE; INDEX=0; RESULT=5590 
[ 3035.795556] NAME=NONE; INDEX=0; RESULT=5478 
[ 3035.917995] NAME=NONE; INDEX=0; RESULT=5655 
[ 3036.081109] NAME=NONE; INDEX=0; RESULT=5449 
[ 3036.241041] NAME=NONE; INDEX=0; RESULT=5607 
[ 3036.371611] NAME=NONE; INDEX=0; RESULT=5612 
[ 3036.496849] NAME=NONE; INDEX=0; RESULT=5526 
[ 3036.584382] NAME=NONE; INDEX=0; RESULT=5769 
[ 3036.687025] NAME=NONE; INDEX=0; RESULT=5472 
[ 3036.806932] NAME=NONE; INDEX=0; RESULT=5826 
[ 3036.936769] NAME=NONE; INDEX=0; RESULT=5479 
[ 3037.036921] NAME=NONE; INDEX=0; RESULT=5877 
[ 3037.138933] NAME=NONE; INDEX=0; RESULT=5480 
[ 3037.290638] NAME=NONE; INDEX=0; RESULT=5613 
[ 3037.420801] NAME=NONE; INDEX=0; RESULT=5485 
[ 3037.581938] NAME=NONE; INDEX=0; RESULT=5570 
[ 3037.720831] NAME=NONE; INDEX=0; RESULT=5457 
[ 3037.890261] NAME=NONE; INDEX=0; RESULT=5532 
[ 3038.040547] NAME=NONE; INDEX=0; RESULT=5783 
[ 3038.191909] NAME=NONE; INDEX=0; RESULT=5563 
[ 3038.310669] NAME=NONE; INDEX=0; RESULT=5645 
[ 3038.470518] NAME=NONE; INDEX=0; RESULT=5762 
[ 3038.579054] NAME=NONE; INDEX=0; RESULT=6504 
[ 3038.700565] NAME=NONE; INDEX=0; RESULT=5739 
[ 3038.830963] NAME=NONE; INDEX=0; RESULT=5497 
[ 3038.960516] NAME=NONE; INDEX=0; RESULT=5498 
[ 3039.101845] NAME=NONE; INDEX=0; RESULT=5461 
[ 3039.250446] NAME=NONE; INDEX=0; RESULT=5795 
[ 3039.380909] NAME=NONE; INDEX=0; RESULT=5549 
[ 3039.501155] NAME=NONE; INDEX=0; RESULT=5646 
[ 3039.640392] NAME=NONE; INDEX=0; RESULT=5623 
[ 3039.760748] NAME=NONE; INDEX=0; RESULT=5620 
[ 3039.915193] NAME=NONE; INDEX=0; RESULT=5460 
[ 3040.061900] NAME=NONE; INDEX=0; RESULT=5612 
[ 3040.180903] NAME=NONE; INDEX=0; RESULT=5466 
[ 3040.311904] NAME=NONE; INDEX=0; RESULT=5449 
[ 3040.446977] NAME=NONE; INDEX=0; RESULT=5603 
[ 3040.563499] NAME=NONE; INDEX=0; RESULT=5540 
[ 3040.700452] NAME=NONE; INDEX=0; RESULT=5507 
[ 3040.832042] NAME=NONE; INDEX=0; RESULT=5398 
[ 3040.956648] NAME=NONE; INDEX=0; RESULT=5668 
[ 3041.073941] NAME=NONE; INDEX=0; RESULT=5715 
[ 3041.174280] NAME=NONE; INDEX=0; RESULT=5510 
[ 3041.277079] NAME=NONE; INDEX=0; RESULT=5596 
[ 3041.376970] NAME=NONE; INDEX=0; RESULT=5755 
[ 3041.474251] NAME=NONE; INDEX=0; RESULT=5695 
[ 3041.584294] NAME=NONE; INDEX=0; RESULT=5583 
[ 3041.711922] NAME=NONE; INDEX=0; RESULT=5485 
[ 3041.862043] NAME=NONE; INDEX=0; RESULT=5447 
[ 3041.996663] NAME=NONE; INDEX=0; RESULT=5764 
[ 3042.141043] NAME=NONE; INDEX=0; RESULT=5556 
[ 3042.271775] NAME=NONE; INDEX=0; RESULT=5631 
[ 3042.394273] NAME=NONE; INDEX=0; RESULT=5561 
[ 3042.494182] NAME=NONE; INDEX=0; RESULT=5715 
[ 3042.614253] NAME=NONE; INDEX=0; RESULT=5506 
[ 3042.717019] NAME=NONE; INDEX=0; RESULT=5935 
[ 3042.817065] NAME=NONE; INDEX=0; RESULT=5887 
[ 3042.917089] NAME=NONE; INDEX=0; RESULT=5731 
[ 3043.017158] NAME=NONE; INDEX=0; RESULT=6032 
[ 3043.131715] NAME=NONE; INDEX=0; RESULT=5757 
[ 3043.241173] NAME=NONE; INDEX=0; RESULT=5824 
[ 3043.406311] NAME=NONE; INDEX=0; RESULT=5701 
[ 3043.535584] NAME=NONE; INDEX=0; RESULT=6380 
[ 3043.654464] NAME=NONE; INDEX=0; RESULT=6020 
[ 3043.754362] NAME=NONE; INDEX=0; RESULT=5765 
[ 3043.862782] NAME=NONE; INDEX=0; RESULT=5515 
[ 3043.987018] NAME=NONE; INDEX=0; RESULT=5686 
[ 3044.094296] NAME=NONE; INDEX=0; RESULT=6119 
[ 3044.236217] NAME=NONE; INDEX=0; RESULT=5589 
[ 3044.367013] NAME=NONE; INDEX=0; RESULT=5490 
[ 3044.466860] NAME=NONE; INDEX=0; RESULT=5882 
[ 3044.576962] NAME=NONE; INDEX=0; RESULT=6078 
[ 3044.684397] NAME=NONE; INDEX=0; RESULT=5949 
[ 3044.816819] NAME=NONE; INDEX=0; RESULT=5645 
[ 3044.956838] NAME=NONE; INDEX=0; RESULT=5684 
[ 3045.061743] NAME=NONE; INDEX=0; RESULT=5542 
[ 3045.188990] NAME=NONE; INDEX=0; RESULT=5570 
[ 3045.341851] NAME=NONE; INDEX=0; RESULT=5583 
[ 3045.470521] NAME=NONE; INDEX=0; RESULT=5490 
[ 3045.633981] NAME=NONE; INDEX=0; RESULT=5976 
[ 3045.780601] NAME=NONE; INDEX=0; RESULT=5486 
[ 3045.931717] NAME=NONE; INDEX=0; RESULT=5702 
[ 3046.097669] NAME=NONE; INDEX=0; RESULT=5720 
[ 3046.261842] NAME=NONE; INDEX=0; RESULT=5817 
[ 3046.405085] NAME=NONE; INDEX=0; RESULT=6098 
[ 3046.489995] NAME=NONE; INDEX=0; RESULT=5645 
[ 3046.596934] NAME=NONE; INDEX=0; RESULT=5701 
[ 3046.707225] NAME=NONE; INDEX=0; RESULT=5489 
[ 3046.796975] NAME=NONE; INDEX=0; RESULT=5588 
[ 3046.904427] NAME=NONE; INDEX=0; RESULT=5527 
[ 3047.007337] NAME=NONE; INDEX=0; RESULT=5844 
[ 3047.141911] NAME=NONE; INDEX=0; RESULT=5549 
[ 3047.266728] NAME=NONE; INDEX=0; RESULT=5758 
[ 3047.356837] NAME=NONE; INDEX=0; RESULT=5503 
[ 3047.466902] NAME=NONE; INDEX=0; RESULT=5739 
[ 3047.576780] NAME=NONE; INDEX=0; RESULT=5869 
[ 3047.674271] NAME=NONE; INDEX=0; RESULT=6431 
[ 3047.774305] NAME=NONE; INDEX=0; RESULT=5667 
[ 3047.926921] NAME=NONE; INDEX=0; RESULT=6004 
[ 3048.060694] NAME=NONE; INDEX=0; RESULT=5515 
[ 3048.206655] NAME=NONE; INDEX=0; RESULT=5733 
[ 3048.326781] NAME=NONE; INDEX=0; RESULT=5861 
[ 3048.472859] NAME=NONE; INDEX=0; RESULT=5536 
[ 3048.575310] NAME=NONE; INDEX=0; RESULT=5515 
[ 3048.667034] NAME=NONE; INDEX=0; RESULT=5957 
[ 3048.766743] NAME=NONE; INDEX=0; RESULT=5683 
[ 3048.869664] NAME=NONE; INDEX=0; RESULT=5604 
[ 3048.980171] NAME=NONE; INDEX=0; RESULT=5734 
[ 3049.070662] NAME=NONE; INDEX=0; RESULT=6014 
[ 3049.189895] NAME=NONE; INDEX=0; RESULT=5882 
[ 3049.301899] NAME=NONE; INDEX=0; RESULT=5533 
[ 3049.413250] NAME=NONE; INDEX=0; RESULT=5533 
[ 3049.593722] NAME=NONE; INDEX=0; RESULT=5601 
[ 3049.746703] NAME=NONE; INDEX=0; RESULT=6068 
[ 3049.888743] NAME=NONE; INDEX=0; RESULT=5630 
[ 3050.036691] NAME=NONE; INDEX=0; RESULT=6022 
[ 3050.195211] NAME=NONE; INDEX=0; RESULT=5491 
[ 3050.336696] NAME=NONE; INDEX=0; RESULT=5611 
[ 3050.456723] NAME=NONE; INDEX=0; RESULT=5631 
[ 3050.611001] NAME=NONE; INDEX=0; RESULT=5708 
[ 3050.750508] NAME=NONE; INDEX=0; RESULT=5720 
[ 3050.890831] NAME=NONE; INDEX=0; RESULT=5553 
[ 3051.041249] NAME=NONE; INDEX=0; RESULT=5428 
[ 3051.170741] NAME=NONE; INDEX=0; RESULT=5468 
[ 3051.331917] NAME=NONE; INDEX=0; RESULT=5422 
[ 3051.481404] NAME=NONE; INDEX=0; RESULT=5515 
[ 3051.600842] NAME=NONE; INDEX=0; RESULT=5459 
[ 3051.743379] NAME=NONE; INDEX=0; RESULT=5765 
[ 3051.870458] NAME=NONE; INDEX=0; RESULT=5436 
[ 3051.991043] NAME=NONE; INDEX=0; RESULT=5624 
[ 3052.130943] NAME=NONE; INDEX=0; RESULT=5768 
[ 3052.270585] NAME=NONE; INDEX=0; RESULT=5573 
[ 3052.396754] NAME=NONE; INDEX=0; RESULT=5522 
[ 3052.506643] NAME=NONE; INDEX=0; RESULT=5486 
[ 3052.596854] NAME=NONE; INDEX=0; RESULT=5441 
[ 3052.710360] NAME=NONE; INDEX=0; RESULT=5580 
[ 3052.826731] NAME=NONE; INDEX=0; RESULT=5718 
[ 3052.927090] NAME=NONE; INDEX=0; RESULT=5893 
[ 3053.037013] NAME=NONE; INDEX=0; RESULT=5871 
[ 3053.171937] NAME=NONE; INDEX=0; RESULT=5608 
[ 3053.297882] NAME=NONE; INDEX=0; RESULT=5575 
[ 3053.460989] NAME=NONE; INDEX=0; RESULT=5593 
[ 3053.605505] NAME=NONE; INDEX=0; RESULT=5631 
[ 3053.740790] NAME=NONE; INDEX=0; RESULT=5573 
[ 3053.881904] NAME=NONE; INDEX=0; RESULT=5666 
[ 3054.016838] NAME=NONE; INDEX=0; RESULT=5532 
[ 3054.114894] NAME=NONE; INDEX=0; RESULT=6450 
[ 3054.216874] NAME=NONE; INDEX=0; RESULT=5625 
[ 3054.317045] NAME=NONE; INDEX=0; RESULT=6095 
[ 3054.403136] NAME=NONE; INDEX=0; RESULT=6067 
[ 3054.517170] NAME=NONE; INDEX=0; RESULT=5536 
[ 3054.617108] NAME=NONE; INDEX=0; RESULT=5492 
[ 3054.704127] NAME=NONE; INDEX=0; RESULT=5760 
[ 3054.841770] NAME=NONE; INDEX=0; RESULT=5469 
[ 3054.954854] NAME=NONE; INDEX=0; RESULT=5897 
[ 3055.044306] NAME=NONE; INDEX=0; RESULT=5850 
[ 3055.152677] NAME=NONE; INDEX=0; RESULT=5647 
[ 3055.276956] NAME=NONE; INDEX=0; RESULT=5632 
[ 3055.387075] NAME=NONE; INDEX=0; RESULT=5476 
[ 3055.487063] NAME=NONE; INDEX=0; RESULT=5726 
[ 3055.594275] NAME=NONE; INDEX=0; RESULT=5847 
[ 3055.721688] NAME=NONE; INDEX=0; RESULT=5558 
[ 3055.837124] NAME=NONE; INDEX=0; RESULT=5431 
[ 3055.966519] NAME=NONE; INDEX=0; RESULT=7646 
[ 3056.120751] NAME=NONE; INDEX=0; RESULT=5482 
[ 3056.250520] NAME=NONE; INDEX=0; RESULT=5515 
[ 3056.400538] NAME=NONE; INDEX=0; RESULT=5453 
[ 3056.538661] NAME=NONE; INDEX=0; RESULT=5465 
[ 3056.691932] NAME=NONE; INDEX=0; RESULT=5467 
[ 3056.816935] NAME=NONE; INDEX=0; RESULT=5777 
[ 3056.916921] NAME=NONE; INDEX=0; RESULT=5954 
[ 3057.004246] NAME=NONE; INDEX=0; RESULT=6455 
[ 3057.104087] NAME=NONE; INDEX=0; RESULT=6185 
[ 3057.197017] NAME=NONE; INDEX=0; RESULT=5638 
[ 3057.296454] NAME=NONE; INDEX=0; RESULT=5887 
[ 3057.396848] NAME=NONE; INDEX=0; RESULT=5835 
[ 3057.532017] NAME=NONE; INDEX=0; RESULT=5692 
[ 3057.681969] NAME=NONE; INDEX=0; RESULT=5672 
[ 3057.800522] NAME=NONE; INDEX=0; RESULT=5774 
[ 3057.928792] NAME=NONE; INDEX=0; RESULT=5576 
[ 3058.061796] NAME=NONE; INDEX=0; RESULT=5471 
[ 3058.210473] NAME=NONE; INDEX=0; RESULT=5911 
[ 3058.340468] NAME=NONE; INDEX=0; RESULT=5585 
[ 3058.461523] NAME=NONE; INDEX=0; RESULT=5659 
[ 3058.583364] NAME=NONE; INDEX=0; RESULT=5855 
[ 3058.716919] NAME=NONE; INDEX=0; RESULT=5511 
[ 3058.850704] NAME=NONE; INDEX=0; RESULT=5722 
[ 3058.993311] NAME=NONE; INDEX=0; RESULT=5666 
[ 3059.107776] NAME=NONE; INDEX=0; RESULT=5847 
[ 3059.245521] NAME=NONE; INDEX=0; RESULT=5730 
[ 3059.370410] NAME=NONE; INDEX=0; RESULT=5490 
[ 3059.521809] NAME=NONE; INDEX=0; RESULT=5759 
[ 3059.650673] NAME=NONE; INDEX=0; RESULT=5499 
[ 3059.790882] NAME=NONE; INDEX=0; RESULT=5445 
[ 3059.931246] NAME=NONE; INDEX=0; RESULT=5454 
[ 3060.096550] NAME=NONE; INDEX=0; RESULT=5440 
[ 3060.240762] NAME=NONE; INDEX=0; RESULT=5634 
[ 3060.372963] NAME=NONE; INDEX=0; RESULT=5688 
[ 3060.476601] NAME=NONE; INDEX=0; RESULT=5863 
[ 3060.606376] NAME=NONE; INDEX=0; RESULT=5530 
[ 3060.719693] NAME=NONE; INDEX=0; RESULT=5551 
[ 3060.860875] NAME=NONE; INDEX=0; RESULT=5682 
[ 3060.986497] NAME=NONE; INDEX=0; RESULT=5541 
[ 3061.121390] NAME=NONE; INDEX=0; RESULT=5516 
[ 3061.247754] NAME=NONE; INDEX=0; RESULT=5456 
[ 3061.376574] NAME=NONE; INDEX=0; RESULT=5953 
[ 3061.537823] NAME=NONE; INDEX=0; RESULT=5676 
[ 3061.681566] NAME=NONE; INDEX=0; RESULT=5532 
[ 3061.810717] NAME=NONE; INDEX=0; RESULT=5723 
[ 3061.936879] NAME=NONE; INDEX=0; RESULT=5666 
[ 3062.020391] NAME=NONE; INDEX=0; RESULT=5507 
[ 3062.126894] NAME=NONE; INDEX=0; RESULT=6143 
[ 3062.220261] NAME=NONE; INDEX=0; RESULT=5547 
[ 3062.320309] NAME=NONE; INDEX=0; RESULT=5521 
[ 3062.464144] NAME=NONE; INDEX=0; RESULT=5879 
[ 3062.601783] NAME=NONE; INDEX=0; RESULT=5541 
[ 3062.714361] NAME=NONE; INDEX=0; RESULT=5564 
[ 3062.826877] NAME=NONE; INDEX=0; RESULT=5859 
[ 3062.924267] NAME=NONE; INDEX=0; RESULT=5824 
[ 3063.014118] NAME=NONE; INDEX=0; RESULT=5443 
[ 3063.114113] NAME=NONE; INDEX=0; RESULT=5788 
[ 3063.216830] NAME=NONE; INDEX=0; RESULT=5678 
[ 3063.304182] NAME=NONE; INDEX=0; RESULT=5574 
[ 3063.411760] NAME=NONE; INDEX=0; RESULT=5696 
[ 3063.544167] NAME=NONE; INDEX=0; RESULT=5560 
[ 3063.664094] NAME=NONE; INDEX=0; RESULT=5723 
[ 3063.753903] NAME=NONE; INDEX=0; RESULT=5764 
[ 3063.853879] NAME=NONE; INDEX=0; RESULT=6088 
[ 3063.964197] NAME=NONE; INDEX=0; RESULT=5763 
[ 3064.070404] NAME=NONE; INDEX=0; RESULT=5647 
[ 3064.179046] NAME=NONE; INDEX=0; RESULT=5794 
[ 3064.340654] NAME=NONE; INDEX=0; RESULT=5635 
[ 3064.488895] NAME=NONE; INDEX=0; RESULT=5731 
[ 3064.621367] NAME=NONE; INDEX=0; RESULT=5616 
[ 3064.751178] NAME=NONE; INDEX=0; RESULT=5884 
[ 3064.873477] NAME=NONE; INDEX=0; RESULT=5554 
[ 3065.027148] NAME=NONE; INDEX=0; RESULT=5786 
[ 3065.166432] NAME=NONE; INDEX=0; RESULT=5915 
[ 3065.311390] NAME=NONE; INDEX=0; RESULT=5833 
[ 3065.463542] NAME=NONE; INDEX=0; RESULT=5647 
[ 3065.607829] NAME=NONE; INDEX=0; RESULT=5491 
[ 3065.761660] NAME=NONE; INDEX=0; RESULT=5754 
[ 3065.876847] NAME=NONE; INDEX=0; RESULT=5769 
[ 3066.011054] NAME=NONE; INDEX=0; RESULT=5483 
[ 3066.161759] NAME=NONE; INDEX=0; RESULT=5589 
[ 3066.286642] NAME=NONE; INDEX=0; RESULT=5992 
[ 3066.386617] NAME=NONE; INDEX=0; RESULT=5509 
[ 3066.474250] NAME=NONE; INDEX=0; RESULT=5687 
[ 3066.564634] NAME=NONE; INDEX=0; RESULT=5467 
[ 3066.686549] NAME=NONE; INDEX=0; RESULT=5911 
[ 3066.789984] NAME=NONE; INDEX=0; RESULT=5466 
[ 3066.937923] NAME=NONE; INDEX=0; RESULT=5618 
[ 3067.067214] NAME=NONE; INDEX=0; RESULT=5578 
[ 3067.186804] NAME=NONE; INDEX=0; RESULT=5672 
[ 3067.330935] NAME=NONE; INDEX=0; RESULT=5492 
[ 3067.467026] NAME=NONE; INDEX=0; RESULT=7315 
[ 3067.600445] NAME=NONE; INDEX=0; RESULT=5588 
[ 3067.740870] NAME=NONE; INDEX=0; RESULT=5435 
[ 3067.867821] NAME=NONE; INDEX=0; RESULT=5587 
[ 3067.976003] NAME=NONE; INDEX=0; RESULT=5913 
[ 3068.110474] NAME=NONE; INDEX=0; RESULT=5623 
[ 3068.240286] NAME=NONE; INDEX=0; RESULT=5619 
[ 3068.371782] NAME=NONE; INDEX=0; RESULT=5597 
[ 3068.531717] NAME=NONE; INDEX=0; RESULT=5454 
[ 3068.661750] NAME=NONE; INDEX=0; RESULT=5628 
[ 3068.811889] NAME=NONE; INDEX=0; RESULT=5413 
[ 3068.950285] NAME=NONE; INDEX=0; RESULT=5807 
[ 3069.091721] NAME=NONE; INDEX=0; RESULT=5434 
[ 3069.216726] NAME=NONE; INDEX=0; RESULT=5748 
[ 3069.336026] NAME=NONE; INDEX=0; RESULT=5659 
[ 3069.470615] NAME=NONE; INDEX=0; RESULT=6277 
[ 3069.611609] NAME=NONE; INDEX=0; RESULT=5529 
[ 3069.748867] NAME=NONE; INDEX=0; RESULT=5671 
[ 3069.901493] NAME=NONE; INDEX=0; RESULT=5463 
[ 3070.027164] NAME=NONE; INDEX=0; RESULT=5571 
[ 3070.140388] NAME=NONE; INDEX=0; RESULT=5575 
[ 3070.270052] NAME=NONE; INDEX=0; RESULT=5517 
[ 3070.411807] NAME=NONE; INDEX=0; RESULT=5528 
[ 3070.536581] NAME=NONE; INDEX=0; RESULT=6259 
[ 3070.626596] NAME=NONE; INDEX=0; RESULT=5646 
[ 3070.733986] NAME=NONE; INDEX=0; RESULT=5678 
[ 3070.836504] NAME=NONE; INDEX=0; RESULT=5578 
[ 3070.926850] NAME=NONE; INDEX=0; RESULT=5542 
[ 3071.029656] NAME=NONE; INDEX=0; RESULT=5583 
[ 3071.120082] NAME=NONE; INDEX=0; RESULT=5794 
[ 3071.251780] NAME=NONE; INDEX=0; RESULT=5508 
[ 3071.370617] NAME=NONE; INDEX=0; RESULT=5860 
[ 3071.500234] NAME=NONE; INDEX=0; RESULT=5625 
[ 3071.651443] NAME=NONE; INDEX=0; RESULT=5638 
[ 3071.810471] NAME=NONE; INDEX=0; RESULT=5499 
[ 3071.941855] NAME=NONE; INDEX=0; RESULT=5615 
[ 3072.073100] NAME=NONE; INDEX=0; RESULT=5847 
[ 3072.176993] NAME=NONE; INDEX=0; RESULT=5428 
[ 3072.311640] NAME=NONE; INDEX=0; RESULT=5467 
[ 3072.481574] NAME=NONE; INDEX=0; RESULT=5516 
[ 3072.620176] NAME=NONE; INDEX=0; RESULT=5578 
[ 3072.750627] NAME=NONE; INDEX=0; RESULT=5565 
[ 3072.871491] NAME=NONE; INDEX=0; RESULT=5621 
[ 3073.018866] NAME=NONE; INDEX=0; RESULT=5441 
[ 3073.133030] NAME=NONE; INDEX=0; RESULT=5515 
[ 3073.281654] NAME=NONE; INDEX=0; RESULT=5490 
[ 3073.410365] NAME=NONE; INDEX=0; RESULT=5603 
[ 3073.530549] NAME=NONE; INDEX=0; RESULT=5603 
[ 3073.656412] NAME=NONE; INDEX=0; RESULT=5945 
[ 3073.779041] NAME=NONE; INDEX=0; RESULT=5678 
[ 3073.905975] NAME=NONE; INDEX=0; RESULT=6123 
[ 3074.046356] NAME=NONE; INDEX=0; RESULT=5512 
[ 3074.190850] NAME=NONE; INDEX=0; RESULT=5644 
[ 3074.316477] NAME=NONE; INDEX=0; RESULT=5600 
[ 3074.446462] NAME=NONE; INDEX=0; RESULT=5475 
[ 3074.553123] NAME=NONE; INDEX=0; RESULT=5605 
[ 3074.676434] NAME=NONE; INDEX=0; RESULT=5547 
[ 3074.809314] NAME=NONE; INDEX=0; RESULT=5607 
[ 3074.917326] NAME=NONE; INDEX=0; RESULT=5751 
[ 3075.040839] NAME=NONE; INDEX=0; RESULT=5608 
[ 3075.189975] NAME=NONE; INDEX=0; RESULT=5632 
[ 3075.300474] NAME=NONE; INDEX=0; RESULT=5738 
[ 3075.428562] NAME=NONE; INDEX=0; RESULT=5753 
[ 3075.551089] NAME=NONE; INDEX=0; RESULT=5553 
[ 3075.673342] NAME=NONE; INDEX=0; RESULT=5591 
[ 3075.819458] NAME=NONE; INDEX=0; RESULT=5538 
[ 3075.960857] NAME=NONE; INDEX=0; RESULT=5411 
[ 3076.083048] NAME=NONE; INDEX=0; RESULT=5823 
[ 3076.216943] NAME=NONE; INDEX=0; RESULT=5814 
[ 3076.361273] NAME=NONE; INDEX=0; RESULT=5717 
[ 3076.485135] NAME=NONE; INDEX=0; RESULT=6131 
[ 3076.584035] NAME=NONE; INDEX=0; RESULT=5709 
[ 3076.674787] NAME=NONE; INDEX=0; RESULT=6002 
[ 3076.765636] NAME=NONE; INDEX=0; RESULT=6234 
[ 3076.875468] NAME=NONE; INDEX=0; RESULT=5936 
[ 3076.984472] NAME=NONE; INDEX=0; RESULT=5976 
[ 3077.094425] NAME=NONE; INDEX=0; RESULT=6317 
[ 3077.230979] NAME=NONE; INDEX=0; RESULT=5599 
[ 3077.371302] NAME=NONE; INDEX=0; RESULT=5473 
[ 3077.510179] NAME=NONE; INDEX=0; RESULT=5667 
[ 3077.678272] NAME=NONE; INDEX=0; RESULT=5506 
[ 3077.830205] NAME=NONE; INDEX=0; RESULT=5722 
[ 3077.976936] NAME=NONE; INDEX=0; RESULT=5822 
[ 3078.101031] NAME=NONE; INDEX=0; RESULT=5612 
[ 3078.226852] NAME=NONE; INDEX=0; RESULT=6130 
[ 3078.324050] NAME=NONE; INDEX=0; RESULT=5926 
[ 3078.424073] NAME=NONE; INDEX=0; RESULT=5850 
[ 3078.527003] NAME=NONE; INDEX=0; RESULT=5653 
[ 3078.644066] NAME=NONE; INDEX=0; RESULT=5450 
[ 3078.750391] NAME=NONE; INDEX=0; RESULT=5639 
[ 3078.869155] NAME=NONE; INDEX=0; RESULT=5466 
[ 3079.007235] NAME=NONE; INDEX=0; RESULT=5597 
[ 3079.123434] NAME=NONE; INDEX=0; RESULT=5917 
[ 3079.256668] NAME=NONE; INDEX=0; RESULT=5686 
[ 3079.411180] NAME=NONE; INDEX=0; RESULT=5739 
[ 3079.546803] NAME=NONE; INDEX=0; RESULT=5650 
[ 3079.716012] NAME=NONE; INDEX=0; RESULT=5490 
[ 3079.856870] NAME=NONE; INDEX=0; RESULT=5492 
[ 3080.000977] NAME=NONE; INDEX=0; RESULT=5711 
[ 3080.127734] NAME=NONE; INDEX=0; RESULT=5670 
[ 3080.264984] NAME=NONE; INDEX=0; RESULT=5493 
[ 3080.390958] NAME=NONE; INDEX=0; RESULT=5444 
[ 3080.519789] NAME=NONE; INDEX=0; RESULT=5727 
[ 3080.656804] NAME=NONE; INDEX=0; RESULT=5820 
[ 3080.808007] NAME=NONE; INDEX=0; RESULT=5442 
[ 3080.981328] NAME=NONE; INDEX=0; RESULT=5570 
[ 3081.116361] NAME=NONE; INDEX=0; RESULT=5814 
[ 3081.246867] NAME=NONE; INDEX=0; RESULT=5828 
[ 3081.370613] NAME=NONE; INDEX=0; RESULT=5618 
[ 3081.511160] NAME=NONE; INDEX=0; RESULT=5616 
[ 3081.646425] NAME=NONE; INDEX=0; RESULT=5759 
[ 3081.780683] NAME=NONE; INDEX=0; RESULT=5641 
[ 3081.900486] NAME=NONE; INDEX=0; RESULT=5434 
[ 3082.030350] NAME=NONE; INDEX=0; RESULT=5680 
[ 3082.170657] NAME=NONE; INDEX=0; RESULT=5468 
[ 3082.338246] NAME=NONE; INDEX=0; RESULT=5411 
[ 3082.461637] NAME=NONE; INDEX=0; RESULT=5499 
[ 3082.612974] NAME=NONE; INDEX=0; RESULT=5783 
[ 3082.747749] NAME=NONE; INDEX=0; RESULT=5590 
[ 3082.869104] NAME=NONE; INDEX=0; RESULT=5596 
[ 3083.011672] NAME=NONE; INDEX=0; RESULT=5625 
[ 3083.140475] NAME=NONE; INDEX=0; RESULT=5573 
[ 3083.270766] NAME=NONE; INDEX=0; RESULT=5742 
[ 3083.406625] NAME=NONE; INDEX=0; RESULT=5665 
[ 3083.512981] NAME=NONE; INDEX=0; RESULT=5648 
[ 3083.656698] NAME=NONE; INDEX=0; RESULT=5955 
[ 3083.790876] NAME=NONE; INDEX=0; RESULT=5465 
[ 3083.926395] NAME=NONE; INDEX=0; RESULT=5770 
[ 3084.050707] NAME=NONE; INDEX=0; RESULT=5470 
[ 3084.187713] NAME=NONE; INDEX=0; RESULT=5640 
[ 3084.298812] NAME=NONE; INDEX=0; RESULT=5677 
[ 3084.406395] NAME=NONE; INDEX=0; RESULT=5611 
[ 3084.546341] NAME=NONE; INDEX=0; RESULT=5482 
[ 3084.682714] NAME=NONE; INDEX=0; RESULT=5794 
[ 3084.801495] NAME=NONE; INDEX=0; RESULT=5489 
[ 3084.926544] NAME=NONE; INDEX=0; RESULT=5431 
[ 3085.066543] NAME=NONE; INDEX=0; RESULT=5771 
[ 3085.193624] NAME=NONE; INDEX=0; RESULT=5493 
[ 3085.341533] NAME=NONE; INDEX=0; RESULT=5405 
[ 3085.461811] NAME=NONE; INDEX=0; RESULT=5750 
[ 3085.586694] NAME=NONE; INDEX=0; RESULT=5641 
[ 3085.718073] NAME=NONE; INDEX=0; RESULT=5435 
[ 3085.861156] NAME=NONE; INDEX=0; RESULT=5581 
[ 3085.996648] NAME=NONE; INDEX=0; RESULT=5855 
[ 3086.100822] NAME=NONE; INDEX=0; RESULT=5580 
[ 3086.216786] NAME=NONE; INDEX=0; RESULT=5690 
[ 3086.362045] NAME=NONE; INDEX=0; RESULT=5636 
[ 3086.483173] NAME=NONE; INDEX=0; RESULT=5614 
[ 3086.616378] NAME=NONE; INDEX=0; RESULT=6095 
[ 3086.731290] NAME=NONE; INDEX=0; RESULT=5554 
[ 3086.868567] NAME=NONE; INDEX=0; RESULT=5840 
[ 3087.010180] NAME=NONE; INDEX=0; RESULT=5596 
[ 3087.140799] NAME=NONE; INDEX=0; RESULT=5434 
[ 3087.281050] NAME=NONE; INDEX=0; RESULT=5901 
[ 3087.406854] NAME=NONE; INDEX=0; RESULT=5666 
[ 3087.550693] NAME=NONE; INDEX=0; RESULT=5396 
[ 3087.664473] NAME=NONE; INDEX=0; RESULT=5546 
[ 3087.780413] NAME=NONE; INDEX=0; RESULT=5484 
[ 3087.936371] NAME=NONE; INDEX=0; RESULT=5613 
[ 3088.090701] NAME=NONE; INDEX=0; RESULT=5422 
[ 3088.226505] NAME=NONE; INDEX=0; RESULT=5693 
[ 3088.383836] NAME=NONE; INDEX=0; RESULT=5690 
[ 3088.520977] NAME=NONE; INDEX=0; RESULT=5613 
[ 3088.656009] NAME=NONE; INDEX=0; RESULT=5576 
[ 3088.780940] NAME=NONE; INDEX=0; RESULT=5604 
[ 3088.911632] NAME=NONE; INDEX=0; RESULT=5540 
[ 3089.024012] NAME=NONE; INDEX=0; RESULT=5449 
[ 3089.168634] NAME=NONE; INDEX=0; RESULT=5415 
[ 3089.300910] NAME=NONE; INDEX=0; RESULT=5586 
[ 3089.427587] NAME=NONE; INDEX=0; RESULT=6221 
[ 3089.541728] NAME=NONE; INDEX=0; RESULT=5602 
[ 3089.671546] NAME=NONE; INDEX=0; RESULT=5402 
[ 3089.810658] NAME=NONE; INDEX=0; RESULT=5455 
[ 3089.956620] NAME=NONE; INDEX=0; RESULT=5660 
[ 3090.061595] NAME=NONE; INDEX=0; RESULT=5492 
[ 3090.196669] NAME=NONE; INDEX=0; RESULT=5651 
[ 3090.310886] NAME=NONE; INDEX=0; RESULT=5422 
[ 3090.424981] NAME=NONE; INDEX=0; RESULT=5519 
[ 3090.571985] NAME=NONE; INDEX=0; RESULT=5515 
[ 3090.700188] NAME=NONE; INDEX=0; RESULT=5534 
[ 3090.839890] NAME=NONE; INDEX=0; RESULT=5623 
[ 3090.981797] NAME=NONE; INDEX=0; RESULT=5762 
[ 3091.106558] NAME=NONE; INDEX=0; RESULT=5627 
[ 3091.250736] NAME=NONE; INDEX=0; RESULT=5613 
[ 3091.390231] NAME=NONE; INDEX=0; RESULT=5593 
[ 3091.551740] NAME=NONE; INDEX=0; RESULT=5788 
[ 3091.686505] NAME=NONE; INDEX=0; RESULT=5467 
[ 3091.796997] NAME=NONE; INDEX=0; RESULT=5995 
[ 3091.930397] NAME=NONE; INDEX=0; RESULT=5446 
[ 3092.083301] NAME=NONE; INDEX=0; RESULT=5713 
[ 3092.226308] NAME=NONE; INDEX=0; RESULT=5517 
[ 3092.336711] NAME=NONE; INDEX=0; RESULT=5503 
[ 3092.441370] NAME=NONE; INDEX=0; RESULT=5568 
[ 3092.560857] NAME=NONE; INDEX=0; RESULT=5964 
[ 3092.700634] NAME=NONE; INDEX=0; RESULT=5523 
[ 3092.846484] NAME=NONE; INDEX=0; RESULT=5482 
[ 3092.971705] NAME=NONE; INDEX=0; RESULT=5505 
[ 3093.095497] NAME=NONE; INDEX=0; RESULT=5711 
[ 3093.231526] NAME=NONE; INDEX=0; RESULT=5482 
[ 3093.350066] NAME=NONE; INDEX=0; RESULT=5592 
[ 3093.500774] NAME=NONE; INDEX=0; RESULT=5612 
[ 3093.640356] NAME=NONE; INDEX=0; RESULT=5606 
[ 3093.780220] NAME=NONE; INDEX=0; RESULT=5577 
[ 3093.921736] NAME=NONE; INDEX=0; RESULT=5561 
[ 3094.046435] NAME=NONE; INDEX=0; RESULT=5595 
[ 3094.190981] NAME=NONE; INDEX=0; RESULT=5565 
[ 3094.330993] NAME=NONE; INDEX=0; RESULT=5474 
[ 3094.473089] NAME=NONE; INDEX=0; RESULT=5663 
[ 3094.621624] NAME=NONE; INDEX=0; RESULT=5452 
[ 3094.761554] NAME=NONE; INDEX=0; RESULT=5537 
[ 3094.910435] NAME=NONE; INDEX=0; RESULT=5899 
[ 3095.061581] NAME=NONE; INDEX=0; RESULT=5442 
[ 3095.200411] NAME=NONE; INDEX=0; RESULT=5608 
[ 3095.330696] NAME=NONE; INDEX=0; RESULT=5434 
[ 3095.481565] NAME=NONE; INDEX=0; RESULT=5661 
[ 3095.608576] NAME=NONE; INDEX=0; RESULT=5631 
[ 3095.789462] NAME=NONE; INDEX=0; RESULT=5514 
[ 3095.930389] NAME=NONE; INDEX=0; RESULT=5490 
[ 3096.072507] NAME=NONE; INDEX=0; RESULT=5477 
[ 3096.216337] NAME=NONE; INDEX=0; RESULT=5464 
[ 3096.335836] NAME=NONE; INDEX=0; RESULT=5471 
[ 3096.481585] NAME=NONE; INDEX=0; RESULT=5683 
[ 3096.611504] NAME=NONE; INDEX=0; RESULT=5523 
[ 3096.714694] NAME=NONE; INDEX=0; RESULT=5806 
[ 3096.807141] NAME=NONE; INDEX=0; RESULT=5474 
[ 3096.900031] NAME=NONE; INDEX=0; RESULT=5486 
[ 3097.004353] NAME=NONE; INDEX=0; RESULT=5738 
[ 3097.126710] NAME=NONE; INDEX=0; RESULT=5936 
[ 3097.244533] NAME=NONE; INDEX=0; RESULT=5663 
[ 3097.340439] NAME=NONE; INDEX=0; RESULT=5509 
[ 3097.471205] NAME=NONE; INDEX=0; RESULT=5577 
[ 3097.640792] NAME=NONE; INDEX=0; RESULT=5431 
[ 3097.766515] NAME=NONE; INDEX=0; RESULT=5453 
[ 3097.911722] NAME=NONE; INDEX=0; RESULT=5595 
[ 3098.030941] NAME=NONE; INDEX=0; RESULT=5433 
[ 3098.191738] NAME=NONE; INDEX=0; RESULT=5771 
[ 3098.327855] NAME=NONE; INDEX=0; RESULT=5444 
[ 3098.456513] NAME=NONE; INDEX=0; RESULT=5624 
[ 3098.586698] NAME=NONE; INDEX=0; RESULT=5658 
[ 3098.761042] NAME=NONE; INDEX=0; RESULT=5525 
[ 3098.871147] NAME=NONE; INDEX=0; RESULT=5549 
[ 3099.004141] NAME=NONE; INDEX=0; RESULT=6169 
[ 3099.115303] NAME=NONE; INDEX=0; RESULT=5767 
[ 3099.214453] NAME=NONE; INDEX=0; RESULT=6333 
[ 3099.354255] NAME=NONE; INDEX=0; RESULT=5995 
[ 3099.444094] NAME=NONE; INDEX=0; RESULT=6116 
[ 3099.570793] NAME=NONE; INDEX=0; RESULT=5743 
[ 3099.664537] NAME=NONE; INDEX=0; RESULT=6027 
[ 3099.763732] NAME=NONE; INDEX=0; RESULT=5659 
[ 3099.894078] NAME=NONE; INDEX=0; RESULT=5791 
[ 3099.996607] NAME=NONE; INDEX=0; RESULT=5831 
[ 3100.113719] NAME=NONE; INDEX=0; RESULT=5663 
[ 3100.216512] NAME=NONE; INDEX=0; RESULT=5799 
[ 3100.371373] NAME=NONE; INDEX=0; RESULT=5508 
[ 3100.521768] NAME=NONE; INDEX=0; RESULT=5593 
[ 3100.673209] NAME=NONE; INDEX=0; RESULT=5562 
[ 3100.816960] NAME=NONE; INDEX=0; RESULT=5618 
[ 3100.951595] NAME=NONE; INDEX=0; RESULT=5499 
[ 3101.080840] NAME=NONE; INDEX=0; RESULT=5708 
[ 3101.210934] NAME=NONE; INDEX=0; RESULT=5484 
[ 3101.340783] NAME=NONE; INDEX=0; RESULT=5443 
[ 3101.477225] NAME=NONE; INDEX=0; RESULT=5834 
[ 3101.598004] NAME=NONE; INDEX=0; RESULT=5409 
[ 3101.716555] NAME=NONE; INDEX=0; RESULT=6322 
[ 3101.856421] NAME=NONE; INDEX=0; RESULT=5436 
[ 3102.031842] NAME=NONE; INDEX=0; RESULT=5960 
[ 3102.158352] NAME=NONE; INDEX=0; RESULT=5577 
[ 3102.288404] NAME=NONE; INDEX=0; RESULT=5460 
[ 3102.451671] NAME=NONE; INDEX=0; RESULT=5684 
[ 3102.595556] NAME=NONE; INDEX=0; RESULT=5660 
[ 3102.689937] NAME=NONE; INDEX=0; RESULT=5544 
[ 3102.804176] NAME=NONE; INDEX=0; RESULT=6095 
[ 3102.893980] NAME=NONE; INDEX=0; RESULT=5657 
[ 3103.006818] NAME=NONE; INDEX=0; RESULT=6059 
[ 3103.116937] NAME=NONE; INDEX=0; RESULT=5728 
[ 3103.222546] NAME=NONE; INDEX=0; RESULT=5495 
[ 3103.346939] NAME=NONE; INDEX=0; RESULT=5520 
[ 3103.460535] NAME=NONE; INDEX=0; RESULT=5507 
[ 3103.590387] NAME=NONE; INDEX=0; RESULT=5484 
[ 3103.730836] NAME=NONE; INDEX=0; RESULT=5569 
[ 3103.847277] NAME=NONE; INDEX=0; RESULT=5488 
[ 3103.977188] NAME=NONE; INDEX=0; RESULT=6180 
[ 3104.100368] NAME=NONE; INDEX=0; RESULT=5742 
[ 3104.241713] NAME=NONE; INDEX=0; RESULT=5920 
[ 3104.396690] NAME=NONE; INDEX=0; RESULT=5960 
[ 3104.555040] NAME=NONE; INDEX=0; RESULT=5564 
[ 3104.706015] NAME=NONE; INDEX=0; RESULT=5949 
