[ 4136.385226] NAME=NONE; INDEX=0; RESULT=1814 
[ 4136.498982] NAME=NONE; INDEX=0; RESULT=2594 
[ 4136.602275] NAME=NONE; INDEX=0; RESULT=2191 
[ 4136.702970] NAME=NONE; INDEX=0; RESULT=2758 
[ 4136.803094] NAME=NONE; INDEX=0; RESULT=2682 
[ 4136.911863] NAME=NONE; INDEX=0; RESULT=2808 
[ 4137.059694] NAME=NONE; INDEX=0; RESULT=2002 
[ 4137.179790] NAME=NONE; INDEX=0; RESULT=1878 
[ 4137.314450] NAME=NONE; INDEX=0; RESULT=1919 
[ 4137.436580] NAME=NONE; INDEX=0; RESULT=1893 
[ 4137.558043] NAME=NONE; INDEX=0; RESULT=2122 
[ 4137.718315] NAME=NONE; INDEX=0; RESULT=1685 
[ 4137.864569] NAME=NONE; INDEX=0; RESULT=1989 
[ 4137.999667] NAME=NONE; INDEX=0; RESULT=1907 
[ 4138.105487] NAME=NONE; INDEX=0; RESULT=1799 
[ 4138.216666] NAME=NONE; INDEX=0; RESULT=1922 
[ 4138.324435] NAME=NONE; INDEX=0; RESULT=1842 
[ 4138.454462] NAME=NONE; INDEX=0; RESULT=2364 
[ 4138.588872] NAME=NONE; INDEX=0; RESULT=1912 
[ 4138.709294] NAME=NONE; INDEX=0; RESULT=2114 
[ 4138.825692] NAME=NONE; INDEX=0; RESULT=2386 
[ 4138.949731] NAME=NONE; INDEX=0; RESULT=2363 
[ 4139.068355] NAME=NONE; INDEX=0; RESULT=2059 
[ 4139.215590] NAME=NONE; INDEX=0; RESULT=1713 
[ 4139.359144] NAME=NONE; INDEX=0; RESULT=1801 
[ 4139.498499] NAME=NONE; INDEX=0; RESULT=1862 
[ 4139.639893] NAME=NONE; INDEX=0; RESULT=1830 
[ 4139.790913] NAME=NONE; INDEX=0; RESULT=2084 
[ 4139.929226] NAME=NONE; INDEX=0; RESULT=1586 
[ 4140.057273] NAME=NONE; INDEX=0; RESULT=1957 
[ 4140.196644] NAME=NONE; INDEX=0; RESULT=1831 
[ 4140.311109] NAME=NONE; INDEX=0; RESULT=2555 
[ 4140.439331] NAME=NONE; INDEX=0; RESULT=1968 
[ 4140.571284] NAME=NONE; INDEX=0; RESULT=1888 
[ 4140.699137] NAME=NONE; INDEX=0; RESULT=2046 
[ 4140.828804] NAME=NONE; INDEX=0; RESULT=1921 
[ 4140.969824] NAME=NONE; INDEX=0; RESULT=1904 
[ 4141.129667] NAME=NONE; INDEX=0; RESULT=1867 
[ 4141.280802] NAME=NONE; INDEX=0; RESULT=2217 
[ 4141.419193] NAME=NONE; INDEX=0; RESULT=1784 
[ 4141.568594] NAME=NONE; INDEX=0; RESULT=1983 
[ 4141.739867] NAME=NONE; INDEX=0; RESULT=1956 
[ 4141.868504] NAME=NONE; INDEX=0; RESULT=2366 
[ 4142.009862] NAME=NONE; INDEX=0; RESULT=2210 
[ 4142.114346] NAME=NONE; INDEX=0; RESULT=2740 
[ 4142.212555] NAME=NONE; INDEX=0; RESULT=2772 
[ 4142.324644] NAME=NONE; INDEX=0; RESULT=2581 
[ 4142.421940] NAME=NONE; INDEX=0; RESULT=3040 
[ 4142.531982] NAME=NONE; INDEX=0; RESULT=3074 
[ 4142.632032] NAME=NONE; INDEX=0; RESULT=2164 
[ 4142.727982] NAME=NONE; INDEX=0; RESULT=2213 
[ 4142.849760] NAME=NONE; INDEX=0; RESULT=1930 
[ 4143.022421] NAME=NONE; INDEX=0; RESULT=1676 
[ 4143.161057] NAME=NONE; INDEX=0; RESULT=2519 
[ 4143.268631] NAME=NONE; INDEX=0; RESULT=2270 
[ 4143.410002] NAME=NONE; INDEX=0; RESULT=2178 
[ 4143.549867] NAME=NONE; INDEX=0; RESULT=1949 
[ 4143.684945] NAME=NONE; INDEX=0; RESULT=1756 
[ 4143.809816] NAME=NONE; INDEX=0; RESULT=1927 
[ 4143.938079] NAME=NONE; INDEX=0; RESULT=1964 
[ 4144.098530] NAME=NONE; INDEX=0; RESULT=1820 
[ 4144.250212] NAME=NONE; INDEX=0; RESULT=2025 
[ 4144.379856] NAME=NONE; INDEX=0; RESULT=1953 
[ 4144.519128] NAME=NONE; INDEX=0; RESULT=2351 
[ 4144.669984] NAME=NONE; INDEX=0; RESULT=2040 
[ 4144.784565] NAME=NONE; INDEX=0; RESULT=2244 
[ 4144.916785] NAME=NONE; INDEX=0; RESULT=1813 
[ 4145.050023] NAME=NONE; INDEX=0; RESULT=1977 
[ 4145.178584] NAME=NONE; INDEX=0; RESULT=1873 
[ 4145.291892] NAME=NONE; INDEX=0; RESULT=1967 
[ 4145.404605] NAME=NONE; INDEX=0; RESULT=2649 
[ 4145.514472] NAME=NONE; INDEX=0; RESULT=2559 
[ 4145.630621] NAME=NONE; INDEX=0; RESULT=2580 
[ 4145.744929] NAME=NONE; INDEX=0; RESULT=1869 
[ 4145.864464] NAME=NONE; INDEX=0; RESULT=2660 
[ 4145.989915] NAME=NONE; INDEX=0; RESULT=1973 
[ 4146.128626] NAME=NONE; INDEX=0; RESULT=2137 
[ 4146.281254] NAME=NONE; INDEX=0; RESULT=2195 
[ 4146.414492] NAME=NONE; INDEX=0; RESULT=1985 
[ 4146.540094] NAME=NONE; INDEX=0; RESULT=1873 
[ 4146.670052] NAME=NONE; INDEX=0; RESULT=2187 
[ 4146.794635] NAME=NONE; INDEX=0; RESULT=2143 
[ 4146.894916] NAME=NONE; INDEX=0; RESULT=2086 
[ 4146.983050] NAME=NONE; INDEX=0; RESULT=2150 
[ 4147.094613] NAME=NONE; INDEX=0; RESULT=2062 
[ 4147.204600] NAME=NONE; INDEX=0; RESULT=2408 
[ 4147.304853] NAME=NONE; INDEX=0; RESULT=2214 
[ 4147.404557] NAME=NONE; INDEX=0; RESULT=2230 
[ 4147.519866] NAME=NONE; INDEX=0; RESULT=2127 
[ 4147.659060] NAME=NONE; INDEX=0; RESULT=2330 
[ 4147.779891] NAME=NONE; INDEX=0; RESULT=1879 
[ 4147.914731] NAME=NONE; INDEX=0; RESULT=2302 
[ 4148.059308] NAME=NONE; INDEX=0; RESULT=2350 
[ 4148.195749] NAME=NONE; INDEX=0; RESULT=1876 
[ 4148.339308] NAME=NONE; INDEX=0; RESULT=1993 
[ 4148.454580] NAME=NONE; INDEX=0; RESULT=2338 
[ 4148.607179] NAME=NONE; INDEX=0; RESULT=1809 
[ 4148.734741] NAME=NONE; INDEX=0; RESULT=2578 
[ 4148.854502] NAME=NONE; INDEX=0; RESULT=1939 
[ 4148.974154] NAME=NONE; INDEX=0; RESULT=2322 
[ 4149.088921] NAME=NONE; INDEX=0; RESULT=1703 
[ 4149.220327] NAME=NONE; INDEX=0; RESULT=2132 
[ 4149.371433] NAME=NONE; INDEX=0; RESULT=2088 
[ 4149.540015] NAME=NONE; INDEX=0; RESULT=1854 
[ 4149.658876] NAME=NONE; INDEX=0; RESULT=2129 
[ 4149.798463] NAME=NONE; INDEX=0; RESULT=2084 
[ 4149.969998] NAME=NONE; INDEX=0; RESULT=2020 
[ 4150.081834] NAME=NONE; INDEX=0; RESULT=2508 
[ 4150.184240] NAME=NONE; INDEX=0; RESULT=2050 
[ 4150.272216] NAME=NONE; INDEX=0; RESULT=2419 
[ 4150.384704] NAME=NONE; INDEX=0; RESULT=2233 
[ 4150.484540] NAME=NONE; INDEX=0; RESULT=2666 
[ 4150.597981] NAME=NONE; INDEX=0; RESULT=2395 
[ 4150.704752] NAME=NONE; INDEX=0; RESULT=2358 
[ 4150.829428] NAME=NONE; INDEX=0; RESULT=2002 
[ 4150.955876] NAME=NONE; INDEX=0; RESULT=1784 
[ 4151.089598] NAME=NONE; INDEX=0; RESULT=1956 
[ 4151.234647] NAME=NONE; INDEX=0; RESULT=2429 
[ 4151.378639] NAME=NONE; INDEX=0; RESULT=2065 
[ 4151.514561] NAME=NONE; INDEX=0; RESULT=2060 
[ 4151.649122] NAME=NONE; INDEX=0; RESULT=1888 
[ 4151.790308] NAME=NONE; INDEX=0; RESULT=2152 
[ 4151.911299] NAME=NONE; INDEX=0; RESULT=2140 
[ 4152.059268] NAME=NONE; INDEX=0; RESULT=1811 
[ 4152.210049] NAME=NONE; INDEX=0; RESULT=2339 
[ 4152.324620] NAME=NONE; INDEX=0; RESULT=1984 
[ 4152.431274] NAME=NONE; INDEX=0; RESULT=2196 
[ 4152.544658] NAME=NONE; INDEX=0; RESULT=1941 
[ 4152.689163] NAME=NONE; INDEX=0; RESULT=2063 
[ 4152.814792] NAME=NONE; INDEX=0; RESULT=2105 
[ 4152.938799] NAME=NONE; INDEX=0; RESULT=1916 
[ 4153.070425] NAME=NONE; INDEX=0; RESULT=2096 
[ 4153.215211] NAME=NONE; INDEX=0; RESULT=1708 
[ 4153.324714] NAME=NONE; INDEX=0; RESULT=2222 
[ 4153.457065] NAME=NONE; INDEX=0; RESULT=1679 
[ 4153.616867] NAME=NONE; INDEX=0; RESULT=1776 
[ 4153.758631] NAME=NONE; INDEX=0; RESULT=1778 
[ 4153.887519] NAME=NONE; INDEX=0; RESULT=1617 
[ 4154.020383] NAME=NONE; INDEX=0; RESULT=2333 
[ 4154.149392] NAME=NONE; INDEX=0; RESULT=2226 
[ 4154.274905] NAME=NONE; INDEX=0; RESULT=1752 
[ 4154.385009] NAME=NONE; INDEX=0; RESULT=2043 
[ 4154.498320] NAME=NONE; INDEX=0; RESULT=2067 
[ 4154.615049] NAME=NONE; INDEX=0; RESULT=2284 
[ 4154.720869] NAME=NONE; INDEX=0; RESULT=2196 
[ 4154.832325] NAME=NONE; INDEX=0; RESULT=2123 
[ 4154.977989] NAME=NONE; INDEX=0; RESULT=1835 
[ 4155.118628] NAME=NONE; INDEX=0; RESULT=1891 
[ 4155.249619] NAME=NONE; INDEX=0; RESULT=2086 
[ 4155.375036] NAME=NONE; INDEX=0; RESULT=2068 
[ 4155.463012] NAME=NONE; INDEX=0; RESULT=2459 
[ 4155.568155] NAME=NONE; INDEX=0; RESULT=2520 
[ 4155.692813] NAME=NONE; INDEX=0; RESULT=2878 
[ 4155.788306] NAME=NONE; INDEX=0; RESULT=2089 
[ 4155.900868] NAME=NONE; INDEX=0; RESULT=2431 
[ 4156.002645] NAME=NONE; INDEX=0; RESULT=2522 
[ 4156.120191] NAME=NONE; INDEX=0; RESULT=1876 
[ 4156.250216] NAME=NONE; INDEX=0; RESULT=1962 
[ 4156.370263] NAME=NONE; INDEX=0; RESULT=2127 
[ 4156.510136] NAME=NONE; INDEX=0; RESULT=1908 
[ 4156.630225] NAME=NONE; INDEX=0; RESULT=2423 
[ 4156.752362] NAME=NONE; INDEX=0; RESULT=2303 
[ 4156.890199] NAME=NONE; INDEX=0; RESULT=1938 
[ 4157.015058] NAME=NONE; INDEX=0; RESULT=2067 
[ 4157.139861] NAME=NONE; INDEX=0; RESULT=1985 
[ 4157.274902] NAME=NONE; INDEX=0; RESULT=2130 
[ 4157.407184] NAME=NONE; INDEX=0; RESULT=1821 
[ 4157.534846] NAME=NONE; INDEX=0; RESULT=1956 
[ 4157.698879] NAME=NONE; INDEX=0; RESULT=1948 
[ 4157.842132] NAME=NONE; INDEX=0; RESULT=2071 
[ 4157.932256] NAME=NONE; INDEX=0; RESULT=2740 
[ 4158.022153] NAME=NONE; INDEX=0; RESULT=2304 
[ 4158.112403] NAME=NONE; INDEX=0; RESULT=2643 
[ 4158.225094] NAME=NONE; INDEX=0; RESULT=2504 
[ 4158.318219] NAME=NONE; INDEX=0; RESULT=2431 
[ 4158.424968] NAME=NONE; INDEX=0; RESULT=2138 
[ 4158.530198] NAME=NONE; INDEX=0; RESULT=2162 
[ 4158.662299] NAME=NONE; INDEX=0; RESULT=2456 
[ 4158.775025] NAME=NONE; INDEX=0; RESULT=2402 
[ 4158.882312] NAME=NONE; INDEX=0; RESULT=2276 
[ 4158.988274] NAME=NONE; INDEX=0; RESULT=2655 
[ 4159.082275] NAME=NONE; INDEX=0; RESULT=2106 
[ 4159.195256] NAME=NONE; INDEX=0; RESULT=1991 
[ 4159.287384] NAME=NONE; INDEX=0; RESULT=1858 
[ 4159.427243] NAME=NONE; INDEX=0; RESULT=1988 
[ 4159.550761] NAME=NONE; INDEX=0; RESULT=2250 
[ 4159.685267] NAME=NONE; INDEX=0; RESULT=2140 
[ 4159.805100] NAME=NONE; INDEX=0; RESULT=2525 
[ 4159.915091] NAME=NONE; INDEX=0; RESULT=2045 
[ 4160.022348] NAME=NONE; INDEX=0; RESULT=2254 
[ 4160.134701] NAME=NONE; INDEX=0; RESULT=2542 
[ 4160.260641] NAME=NONE; INDEX=0; RESULT=2069 
[ 4160.390012] NAME=NONE; INDEX=0; RESULT=2118 
[ 4160.530465] NAME=NONE; INDEX=0; RESULT=2120 
[ 4160.668779] NAME=NONE; INDEX=0; RESULT=2035 
[ 4160.799157] NAME=NONE; INDEX=0; RESULT=1790 
[ 4160.926148] NAME=NONE; INDEX=0; RESULT=1755 
[ 4161.051198] NAME=NONE; INDEX=0; RESULT=3107 
[ 4161.188948] NAME=NONE; INDEX=0; RESULT=1903 
[ 4161.331399] NAME=NONE; INDEX=0; RESULT=2403 
[ 4161.465118] NAME=NONE; INDEX=0; RESULT=2013 
[ 4161.590544] NAME=NONE; INDEX=0; RESULT=2256 
[ 4161.710516] NAME=NONE; INDEX=0; RESULT=1810 
[ 4161.830276] NAME=NONE; INDEX=0; RESULT=2202 
[ 4161.965554] NAME=NONE; INDEX=0; RESULT=1699 
[ 4162.089073] NAME=NONE; INDEX=0; RESULT=1990 
[ 4162.219323] NAME=NONE; INDEX=0; RESULT=1912 
[ 4162.360310] NAME=NONE; INDEX=0; RESULT=1913 
[ 4162.498938] NAME=NONE; INDEX=0; RESULT=1973 
[ 4162.648514] NAME=NONE; INDEX=0; RESULT=1934 
[ 4162.810047] NAME=NONE; INDEX=0; RESULT=2124 
[ 4162.945446] NAME=NONE; INDEX=0; RESULT=1710 
[ 4163.078565] NAME=NONE; INDEX=0; RESULT=1909 
[ 4163.220014] NAME=NONE; INDEX=0; RESULT=2071 
[ 4163.333917] NAME=NONE; INDEX=0; RESULT=2223 
[ 4163.428184] NAME=NONE; INDEX=0; RESULT=2117 
[ 4163.555178] NAME=NONE; INDEX=0; RESULT=2024 
[ 4163.662348] NAME=NONE; INDEX=0; RESULT=2994 
[ 4163.762593] NAME=NONE; INDEX=0; RESULT=2769 
[ 4163.862485] NAME=NONE; INDEX=0; RESULT=2036 
[ 4163.952595] NAME=NONE; INDEX=0; RESULT=2956 
[ 4164.089126] NAME=NONE; INDEX=0; RESULT=2103 
[ 4164.215517] NAME=NONE; INDEX=0; RESULT=1857 
[ 4164.355200] NAME=NONE; INDEX=0; RESULT=1878 
[ 4164.465123] NAME=NONE; INDEX=0; RESULT=2169 
[ 4164.579590] NAME=NONE; INDEX=0; RESULT=1843 
[ 4164.729733] NAME=NONE; INDEX=0; RESULT=3096 
[ 4164.861797] NAME=NONE; INDEX=0; RESULT=2252 
[ 4164.969901] NAME=NONE; INDEX=0; RESULT=1968 
[ 4165.096471] NAME=NONE; INDEX=0; RESULT=1802 
[ 4165.239510] NAME=NONE; INDEX=0; RESULT=2081 
[ 4165.406425] NAME=NONE; INDEX=0; RESULT=1831 
[ 4165.544613] NAME=NONE; INDEX=0; RESULT=1795 
[ 4165.661489] NAME=NONE; INDEX=0; RESULT=1967 
[ 4165.775356] NAME=NONE; INDEX=0; RESULT=2049 
[ 4165.915935] NAME=NONE; INDEX=0; RESULT=1722 
[ 4166.045345] NAME=NONE; INDEX=0; RESULT=2102 
[ 4166.174638] NAME=NONE; INDEX=0; RESULT=2029 
[ 4166.319126] NAME=NONE; INDEX=0; RESULT=1983 
[ 4166.449961] NAME=NONE; INDEX=0; RESULT=2162 
[ 4166.581805] NAME=NONE; INDEX=0; RESULT=1947 
[ 4166.705440] NAME=NONE; INDEX=0; RESULT=2020 
[ 4166.839559] NAME=NONE; INDEX=0; RESULT=1845 
[ 4166.975643] NAME=NONE; INDEX=0; RESULT=1688 
[ 4167.099609] NAME=NONE; INDEX=0; RESULT=1843 
[ 4167.257289] NAME=NONE; INDEX=0; RESULT=1747 
[ 4167.415084] NAME=NONE; INDEX=0; RESULT=2101 
[ 4167.529632] NAME=NONE; INDEX=0; RESULT=1979 
[ 4167.668462] NAME=NONE; INDEX=0; RESULT=1705 
[ 4167.802608] NAME=NONE; INDEX=0; RESULT=2641 
[ 4167.912682] NAME=NONE; INDEX=0; RESULT=2402 
[ 4168.015307] NAME=NONE; INDEX=0; RESULT=2198 
[ 4168.107522] NAME=NONE; INDEX=0; RESULT=1906 
[ 4168.225076] NAME=NONE; INDEX=0; RESULT=2626 
[ 4168.312628] NAME=NONE; INDEX=0; RESULT=2611 
[ 4168.425169] NAME=NONE; INDEX=0; RESULT=2533 
[ 4168.540509] NAME=NONE; INDEX=0; RESULT=2021 
[ 4168.692519] NAME=NONE; INDEX=0; RESULT=2118 
[ 4168.844989] NAME=NONE; INDEX=0; RESULT=2173 
[ 4168.972836] NAME=NONE; INDEX=0; RESULT=2122 
[ 4169.100735] NAME=NONE; INDEX=0; RESULT=2058 
[ 4169.229876] NAME=NONE; INDEX=0; RESULT=2062 
[ 4169.369018] NAME=NONE; INDEX=0; RESULT=2123 
[ 4169.499666] NAME=NONE; INDEX=0; RESULT=1872 
[ 4169.626486] NAME=NONE; INDEX=0; RESULT=1485 
[ 4169.749193] NAME=NONE; INDEX=0; RESULT=1894 
[ 4169.909874] NAME=NONE; INDEX=0; RESULT=2042 
[ 4170.039965] NAME=NONE; INDEX=0; RESULT=2296 
[ 4170.165534] NAME=NONE; INDEX=0; RESULT=1456 
[ 4170.257988] NAME=NONE; INDEX=0; RESULT=2141 
[ 4170.342644] NAME=NONE; INDEX=0; RESULT=2633 
[ 4170.445341] NAME=NONE; INDEX=0; RESULT=2618 
[ 4170.544427] NAME=NONE; INDEX=0; RESULT=2360 
[ 4170.652563] NAME=NONE; INDEX=0; RESULT=2082 
[ 4170.742620] NAME=NONE; INDEX=0; RESULT=2272 
[ 4170.843241] NAME=NONE; INDEX=0; RESULT=1842 
[ 4170.979854] NAME=NONE; INDEX=0; RESULT=1911 
[ 4171.105448] NAME=NONE; INDEX=0; RESULT=2088 
[ 4171.222621] NAME=NONE; INDEX=0; RESULT=2236 
[ 4171.315620] NAME=NONE; INDEX=0; RESULT=2021 
[ 4171.425265] NAME=NONE; INDEX=0; RESULT=2023 
[ 4171.532681] NAME=NONE; INDEX=0; RESULT=2355 
[ 4171.632695] NAME=NONE; INDEX=0; RESULT=1998 
[ 4171.749923] NAME=NONE; INDEX=0; RESULT=1940 
[ 4171.872511] NAME=NONE; INDEX=0; RESULT=2142 
[ 4172.009412] NAME=NONE; INDEX=0; RESULT=1916 
[ 4172.162527] NAME=NONE; INDEX=0; RESULT=2053 
[ 4172.301555] NAME=NONE; INDEX=0; RESULT=1988 
[ 4172.427569] NAME=NONE; INDEX=0; RESULT=1843 
[ 4172.578181] NAME=NONE; INDEX=0; RESULT=1834 
[ 4172.715267] NAME=NONE; INDEX=0; RESULT=2323 
[ 4172.808328] NAME=NONE; INDEX=0; RESULT=1819 
[ 4172.895300] NAME=NONE; INDEX=0; RESULT=1966 
[ 4173.005270] NAME=NONE; INDEX=0; RESULT=2604 
[ 4173.111159] NAME=NONE; INDEX=0; RESULT=2156 
[ 4173.235551] NAME=NONE; INDEX=0; RESULT=2479 
[ 4173.371424] NAME=NONE; INDEX=0; RESULT=1757 
[ 4173.499947] NAME=NONE; INDEX=0; RESULT=2026 
[ 4173.645428] NAME=NONE; INDEX=0; RESULT=2536 
[ 4173.780743] NAME=NONE; INDEX=0; RESULT=2645 
[ 4173.902356] NAME=NONE; INDEX=0; RESULT=2079 
[ 4174.049416] NAME=NONE; INDEX=0; RESULT=1729 
[ 4174.200550] NAME=NONE; INDEX=0; RESULT=2000 
[ 4174.335254] NAME=NONE; INDEX=0; RESULT=1987 
[ 4174.466534] NAME=NONE; INDEX=0; RESULT=1739 
[ 4174.600789] NAME=NONE; INDEX=0; RESULT=2062 
[ 4174.720770] NAME=NONE; INDEX=0; RESULT=2115 
[ 4174.845838] NAME=NONE; INDEX=0; RESULT=1807 
[ 4174.969681] NAME=NONE; INDEX=0; RESULT=2325 
[ 4175.111210] NAME=NONE; INDEX=0; RESULT=1919 
[ 4175.242107] NAME=NONE; INDEX=0; RESULT=2158 
[ 4175.365531] NAME=NONE; INDEX=0; RESULT=2128 
[ 4175.495409] NAME=NONE; INDEX=0; RESULT=1925 
[ 4175.639715] NAME=NONE; INDEX=0; RESULT=2493 
[ 4175.765469] NAME=NONE; INDEX=0; RESULT=2446 
[ 4175.900112] NAME=NONE; INDEX=0; RESULT=2065 
[ 4176.038406] NAME=NONE; INDEX=0; RESULT=1919 
[ 4176.180882] NAME=NONE; INDEX=0; RESULT=2108 
[ 4176.349527] NAME=NONE; INDEX=0; RESULT=1875 
[ 4176.464801] NAME=NONE; INDEX=0; RESULT=2272 
[ 4176.585449] NAME=NONE; INDEX=0; RESULT=2357 
[ 4176.707153] NAME=NONE; INDEX=0; RESULT=1856 
[ 4176.825532] NAME=NONE; INDEX=0; RESULT=2314 
[ 4176.968787] NAME=NONE; INDEX=0; RESULT=1926 
[ 4177.105359] NAME=NONE; INDEX=0; RESULT=1995 
[ 4177.229259] NAME=NONE; INDEX=0; RESULT=2032 
[ 4177.368324] NAME=NONE; INDEX=0; RESULT=1776 
[ 4177.511956] NAME=NONE; INDEX=0; RESULT=2467 
[ 4177.629753] NAME=NONE; INDEX=0; RESULT=2189 
[ 4177.767072] NAME=NONE; INDEX=0; RESULT=1839 
[ 4177.895337] NAME=NONE; INDEX=0; RESULT=2202 
[ 4178.020848] NAME=NONE; INDEX=0; RESULT=2016 
[ 4178.160354] NAME=NONE; INDEX=0; RESULT=1767 
[ 4178.301380] NAME=NONE; INDEX=0; RESULT=1684 
[ 4178.425627] NAME=NONE; INDEX=0; RESULT=2405 
[ 4178.545521] NAME=NONE; INDEX=0; RESULT=2410 
[ 4178.673534] NAME=NONE; INDEX=0; RESULT=2409 
[ 4178.809225] NAME=NONE; INDEX=0; RESULT=1734 
[ 4178.935500] NAME=NONE; INDEX=0; RESULT=2259 
[ 4179.055572] NAME=NONE; INDEX=0; RESULT=1904 
[ 4179.177621] NAME=NONE; INDEX=0; RESULT=1719 
[ 4179.295891] NAME=NONE; INDEX=0; RESULT=1826 
[ 4179.431360] NAME=NONE; INDEX=0; RESULT=2098 
[ 4179.576133] NAME=NONE; INDEX=0; RESULT=1943 
[ 4179.702583] NAME=NONE; INDEX=0; RESULT=2151 
[ 4179.826603] NAME=NONE; INDEX=0; RESULT=1712 
[ 4179.956063] NAME=NONE; INDEX=0; RESULT=1973 
[ 4180.120793] NAME=NONE; INDEX=0; RESULT=1979 
[ 4180.242908] NAME=NONE; INDEX=0; RESULT=2443 
[ 4180.352966] NAME=NONE; INDEX=0; RESULT=1856 
[ 4180.462924] NAME=NONE; INDEX=0; RESULT=2815 
[ 4180.563099] NAME=NONE; INDEX=0; RESULT=2042 
[ 4180.683152] NAME=NONE; INDEX=0; RESULT=3329 
[ 4180.783423] NAME=NONE; INDEX=0; RESULT=2203 
[ 4180.883251] NAME=NONE; INDEX=0; RESULT=2696 
[ 4181.000453] NAME=NONE; INDEX=0; RESULT=2244 
[ 4181.150209] NAME=NONE; INDEX=0; RESULT=2267 
[ 4181.282890] NAME=NONE; INDEX=0; RESULT=2832 
[ 4181.405499] NAME=NONE; INDEX=0; RESULT=2724 
[ 4181.503321] NAME=NONE; INDEX=0; RESULT=2717 
[ 4181.618846] NAME=NONE; INDEX=0; RESULT=2476 
[ 4181.725476] NAME=NONE; INDEX=0; RESULT=2129 
[ 4181.818889] NAME=NONE; INDEX=0; RESULT=2654 
[ 4181.927196] NAME=NONE; INDEX=0; RESULT=1749 
[ 4182.090986] NAME=NONE; INDEX=0; RESULT=2282 
[ 4182.210993] NAME=NONE; INDEX=0; RESULT=2091 
[ 4182.329592] NAME=NONE; INDEX=0; RESULT=2369 
[ 4182.459764] NAME=NONE; INDEX=0; RESULT=2129 
[ 4182.579535] NAME=NONE; INDEX=0; RESULT=2180 
[ 4182.719713] NAME=NONE; INDEX=0; RESULT=2309 
[ 4182.862234] NAME=NONE; INDEX=0; RESULT=2023 
[ 4183.015512] NAME=NONE; INDEX=0; RESULT=1984 
[ 4183.151200] NAME=NONE; INDEX=0; RESULT=2497 
[ 4183.270811] NAME=NONE; INDEX=0; RESULT=2255 
[ 4183.399570] NAME=NONE; INDEX=0; RESULT=2066 
[ 4183.550448] NAME=NONE; INDEX=0; RESULT=2266 
[ 4183.686027] NAME=NONE; INDEX=0; RESULT=1726 
[ 4183.815508] NAME=NONE; INDEX=0; RESULT=2228 
[ 4183.957199] NAME=NONE; INDEX=0; RESULT=1611 
[ 4184.085539] NAME=NONE; INDEX=0; RESULT=2836 
[ 4184.185505] NAME=NONE; INDEX=0; RESULT=2359 
[ 4184.272988] NAME=NONE; INDEX=0; RESULT=1953 
[ 4184.385607] NAME=NONE; INDEX=0; RESULT=2624 
[ 4184.475363] NAME=NONE; INDEX=0; RESULT=2237 
[ 4184.575586] NAME=NONE; INDEX=0; RESULT=2117 
[ 4184.682843] NAME=NONE; INDEX=0; RESULT=2538 
[ 4184.798755] NAME=NONE; INDEX=0; RESULT=1811 
[ 4184.925983] NAME=NONE; INDEX=0; RESULT=1794 
[ 4185.035800] NAME=NONE; INDEX=0; RESULT=2056 
[ 4185.131888] NAME=NONE; INDEX=0; RESULT=2578 
[ 4185.232711] NAME=NONE; INDEX=0; RESULT=2402 
[ 4185.335810] NAME=NONE; INDEX=0; RESULT=2498 
[ 4185.443321] NAME=NONE; INDEX=0; RESULT=2807 
[ 4185.545872] NAME=NONE; INDEX=0; RESULT=1963 
[ 4185.670950] NAME=NONE; INDEX=0; RESULT=1937 
[ 4185.811207] NAME=NONE; INDEX=0; RESULT=2022 
[ 4185.929930] NAME=NONE; INDEX=0; RESULT=2315 
[ 4186.055682] NAME=NONE; INDEX=0; RESULT=2165 
[ 4186.145822] NAME=NONE; INDEX=0; RESULT=2390 
[ 4186.248531] NAME=NONE; INDEX=0; RESULT=2362 
[ 4186.363749] NAME=NONE; INDEX=0; RESULT=2864 
[ 4186.448667] NAME=NONE; INDEX=0; RESULT=1954 
[ 4186.541684] NAME=NONE; INDEX=0; RESULT=2567 
[ 4186.653006] NAME=NONE; INDEX=0; RESULT=2267 
[ 4186.780053] NAME=NONE; INDEX=0; RESULT=1680 
[ 4186.921154] NAME=NONE; INDEX=0; RESULT=2119 
[ 4187.042364] NAME=NONE; INDEX=0; RESULT=2281 
[ 4187.165625] NAME=NONE; INDEX=0; RESULT=2573 
[ 4187.320125] NAME=NONE; INDEX=0; RESULT=1925 
[ 4187.450114] NAME=NONE; INDEX=0; RESULT=1938 
[ 4187.585667] NAME=NONE; INDEX=0; RESULT=2044 
[ 4187.700055] NAME=NONE; INDEX=0; RESULT=2343 
[ 4187.829640] NAME=NONE; INDEX=0; RESULT=1913 
[ 4187.975706] NAME=NONE; INDEX=0; RESULT=2336 
[ 4188.111183] NAME=NONE; INDEX=0; RESULT=2246 
[ 4188.271170] NAME=NONE; INDEX=0; RESULT=1951 
[ 4188.419838] NAME=NONE; INDEX=0; RESULT=1764 
[ 4188.561351] NAME=NONE; INDEX=0; RESULT=1861 
[ 4188.672213] NAME=NONE; INDEX=0; RESULT=2278 
[ 4188.785801] NAME=NONE; INDEX=0; RESULT=2042 
[ 4188.915691] NAME=NONE; INDEX=0; RESULT=2164 
[ 4189.058095] NAME=NONE; INDEX=0; RESULT=1751 
[ 4189.195979] NAME=NONE; INDEX=0; RESULT=2093 
[ 4189.305366] NAME=NONE; INDEX=0; RESULT=1777 
[ 4189.443689] NAME=NONE; INDEX=0; RESULT=2413 
[ 4189.536137] NAME=NONE; INDEX=0; RESULT=1787 
[ 4189.636178] NAME=NONE; INDEX=0; RESULT=1850 
[ 4189.745975] NAME=NONE; INDEX=0; RESULT=2065 
[ 4189.856048] NAME=NONE; INDEX=0; RESULT=1915 
[ 4189.971721] NAME=NONE; INDEX=0; RESULT=2042 
[ 4190.121188] NAME=NONE; INDEX=0; RESULT=2107 
[ 4190.251904] NAME=NONE; INDEX=0; RESULT=2026 
[ 4190.399875] NAME=NONE; INDEX=0; RESULT=1848 
[ 4190.565906] NAME=NONE; INDEX=0; RESULT=2187 
[ 4190.688631] NAME=NONE; INDEX=0; RESULT=1809 
[ 4190.831135] NAME=NONE; INDEX=0; RESULT=1900 
[ 4190.969882] NAME=NONE; INDEX=0; RESULT=1921 
[ 4191.107186] NAME=NONE; INDEX=0; RESULT=1836 
[ 4191.225890] NAME=NONE; INDEX=0; RESULT=1915 
[ 4191.355521] NAME=NONE; INDEX=0; RESULT=2208 
[ 4191.485390] NAME=NONE; INDEX=0; RESULT=2158 
[ 4191.620706] NAME=NONE; INDEX=0; RESULT=1974 
[ 4191.735521] NAME=NONE; INDEX=0; RESULT=2008 
[ 4191.865943] NAME=NONE; INDEX=0; RESULT=1833 
[ 4192.022141] NAME=NONE; INDEX=0; RESULT=2421 
[ 4192.168202] NAME=NONE; INDEX=0; RESULT=2046 
[ 4192.297739] NAME=NONE; INDEX=0; RESULT=1758 
[ 4192.431141] NAME=NONE; INDEX=0; RESULT=2031 
[ 4192.552591] NAME=NONE; INDEX=0; RESULT=2207 
[ 4192.696235] NAME=NONE; INDEX=0; RESULT=1860 
[ 4192.847905] NAME=NONE; INDEX=0; RESULT=1808 
[ 4192.999471] NAME=NONE; INDEX=0; RESULT=1886 
[ 4193.130897] NAME=NONE; INDEX=0; RESULT=2082 
[ 4193.281215] NAME=NONE; INDEX=0; RESULT=2091 
[ 4193.405972] NAME=NONE; INDEX=0; RESULT=2098 
[ 4193.519967] NAME=NONE; INDEX=0; RESULT=2179 
[ 4193.662765] NAME=NONE; INDEX=0; RESULT=2028 
[ 4193.792310] NAME=NONE; INDEX=0; RESULT=2399 
[ 4193.919690] NAME=NONE; INDEX=0; RESULT=2380 
[ 4194.061242] NAME=NONE; INDEX=0; RESULT=1603 
[ 4194.183730] NAME=NONE; INDEX=0; RESULT=1996 
[ 4194.341527] NAME=NONE; INDEX=0; RESULT=2246 
[ 4194.481244] NAME=NONE; INDEX=0; RESULT=1989 
[ 4194.602519] NAME=NONE; INDEX=0; RESULT=2384 
[ 4194.735932] NAME=NONE; INDEX=0; RESULT=2380 
[ 4194.871476] NAME=NONE; INDEX=0; RESULT=1955 
[ 4195.015752] NAME=NONE; INDEX=0; RESULT=2090 
[ 4195.145913] NAME=NONE; INDEX=0; RESULT=2367 
[ 4195.251264] NAME=NONE; INDEX=0; RESULT=2129 
[ 4195.378226] NAME=NONE; INDEX=0; RESULT=1471 
[ 4195.527220] NAME=NONE; INDEX=0; RESULT=1875 
[ 4195.646526] NAME=NONE; INDEX=0; RESULT=1769 
[ 4195.775813] NAME=NONE; INDEX=0; RESULT=2589 
[ 4195.911398] NAME=NONE; INDEX=0; RESULT=2312 
[ 4196.069850] NAME=NONE; INDEX=0; RESULT=1906 
[ 4196.210346] NAME=NONE; INDEX=0; RESULT=2024 
[ 4196.341261] NAME=NONE; INDEX=0; RESULT=1990 
[ 4196.496154] NAME=NONE; INDEX=0; RESULT=2491 
[ 4196.611750] NAME=NONE; INDEX=0; RESULT=2657 
[ 4196.723397] NAME=NONE; INDEX=0; RESULT=2304 
[ 4196.828964] NAME=NONE; INDEX=0; RESULT=2283 
[ 4196.946103] NAME=NONE; INDEX=0; RESULT=2525 
[ 4197.043349] NAME=NONE; INDEX=0; RESULT=2076 
[ 4197.149732] NAME=NONE; INDEX=0; RESULT=1785 
[ 4197.294406] NAME=NONE; INDEX=0; RESULT=2384 
[ 4197.382804] NAME=NONE; INDEX=0; RESULT=2332 
[ 4197.483261] NAME=NONE; INDEX=0; RESULT=2350 
[ 4197.606513] NAME=NONE; INDEX=0; RESULT=2042 
[ 4197.703533] NAME=NONE; INDEX=0; RESULT=2630 
[ 4197.806149] NAME=NONE; INDEX=0; RESULT=2304 
[ 4197.925063] NAME=NONE; INDEX=0; RESULT=2018 
[ 4198.053037] NAME=NONE; INDEX=0; RESULT=1942 
[ 4198.185945] NAME=NONE; INDEX=0; RESULT=2324 
[ 4198.330508] NAME=NONE; INDEX=0; RESULT=2218 
[ 4198.490461] NAME=NONE; INDEX=0; RESULT=1852 
[ 4198.652720] NAME=NONE; INDEX=0; RESULT=2045 
[ 4198.779973] NAME=NONE; INDEX=0; RESULT=2484 
[ 4198.900145] NAME=NONE; INDEX=0; RESULT=2111 
[ 4199.051435] NAME=NONE; INDEX=0; RESULT=2110 
[ 4199.181243] NAME=NONE; INDEX=0; RESULT=2290 
[ 4199.308448] NAME=NONE; INDEX=0; RESULT=1690 
[ 4199.429992] NAME=NONE; INDEX=0; RESULT=2116 
[ 4199.561465] NAME=NONE; INDEX=0; RESULT=1894 
[ 4199.671110] NAME=NONE; INDEX=0; RESULT=2956 
[ 4199.805902] NAME=NONE; INDEX=0; RESULT=2111 
[ 4199.911926] NAME=NONE; INDEX=0; RESULT=2285 
[ 4200.023572] NAME=NONE; INDEX=0; RESULT=2654 
[ 4200.133400] NAME=NONE; INDEX=0; RESULT=2747 
[ 4200.233136] NAME=NONE; INDEX=0; RESULT=2488 
[ 4200.344830] NAME=NONE; INDEX=0; RESULT=2593 
[ 4200.480334] NAME=NONE; INDEX=0; RESULT=1842 
[ 4200.606019] NAME=NONE; INDEX=0; RESULT=2152 
[ 4200.714256] NAME=NONE; INDEX=0; RESULT=3134 
[ 4200.826089] NAME=NONE; INDEX=0; RESULT=2266 
[ 4200.934791] NAME=NONE; INDEX=0; RESULT=2367 
[ 4201.043672] NAME=NONE; INDEX=0; RESULT=2208 
[ 4201.183748] NAME=NONE; INDEX=0; RESULT=2251 
[ 4201.303668] NAME=NONE; INDEX=0; RESULT=2161 
[ 4201.430915] NAME=NONE; INDEX=0; RESULT=1799 
[ 4201.556491] NAME=NONE; INDEX=0; RESULT=1702 
[ 4201.711989] NAME=NONE; INDEX=0; RESULT=2086 
[ 4201.837737] NAME=NONE; INDEX=0; RESULT=1719 
[ 4201.976902] NAME=NONE; INDEX=0; RESULT=1788 
[ 4202.108117] NAME=NONE; INDEX=0; RESULT=1711 
[ 4202.246755] NAME=NONE; INDEX=0; RESULT=1787 
[ 4202.361237] NAME=NONE; INDEX=0; RESULT=1826 
[ 4202.506690] NAME=NONE; INDEX=0; RESULT=1850 
[ 4202.651443] NAME=NONE; INDEX=0; RESULT=2027 
[ 4202.780235] NAME=NONE; INDEX=0; RESULT=2093 
[ 4202.911881] NAME=NONE; INDEX=0; RESULT=2055 
[ 4203.036860] NAME=NONE; INDEX=0; RESULT=1719 
[ 4203.146087] NAME=NONE; INDEX=0; RESULT=2153 
[ 4203.255219] NAME=NONE; INDEX=0; RESULT=2265 
[ 4203.376089] NAME=NONE; INDEX=0; RESULT=1953 
[ 4203.490490] NAME=NONE; INDEX=0; RESULT=1883 
[ 4203.629244] NAME=NONE; INDEX=0; RESULT=1771 
[ 4203.747053] NAME=NONE; INDEX=0; RESULT=1785 
[ 4203.862337] NAME=NONE; INDEX=0; RESULT=2465 
[ 4204.006478] NAME=NONE; INDEX=0; RESULT=1636 
[ 4204.137422] NAME=NONE; INDEX=0; RESULT=1854 
[ 4204.266196] NAME=NONE; INDEX=0; RESULT=2387 
[ 4204.400032] NAME=NONE; INDEX=0; RESULT=1860 
[ 4204.530744] NAME=NONE; INDEX=0; RESULT=1936 
[ 4204.670439] NAME=NONE; INDEX=0; RESULT=2015 
[ 4204.806150] NAME=NONE; INDEX=0; RESULT=2001 
[ 4204.951529] NAME=NONE; INDEX=0; RESULT=2126 
[ 4205.086150] NAME=NONE; INDEX=0; RESULT=1848 
[ 4205.193829] NAME=NONE; INDEX=0; RESULT=2433 
[ 4205.295934] NAME=NONE; INDEX=0; RESULT=1992 
[ 4205.413252] NAME=NONE; INDEX=0; RESULT=2844 
[ 4205.516497] NAME=NONE; INDEX=0; RESULT=1874 
[ 4205.636335] NAME=NONE; INDEX=0; RESULT=2526 
[ 4205.729775] NAME=NONE; INDEX=0; RESULT=2044 
[ 4205.833521] NAME=NONE; INDEX=0; RESULT=2604 
[ 4205.961502] NAME=NONE; INDEX=0; RESULT=2079 
[ 4206.090694] NAME=NONE; INDEX=0; RESULT=2057 
[ 4206.230258] NAME=NONE; INDEX=0; RESULT=1928 
[ 4206.356352] NAME=NONE; INDEX=0; RESULT=2461 
[ 4206.476981] NAME=NONE; INDEX=0; RESULT=1964 
[ 4206.599740] NAME=NONE; INDEX=0; RESULT=2281 
[ 4206.739859] NAME=NONE; INDEX=0; RESULT=2241 
[ 4206.879891] NAME=NONE; INDEX=0; RESULT=1805 
[ 4207.030656] NAME=NONE; INDEX=0; RESULT=2538 
[ 4207.150032] NAME=NONE; INDEX=0; RESULT=1956 
[ 4207.291779] NAME=NONE; INDEX=0; RESULT=1811 
[ 4207.421503] NAME=NONE; INDEX=0; RESULT=2036 
[ 4207.527163] NAME=NONE; INDEX=0; RESULT=1722 
[ 4207.650167] NAME=NONE; INDEX=0; RESULT=2029 
[ 4207.790583] NAME=NONE; INDEX=0; RESULT=1853 
[ 4207.899882] NAME=NONE; INDEX=0; RESULT=1987 
[ 4208.036129] NAME=NONE; INDEX=0; RESULT=2204 
[ 4208.176319] NAME=NONE; INDEX=0; RESULT=1994 
[ 4208.330857] NAME=NONE; INDEX=0; RESULT=2304 
[ 4208.479907] NAME=NONE; INDEX=0; RESULT=1871 
[ 4208.621885] NAME=NONE; INDEX=0; RESULT=2571 
[ 4208.756222] NAME=NONE; INDEX=0; RESULT=2187 
[ 4208.899940] NAME=NONE; INDEX=0; RESULT=1924 
[ 4209.061731] NAME=NONE; INDEX=0; RESULT=2247 
[ 4209.176248] NAME=NONE; INDEX=0; RESULT=1866 
[ 4209.307230] NAME=NONE; INDEX=0; RESULT=1727 
[ 4209.460732] NAME=NONE; INDEX=0; RESULT=1828 
[ 4209.590078] NAME=NONE; INDEX=0; RESULT=2460 
[ 4209.741487] NAME=NONE; INDEX=0; RESULT=1851 
[ 4209.881569] NAME=NONE; INDEX=0; RESULT=2656 
[ 4210.000360] NAME=NONE; INDEX=0; RESULT=2094 
[ 4210.151509] NAME=NONE; INDEX=0; RESULT=1890 
[ 4210.311849] NAME=NONE; INDEX=0; RESULT=2347 
[ 4210.440281] NAME=NONE; INDEX=0; RESULT=1884 
[ 4210.570465] NAME=NONE; INDEX=0; RESULT=1926 
[ 4210.718605] NAME=NONE; INDEX=0; RESULT=1730 
[ 4210.840826] NAME=NONE; INDEX=0; RESULT=2075 
[ 4210.970102] NAME=NONE; INDEX=0; RESULT=2181 
[ 4211.097073] NAME=NONE; INDEX=0; RESULT=1977 
[ 4211.226287] NAME=NONE; INDEX=0; RESULT=1975 
[ 4211.360370] NAME=NONE; INDEX=0; RESULT=2059 
[ 4211.500282] NAME=NONE; INDEX=0; RESULT=2013 
[ 4211.595953] NAME=NONE; INDEX=0; RESULT=2838 
[ 4211.686352] NAME=NONE; INDEX=0; RESULT=2179 
[ 4211.796213] NAME=NONE; INDEX=0; RESULT=2309 
[ 4211.912240] NAME=NONE; INDEX=0; RESULT=1975 
[ 4212.023814] NAME=NONE; INDEX=0; RESULT=2000 
[ 4212.123775] NAME=NONE; INDEX=0; RESULT=2816 
[ 4212.233782] NAME=NONE; INDEX=0; RESULT=2566 
[ 4212.351805] NAME=NONE; INDEX=0; RESULT=2135 
[ 4212.491724] NAME=NONE; INDEX=0; RESULT=1956 
[ 4212.604959] NAME=NONE; INDEX=0; RESULT=2163 
[ 4212.716581] NAME=NONE; INDEX=0; RESULT=2418 
[ 4212.806490] NAME=NONE; INDEX=0; RESULT=2135 
[ 4212.906367] NAME=NONE; INDEX=0; RESULT=2590 
[ 4212.996451] NAME=NONE; INDEX=0; RESULT=2402 
[ 4213.093884] NAME=NONE; INDEX=0; RESULT=2677 
[ 4213.193953] NAME=NONE; INDEX=0; RESULT=2137 
[ 4213.298916] NAME=NONE; INDEX=0; RESULT=1710 
[ 4213.456508] NAME=NONE; INDEX=0; RESULT=2231 
[ 4213.591013] NAME=NONE; INDEX=0; RESULT=1962 
[ 4213.730837] NAME=NONE; INDEX=0; RESULT=1698 
[ 4213.825053] NAME=NONE; INDEX=0; RESULT=2189 
[ 4213.933892] NAME=NONE; INDEX=0; RESULT=2610 
[ 4214.046362] NAME=NONE; INDEX=0; RESULT=2596 
[ 4214.156850] NAME=NONE; INDEX=0; RESULT=1850 
[ 4214.276433] NAME=NONE; INDEX=0; RESULT=2726 
[ 4214.386558] NAME=NONE; INDEX=0; RESULT=2233 
[ 4214.496432] NAME=NONE; INDEX=0; RESULT=2984 
[ 4214.621038] NAME=NONE; INDEX=0; RESULT=1768 
[ 4214.770513] NAME=NONE; INDEX=0; RESULT=2176 
[ 4214.900168] NAME=NONE; INDEX=0; RESULT=3103 
[ 4215.042984] NAME=NONE; INDEX=0; RESULT=2320 
[ 4215.180343] NAME=NONE; INDEX=0; RESULT=2068 
[ 4215.310418] NAME=NONE; INDEX=0; RESULT=1809 
[ 4215.440601] NAME=NONE; INDEX=0; RESULT=1935 
[ 4215.591842] NAME=NONE; INDEX=0; RESULT=2179 
[ 4215.726500] NAME=NONE; INDEX=0; RESULT=2192 
[ 4215.871559] NAME=NONE; INDEX=0; RESULT=2230 
[ 4215.996589] NAME=NONE; INDEX=0; RESULT=2137 
[ 4216.126518] NAME=NONE; INDEX=0; RESULT=1958 
[ 4216.250956] NAME=NONE; INDEX=0; RESULT=1976 
[ 4216.371128] NAME=NONE; INDEX=0; RESULT=1878 
[ 4216.497181] NAME=NONE; INDEX=0; RESULT=1751 
[ 4216.613279] NAME=NONE; INDEX=0; RESULT=2216 
[ 4216.736516] NAME=NONE; INDEX=0; RESULT=1949 
[ 4216.877450] NAME=NONE; INDEX=0; RESULT=1723 
[ 4217.021150] NAME=NONE; INDEX=0; RESULT=1908 
[ 4217.160931] NAME=NONE; INDEX=0; RESULT=1985 
[ 4217.291773] NAME=NONE; INDEX=0; RESULT=2197 
[ 4217.412810] NAME=NONE; INDEX=0; RESULT=1895 
[ 4217.526426] NAME=NONE; INDEX=0; RESULT=2061 
[ 4217.641252] NAME=NONE; INDEX=0; RESULT=2257 
[ 4217.773069] NAME=NONE; INDEX=0; RESULT=3253 
[ 4217.898917] NAME=NONE; INDEX=0; RESULT=1682 
[ 4218.026845] NAME=NONE; INDEX=0; RESULT=1672 
[ 4218.144463] NAME=NONE; INDEX=0; RESULT=1956 
[ 4218.311460] NAME=NONE; INDEX=0; RESULT=1926 
[ 4218.460540] NAME=NONE; INDEX=0; RESULT=2012 
[ 4218.600673] NAME=NONE; INDEX=0; RESULT=1875 
[ 4218.721428] NAME=NONE; INDEX=0; RESULT=2200 
[ 4218.880384] NAME=NONE; INDEX=0; RESULT=2053 
[ 4219.031900] NAME=NONE; INDEX=0; RESULT=2145 
[ 4219.144011] NAME=NONE; INDEX=0; RESULT=2103 
[ 4219.236701] NAME=NONE; INDEX=0; RESULT=2484 
[ 4219.346658] NAME=NONE; INDEX=0; RESULT=2449 
[ 4219.466706] NAME=NONE; INDEX=0; RESULT=2228 
[ 4219.556633] NAME=NONE; INDEX=0; RESULT=2233 
[ 4219.656625] NAME=NONE; INDEX=0; RESULT=2493 
[ 4219.753953] NAME=NONE; INDEX=0; RESULT=2115 
[ 4219.892140] NAME=NONE; INDEX=0; RESULT=2180 
[ 4220.032016] NAME=NONE; INDEX=0; RESULT=1966 
[ 4220.171855] NAME=NONE; INDEX=0; RESULT=2075 
[ 4220.310678] NAME=NONE; INDEX=0; RESULT=1918 
[ 4220.452964] NAME=NONE; INDEX=0; RESULT=2280 
[ 4220.586879] NAME=NONE; INDEX=0; RESULT=1778 
[ 4220.702035] NAME=NONE; INDEX=0; RESULT=2135 
[ 4220.851857] NAME=NONE; INDEX=0; RESULT=1948 
[ 4220.981158] NAME=NONE; INDEX=0; RESULT=2331 
[ 4221.126726] NAME=NONE; INDEX=0; RESULT=1906 
[ 4221.271901] NAME=NONE; INDEX=0; RESULT=2140 
[ 4221.420780] NAME=NONE; INDEX=0; RESULT=1874 
[ 4221.550546] NAME=NONE; INDEX=0; RESULT=1978 
[ 4221.691954] NAME=NONE; INDEX=0; RESULT=1954 
[ 4221.840608] NAME=NONE; INDEX=0; RESULT=2172 
[ 4221.971080] NAME=NONE; INDEX=0; RESULT=1896 
[ 4222.099242] NAME=NONE; INDEX=0; RESULT=1979 
[ 4222.212189] NAME=NONE; INDEX=0; RESULT=2245 
[ 4222.352009] NAME=NONE; INDEX=0; RESULT=1953 
[ 4222.479088] NAME=NONE; INDEX=0; RESULT=1922 
[ 4222.600499] NAME=NONE; INDEX=0; RESULT=2273 
[ 4222.726721] NAME=NONE; INDEX=0; RESULT=1997 
[ 4222.872123] NAME=NONE; INDEX=0; RESULT=2260 
[ 4223.041202] NAME=NONE; INDEX=0; RESULT=1812 
[ 4223.166746] NAME=NONE; INDEX=0; RESULT=2450 
[ 4223.311190] NAME=NONE; INDEX=0; RESULT=1803 
[ 4223.460878] NAME=NONE; INDEX=0; RESULT=2088 
[ 4223.590904] NAME=NONE; INDEX=0; RESULT=1993 
[ 4223.731093] NAME=NONE; INDEX=0; RESULT=1982 
[ 4223.856700] NAME=NONE; INDEX=0; RESULT=2374 
[ 4223.977672] NAME=NONE; INDEX=0; RESULT=1642 
[ 4224.120146] NAME=NONE; INDEX=0; RESULT=1998 
[ 4224.237190] NAME=NONE; INDEX=0; RESULT=1632 
[ 4224.380686] NAME=NONE; INDEX=0; RESULT=1924 
[ 4224.520578] NAME=NONE; INDEX=0; RESULT=2046 
[ 4224.641149] NAME=NONE; INDEX=0; RESULT=2191 
[ 4224.786149] NAME=NONE; INDEX=0; RESULT=2283 
[ 4224.912136] NAME=NONE; INDEX=0; RESULT=2224 
[ 4225.071659] NAME=NONE; INDEX=0; RESULT=2195 
[ 4225.217274] NAME=NONE; INDEX=0; RESULT=1724 
[ 4225.361881] NAME=NONE; INDEX=0; RESULT=2148 
[ 4225.498976] NAME=NONE; INDEX=0; RESULT=1842 
[ 4225.610786] NAME=NONE; INDEX=0; RESULT=1904 
[ 4225.750883] NAME=NONE; INDEX=0; RESULT=1740 
[ 4225.887870] NAME=NONE; INDEX=0; RESULT=1719 
[ 4226.040679] NAME=NONE; INDEX=0; RESULT=2079 
[ 4226.183472] NAME=NONE; INDEX=0; RESULT=1799 
[ 4226.322313] NAME=NONE; INDEX=0; RESULT=2300 
[ 4226.495490] NAME=NONE; INDEX=0; RESULT=2043 
[ 4226.616483] NAME=NONE; INDEX=0; RESULT=1943 
[ 4226.761159] NAME=NONE; INDEX=0; RESULT=2215 
[ 4226.936848] NAME=NONE; INDEX=0; RESULT=1684 
[ 4227.066816] NAME=NONE; INDEX=0; RESULT=2056 
[ 4227.212277] NAME=NONE; INDEX=0; RESULT=2003 
[ 4227.342256] NAME=NONE; INDEX=0; RESULT=1984 
[ 4227.466929] NAME=NONE; INDEX=0; RESULT=2159 
[ 4227.623908] NAME=NONE; INDEX=0; RESULT=1999 
[ 4227.776900] NAME=NONE; INDEX=0; RESULT=2507 
[ 4227.886583] NAME=NONE; INDEX=0; RESULT=2279 
[ 4227.986504] NAME=NONE; INDEX=0; RESULT=2264 
[ 4228.096340] NAME=NONE; INDEX=0; RESULT=2188 
[ 4228.206441] NAME=NONE; INDEX=0; RESULT=2081 
[ 4228.316784] NAME=NONE; INDEX=0; RESULT=2044 
[ 4228.422887] NAME=NONE; INDEX=0; RESULT=1883 
[ 4228.544209] NAME=NONE; INDEX=0; RESULT=2553 
[ 4228.670831] NAME=NONE; INDEX=0; RESULT=2353 
[ 4228.806911] NAME=NONE; INDEX=0; RESULT=2356 
[ 4228.907035] NAME=NONE; INDEX=0; RESULT=1919 
[ 4229.007003] NAME=NONE; INDEX=0; RESULT=2306 
[ 4229.105049] NAME=NONE; INDEX=0; RESULT=2668 
[ 4229.234247] NAME=NONE; INDEX=0; RESULT=2823 
[ 4229.337015] NAME=NONE; INDEX=0; RESULT=2536 
[ 4229.458447] NAME=NONE; INDEX=0; RESULT=1851 
[ 4229.600818] NAME=NONE; INDEX=0; RESULT=2187 
[ 4229.753923] NAME=NONE; INDEX=0; RESULT=1961 
[ 4229.900884] NAME=NONE; INDEX=0; RESULT=1861 
[ 4230.032293] NAME=NONE; INDEX=0; RESULT=2021 
[ 4230.170854] NAME=NONE; INDEX=0; RESULT=2447 
[ 4230.320644] NAME=NONE; INDEX=0; RESULT=2120 
[ 4230.472153] NAME=NONE; INDEX=0; RESULT=2166 
[ 4230.611022] NAME=NONE; INDEX=0; RESULT=1975 
[ 4230.740738] NAME=NONE; INDEX=0; RESULT=1990 
[ 4230.885954] NAME=NONE; INDEX=0; RESULT=1964 
[ 4231.023507] NAME=NONE; INDEX=0; RESULT=2290 
[ 4231.150816] NAME=NONE; INDEX=0; RESULT=1907 
[ 4231.292336] NAME=NONE; INDEX=0; RESULT=2344 
[ 4231.420726] NAME=NONE; INDEX=0; RESULT=2002 
[ 4231.559187] NAME=NONE; INDEX=0; RESULT=1949 
[ 4231.702124] NAME=NONE; INDEX=0; RESULT=1853 
[ 4231.820911] NAME=NONE; INDEX=0; RESULT=1869 
[ 4231.960474] NAME=NONE; INDEX=0; RESULT=1898 
[ 4232.112404] NAME=NONE; INDEX=0; RESULT=2148 
[ 4232.253659] NAME=NONE; INDEX=0; RESULT=2507 
[ 4232.402462] NAME=NONE; INDEX=0; RESULT=2439 
[ 4232.542325] NAME=NONE; INDEX=0; RESULT=1835 
[ 4232.682385] NAME=NONE; INDEX=0; RESULT=1898 
[ 4232.812479] NAME=NONE; INDEX=0; RESULT=1780 
[ 4232.967328] NAME=NONE; INDEX=0; RESULT=1866 
[ 4233.091047] NAME=NONE; INDEX=0; RESULT=1820 
[ 4233.250779] NAME=NONE; INDEX=0; RESULT=1744 
[ 4233.386801] NAME=NONE; INDEX=0; RESULT=2088 
[ 4233.511041] NAME=NONE; INDEX=0; RESULT=1785 
[ 4233.652320] NAME=NONE; INDEX=0; RESULT=2187 
[ 4233.777709] NAME=NONE; INDEX=0; RESULT=1647 
[ 4233.911163] NAME=NONE; INDEX=0; RESULT=1868 
[ 4234.042403] NAME=NONE; INDEX=0; RESULT=2699 
[ 4234.187143] NAME=NONE; INDEX=0; RESULT=2013 
[ 4234.319290] NAME=NONE; INDEX=0; RESULT=2078 
[ 4234.442371] NAME=NONE; INDEX=0; RESULT=1754 
[ 4234.577463] NAME=NONE; INDEX=0; RESULT=1742 
[ 4234.700923] NAME=NONE; INDEX=0; RESULT=2170 
[ 4234.819329] NAME=NONE; INDEX=0; RESULT=1776 
[ 4234.962500] NAME=NONE; INDEX=0; RESULT=1905 
[ 4235.087554] NAME=NONE; INDEX=0; RESULT=1664 
[ 4235.203368] NAME=NONE; INDEX=0; RESULT=2118 
[ 4235.333562] NAME=NONE; INDEX=0; RESULT=2257 
[ 4235.462314] NAME=NONE; INDEX=0; RESULT=1963 
[ 4235.582541] NAME=NONE; INDEX=0; RESULT=2193 
[ 4235.706822] NAME=NONE; INDEX=0; RESULT=2096 
[ 4235.851191] NAME=NONE; INDEX=0; RESULT=1845 
[ 4236.002796] NAME=NONE; INDEX=0; RESULT=2030 
[ 4236.108136] NAME=NONE; INDEX=0; RESULT=1804 
[ 4236.236856] NAME=NONE; INDEX=0; RESULT=2466 
[ 4236.369581] NAME=NONE; INDEX=0; RESULT=1772 
[ 4236.501837] NAME=NONE; INDEX=0; RESULT=2010 
[ 4236.617218] NAME=NONE; INDEX=0; RESULT=2043 
[ 4236.737159] NAME=NONE; INDEX=0; RESULT=2298 
[ 4236.832744] NAME=NONE; INDEX=0; RESULT=2061 
[ 4236.946961] NAME=NONE; INDEX=0; RESULT=2603 
[ 4237.044546] NAME=NONE; INDEX=0; RESULT=2896 
[ 4237.167169] NAME=NONE; INDEX=0; RESULT=3056 
[ 4237.267099] NAME=NONE; INDEX=0; RESULT=2199 
[ 4237.402393] NAME=NONE; INDEX=0; RESULT=2063 
[ 4237.527658] NAME=NONE; INDEX=0; RESULT=1718 
[ 4237.651148] NAME=NONE; INDEX=0; RESULT=2335 
[ 4237.791369] NAME=NONE; INDEX=0; RESULT=1915 
[ 4237.918310] NAME=NONE; INDEX=0; RESULT=1730 
[ 4238.039306] NAME=NONE; INDEX=0; RESULT=1707 
[ 4238.181146] NAME=NONE; INDEX=0; RESULT=2275 
[ 4238.310798] NAME=NONE; INDEX=0; RESULT=2017 
[ 4238.460982] NAME=NONE; INDEX=0; RESULT=2129 
[ 4238.611424] NAME=NONE; INDEX=0; RESULT=1488 
[ 4238.772479] NAME=NONE; INDEX=0; RESULT=2167 
[ 4238.901311] NAME=NONE; INDEX=0; RESULT=2199 
[ 4239.072480] NAME=NONE; INDEX=0; RESULT=2338 
[ 4239.221536] NAME=NONE; INDEX=0; RESULT=1944 
[ 4239.357300] NAME=NONE; INDEX=0; RESULT=1994 
[ 4239.512830] NAME=NONE; INDEX=0; RESULT=2310 
[ 4239.650854] NAME=NONE; INDEX=0; RESULT=2111 
[ 4239.781592] NAME=NONE; INDEX=0; RESULT=1817 
[ 4239.911153] NAME=NONE; INDEX=0; RESULT=1911 
[ 4240.030996] NAME=NONE; INDEX=0; RESULT=1783 
[ 4240.162775] NAME=NONE; INDEX=0; RESULT=2084 
[ 4240.297102] NAME=NONE; INDEX=0; RESULT=2395 
[ 4240.422582] NAME=NONE; INDEX=0; RESULT=2105 
[ 4240.557374] NAME=NONE; INDEX=0; RESULT=1995 
[ 4240.712137] NAME=NONE; INDEX=0; RESULT=2325 
[ 4240.827499] NAME=NONE; INDEX=0; RESULT=1850 
[ 4240.947381] NAME=NONE; INDEX=0; RESULT=2307 
[ 4241.045022] NAME=NONE; INDEX=0; RESULT=2387 
[ 4241.137267] NAME=NONE; INDEX=0; RESULT=2210 
[ 4241.245021] NAME=NONE; INDEX=0; RESULT=3274 
[ 4241.347316] NAME=NONE; INDEX=0; RESULT=2328 
[ 4241.450238] NAME=NONE; INDEX=0; RESULT=2249 
[ 4241.571178] NAME=NONE; INDEX=0; RESULT=1772 
[ 4241.722491] NAME=NONE; INDEX=0; RESULT=2045 
[ 4241.861426] NAME=NONE; INDEX=0; RESULT=2016 
[ 4242.002513] NAME=NONE; INDEX=0; RESULT=1781 
[ 4242.137149] NAME=NONE; INDEX=0; RESULT=2420 
[ 4242.271257] NAME=NONE; INDEX=0; RESULT=2095 
[ 4242.422596] NAME=NONE; INDEX=0; RESULT=2071 
[ 4242.538311] NAME=NONE; INDEX=0; RESULT=1879 
[ 4242.677523] NAME=NONE; INDEX=0; RESULT=1865 
[ 4242.822583] NAME=NONE; INDEX=0; RESULT=2278 
[ 4242.957568] NAME=NONE; INDEX=0; RESULT=1768 
[ 4243.091540] NAME=NONE; INDEX=0; RESULT=2070 
[ 4243.231884] NAME=NONE; INDEX=0; RESULT=1852 
[ 4243.371418] NAME=NONE; INDEX=0; RESULT=2154 
[ 4243.501501] NAME=NONE; INDEX=0; RESULT=2112 
[ 4243.632533] NAME=NONE; INDEX=0; RESULT=2080 
[ 4243.754778] NAME=NONE; INDEX=0; RESULT=2569 
[ 4243.902572] NAME=NONE; INDEX=0; RESULT=1790 
[ 4244.022668] NAME=NONE; INDEX=0; RESULT=2014 
[ 4244.153735] NAME=NONE; INDEX=0; RESULT=2360 
[ 4244.281546] NAME=NONE; INDEX=0; RESULT=1812 
[ 4244.397254] NAME=NONE; INDEX=0; RESULT=2664 
[ 4244.549469] NAME=NONE; INDEX=0; RESULT=1639 
[ 4244.681725] NAME=NONE; INDEX=0; RESULT=1602 
[ 4244.801311] NAME=NONE; INDEX=0; RESULT=2141 
[ 4244.930859] NAME=NONE; INDEX=0; RESULT=1818 
[ 4245.052834] NAME=NONE; INDEX=0; RESULT=2089 
[ 4245.183487] NAME=NONE; INDEX=0; RESULT=2234 
[ 4245.317119] NAME=NONE; INDEX=0; RESULT=2034 
[ 4245.462826] NAME=NONE; INDEX=0; RESULT=2060 
[ 4245.602547] NAME=NONE; INDEX=0; RESULT=1885 
[ 4245.731407] NAME=NONE; INDEX=0; RESULT=2082 
[ 4245.869454] NAME=NONE; INDEX=0; RESULT=1897 
[ 4246.012108] NAME=NONE; INDEX=0; RESULT=2271 
[ 4246.164411] NAME=NONE; INDEX=0; RESULT=2375 
[ 4246.322590] NAME=NONE; INDEX=0; RESULT=1758 
[ 4246.426168] NAME=NONE; INDEX=0; RESULT=2611 
[ 4246.557274] NAME=NONE; INDEX=0; RESULT=2094 
[ 4246.688485] NAME=NONE; INDEX=0; RESULT=1663 
[ 4246.811561] NAME=NONE; INDEX=0; RESULT=2120 
[ 4246.931215] NAME=NONE; INDEX=0; RESULT=2339 
[ 4247.069558] NAME=NONE; INDEX=0; RESULT=1801 
[ 4247.209488] NAME=NONE; INDEX=0; RESULT=1766 
[ 4247.332619] NAME=NONE; INDEX=0; RESULT=2074 
[ 4247.471388] NAME=NONE; INDEX=0; RESULT=1895 
[ 4247.601593] NAME=NONE; INDEX=0; RESULT=2143 
[ 4247.742715] NAME=NONE; INDEX=0; RESULT=1821 
[ 4247.881241] NAME=NONE; INDEX=0; RESULT=2171 
[ 4248.032723] NAME=NONE; INDEX=0; RESULT=1974 
[ 4248.154934] NAME=NONE; INDEX=0; RESULT=2118 
[ 4248.281543] NAME=NONE; INDEX=0; RESULT=1991 
[ 4248.397204] NAME=NONE; INDEX=0; RESULT=1863 
[ 4248.542622] NAME=NONE; INDEX=0; RESULT=2155 
[ 4248.655790] NAME=NONE; INDEX=0; RESULT=1750 
[ 4248.750799] NAME=NONE; INDEX=0; RESULT=2476 
[ 4248.887054] NAME=NONE; INDEX=0; RESULT=2353 
[ 4249.037701] NAME=NONE; INDEX=0; RESULT=1830 
[ 4249.147395] NAME=NONE; INDEX=0; RESULT=2356 
[ 4249.237402] NAME=NONE; INDEX=0; RESULT=2787 
[ 4249.353706] NAME=NONE; INDEX=0; RESULT=2262 
[ 4249.487108] NAME=NONE; INDEX=0; RESULT=2070 
[ 4249.613733] NAME=NONE; INDEX=0; RESULT=2377 
[ 4249.764039] NAME=NONE; INDEX=0; RESULT=1786 
[ 4249.912757] NAME=NONE; INDEX=0; RESULT=2225 
[ 4250.044022] NAME=NONE; INDEX=0; RESULT=2338 
[ 4250.201924] NAME=NONE; INDEX=0; RESULT=2258 
[ 4250.334752] NAME=NONE; INDEX=0; RESULT=2726 
[ 4250.437395] NAME=NONE; INDEX=0; RESULT=2509 
[ 4250.537788] NAME=NONE; INDEX=0; RESULT=1710 
[ 4250.657835] NAME=NONE; INDEX=0; RESULT=1850 
[ 4250.777327] NAME=NONE; INDEX=0; RESULT=2482 
[ 4250.877722] NAME=NONE; INDEX=0; RESULT=1791 
[ 4250.991112] NAME=NONE; INDEX=0; RESULT=2034 
[ 4251.139888] NAME=NONE; INDEX=0; RESULT=1987 
[ 4251.261665] NAME=NONE; INDEX=0; RESULT=1956 
[ 4251.402840] NAME=NONE; INDEX=0; RESULT=1795 
[ 4251.537773] NAME=NONE; INDEX=0; RESULT=1756 
[ 4251.651477] NAME=NONE; INDEX=0; RESULT=1793 
[ 4251.804282] NAME=NONE; INDEX=0; RESULT=1983 
[ 4251.937531] NAME=NONE; INDEX=0; RESULT=2100 
[ 4252.066486] NAME=NONE; INDEX=0; RESULT=2099 
[ 4252.214243] NAME=NONE; INDEX=0; RESULT=1837 
[ 4252.345508] NAME=NONE; INDEX=0; RESULT=2123 
[ 4252.445240] NAME=NONE; INDEX=0; RESULT=2585 
[ 4252.557812] NAME=NONE; INDEX=0; RESULT=1814 
[ 4252.667281] NAME=NONE; INDEX=0; RESULT=2094 
[ 4252.757648] NAME=NONE; INDEX=0; RESULT=2620 
[ 4252.853419] NAME=NONE; INDEX=0; RESULT=2143 
[ 4252.957680] NAME=NONE; INDEX=0; RESULT=2148 
[ 4253.082861] NAME=NONE; INDEX=0; RESULT=1642 
[ 4253.232816] NAME=NONE; INDEX=0; RESULT=1779 
[ 4253.366614] NAME=NONE; INDEX=0; RESULT=2116 
[ 4253.487604] NAME=NONE; INDEX=0; RESULT=2076 
[ 4253.621103] NAME=NONE; INDEX=0; RESULT=1935 
[ 4253.752346] NAME=NONE; INDEX=0; RESULT=2203 
[ 4253.901274] NAME=NONE; INDEX=0; RESULT=1902 
[ 4254.052986] NAME=NONE; INDEX=0; RESULT=2004 
[ 4254.207670] NAME=NONE; INDEX=0; RESULT=1948 
[ 4254.353210] NAME=NONE; INDEX=0; RESULT=2167 
[ 4254.482880] NAME=NONE; INDEX=0; RESULT=2147 
[ 4254.607366] NAME=NONE; INDEX=0; RESULT=1970 
[ 4254.742866] NAME=NONE; INDEX=0; RESULT=2056 
[ 4254.872867] NAME=NONE; INDEX=0; RESULT=1971 
[ 4254.987836] NAME=NONE; INDEX=0; RESULT=1770 
[ 4255.077844] NAME=NONE; INDEX=0; RESULT=2070 
[ 4255.173458] NAME=NONE; INDEX=0; RESULT=2204 
[ 4255.267891] NAME=NONE; INDEX=0; RESULT=2210 
[ 4255.367863] NAME=NONE; INDEX=0; RESULT=2122 
[ 4255.467769] NAME=NONE; INDEX=0; RESULT=2680 
[ 4255.565070] NAME=NONE; INDEX=0; RESULT=3096 
[ 4255.681094] NAME=NONE; INDEX=0; RESULT=1957 
[ 4255.807548] NAME=NONE; INDEX=0; RESULT=1852 
[ 4255.928748] NAME=NONE; INDEX=0; RESULT=1646 
[ 4256.037662] NAME=NONE; INDEX=0; RESULT=2306 
[ 4256.193306] NAME=NONE; INDEX=0; RESULT=2106 
[ 4256.341890] NAME=NONE; INDEX=0; RESULT=1978 
[ 4256.493111] NAME=NONE; INDEX=0; RESULT=2071 
[ 4256.611282] NAME=NONE; INDEX=0; RESULT=2189 
[ 4256.760242] NAME=NONE; INDEX=0; RESULT=1649 
[ 4256.903164] NAME=NONE; INDEX=0; RESULT=2371 
[ 4257.032980] NAME=NONE; INDEX=0; RESULT=2138 
[ 4257.183153] NAME=NONE; INDEX=0; RESULT=2039 
[ 4257.333812] NAME=NONE; INDEX=0; RESULT=1958 
[ 4257.451688] NAME=NONE; INDEX=0; RESULT=2089 
[ 4257.599864] NAME=NONE; INDEX=0; RESULT=1732 
[ 4257.747827] NAME=NONE; INDEX=0; RESULT=2255 
[ 4257.861284] NAME=NONE; INDEX=0; RESULT=1784 
[ 4257.994939] NAME=NONE; INDEX=0; RESULT=2068 
[ 4258.142569] NAME=NONE; INDEX=0; RESULT=1814 
[ 4258.281867] NAME=NONE; INDEX=0; RESULT=2211 
[ 4258.432486] NAME=NONE; INDEX=0; RESULT=1818 
[ 4258.572956] NAME=NONE; INDEX=0; RESULT=2015 
[ 4258.697301] NAME=NONE; INDEX=0; RESULT=2318 
[ 4258.842953] NAME=NONE; INDEX=0; RESULT=2263 
[ 4258.991475] NAME=NONE; INDEX=0; RESULT=1807 
[ 4259.133051] NAME=NONE; INDEX=0; RESULT=1992 
[ 4259.257765] NAME=NONE; INDEX=0; RESULT=2343 
[ 4259.391658] NAME=NONE; INDEX=0; RESULT=2246 
[ 4259.531754] NAME=NONE; INDEX=0; RESULT=1943 
[ 4259.651824] NAME=NONE; INDEX=0; RESULT=2182 
[ 4259.803025] NAME=NONE; INDEX=0; RESULT=1828 
[ 4259.943111] NAME=NONE; INDEX=0; RESULT=2032 
[ 4260.087884] NAME=NONE; INDEX=0; RESULT=2002 
[ 4260.223211] NAME=NONE; INDEX=0; RESULT=2146 
[ 4260.362959] NAME=NONE; INDEX=0; RESULT=1968 
[ 4260.484859] NAME=NONE; INDEX=0; RESULT=1963 
[ 4260.634533] NAME=NONE; INDEX=0; RESULT=2536 
[ 4260.762059] NAME=NONE; INDEX=0; RESULT=2045 
[ 4260.912507] NAME=NONE; INDEX=0; RESULT=1862 
[ 4261.046407] NAME=NONE; INDEX=0; RESULT=2062 
[ 4261.135499] NAME=NONE; INDEX=0; RESULT=2218 
[ 4261.225370] NAME=NONE; INDEX=0; RESULT=2403 
[ 4261.316625] NAME=NONE; INDEX=0; RESULT=2134 
[ 4261.425411] NAME=NONE; INDEX=0; RESULT=2112 
[ 4261.525047] NAME=NONE; INDEX=0; RESULT=2121 
[ 4261.627879] NAME=NONE; INDEX=0; RESULT=2358 
[ 4261.753121] NAME=NONE; INDEX=0; RESULT=2060 
[ 4261.902983] NAME=NONE; INDEX=0; RESULT=1939 
[ 4262.018738] NAME=NONE; INDEX=0; RESULT=1916 
[ 4262.147624] NAME=NONE; INDEX=0; RESULT=1939 
[ 4262.271573] NAME=NONE; INDEX=0; RESULT=1994 
[ 4262.402004] NAME=NONE; INDEX=0; RESULT=2264 
[ 4262.542621] NAME=NONE; INDEX=0; RESULT=2585 
[ 4262.684287] NAME=NONE; INDEX=0; RESULT=1979 
[ 4262.813208] NAME=NONE; INDEX=0; RESULT=2143 
[ 4262.947503] NAME=NONE; INDEX=0; RESULT=2691 
[ 4263.067741] NAME=NONE; INDEX=0; RESULT=1815 
[ 4263.192016] NAME=NONE; INDEX=0; RESULT=1600 
[ 4263.333118] NAME=NONE; INDEX=0; RESULT=2280 
[ 4263.435183] NAME=NONE; INDEX=0; RESULT=2445 
[ 4263.545076] NAME=NONE; INDEX=0; RESULT=2204 
