
a.out:     file format elf32-littlearm


Disassembly of section .text:

00000000 <main>:
   0:	e92d4800 	push	{fp, lr}
   4:	e28db004 	add	fp, sp, #4
   8:	e3a00008 	mov	r0, #8
   c:	ebfffffe 	bl	24 <binary_search>
  10:	e3a03000 	mov	r3, #0
  14:	e1a00003 	mov	r0, r3
  18:	e24bd004 	sub	sp, fp, #4
  1c:	e8bd4800 	pop	{fp, lr}
  20:	e12fff1e 	bx	lr

00000024 <binary_search>:
  24:	e52db004 	push	{fp}		; (str fp, [sp, #-4]!)
  28:	e28db000 	add	fp, sp, #0
  2c:	e24dd01c 	sub	sp, sp, #28
  30:	e50b0018 	str	r0, [fp, #-24]	; 0xffffffe8
  34:	e3a03000 	mov	r3, #0
  38:	e50b3010 	str	r3, [fp, #-16]
  3c:	e3a0300e 	mov	r3, #14
  40:	e50b300c 	str	r3, [fp, #-12]
  44:	e3e03000 	mvn	r3, #0
  48:	e50b3008 	str	r3, [fp, #-8]
  4c:	ea000026 	b	ec <binary_search+0xc8>
  50:	e51b2010 	ldr	r2, [fp, #-16]
  54:	e51b300c 	ldr	r3, [fp, #-12]
  58:	e0823003 	add	r3, r2, r3
  5c:	e1a030c3 	asr	r3, r3, #1
  60:	e50b3014 	str	r3, [fp, #-20]	; 0xffffffec
  64:	e59f20a4 	ldr	r2, [pc, #164]	; 110 <binary_search+0xec>
  68:	e51b3014 	ldr	r3, [fp, #-20]	; 0xffffffec
  6c:	e7922183 	ldr	r2, [r2, r3, lsl #3]
  70:	e51b3018 	ldr	r3, [fp, #-24]	; 0xffffffe8
  74:	e1520003 	cmp	r2, r3
  78:	1a000009 	bne	a4 <binary_search+0x80>
  7c:	e51b3010 	ldr	r3, [fp, #-16]
  80:	e2433001 	sub	r3, r3, #1
  84:	e50b300c 	str	r3, [fp, #-12]
  88:	e59f2080 	ldr	r2, [pc, #128]	; 110 <binary_search+0xec>
  8c:	e51b3014 	ldr	r3, [fp, #-20]	; 0xffffffec
  90:	e1a03183 	lsl	r3, r3, #3
  94:	e0823003 	add	r3, r2, r3
  98:	e5933004 	ldr	r3, [r3, #4]
  9c:	e50b3008 	str	r3, [fp, #-8]
  a0:	ea00000c 	b	d8 <binary_search+0xb4>
  a4:	e59f2064 	ldr	r2, [pc, #100]	; 110 <binary_search+0xec>
  a8:	e51b3014 	ldr	r3, [fp, #-20]	; 0xffffffec
  ac:	e7922183 	ldr	r2, [r2, r3, lsl #3]
  b0:	e51b3018 	ldr	r3, [fp, #-24]	; 0xffffffe8
  b4:	e1520003 	cmp	r2, r3
  b8:	da000003 	ble	cc <binary_search+0xa8>
  bc:	e51b3014 	ldr	r3, [fp, #-20]	; 0xffffffec
  c0:	e2433001 	sub	r3, r3, #1
  c4:	e50b300c 	str	r3, [fp, #-12]
  c8:	ea000002 	b	d8 <binary_search+0xb4>
  cc:	e51b3014 	ldr	r3, [fp, #-20]	; 0xffffffec
  d0:	e2833001 	add	r3, r3, #1
  d4:	e50b3010 	str	r3, [fp, #-16]
  d8:	e59f3034 	ldr	r3, [pc, #52]	; 114 <binary_search+0xf0>
  dc:	e5933000 	ldr	r3, [r3]
  e0:	e2833001 	add	r3, r3, #1
  e4:	e59f2028 	ldr	r2, [pc, #40]	; 114 <binary_search+0xf0>
  e8:	e5823000 	str	r3, [r2]
  ec:	e51b2010 	ldr	r2, [fp, #-16]
  f0:	e51b300c 	ldr	r3, [fp, #-12]
  f4:	e1520003 	cmp	r2, r3
  f8:	daffffd4 	ble	50 <binary_search+0x2c>
  fc:	e51b3008 	ldr	r3, [fp, #-8]
 100:	e1a00003 	mov	r0, r3
 104:	e24bd000 	sub	sp, fp, #0
 108:	e49db004 	pop	{fp}		; (ldr fp, [sp], #4)
 10c:	e12fff1e 	bx	lr
 110:	00000000 	.word	0x00000000
 114:	00000000 	.word	0x00000000
