
a.out:     file format elf32-littlearm


Disassembly of section .text:

00000000 <fdct>:
   0:	e52db004 	push	{fp}		; (str fp, [sp, #-4]!)
   4:	e28db000 	add	fp, sp, #0
   8:	e24dd05c 	sub	sp, sp, #92	; 0x5c
   c:	e50b0058 	str	r0, [fp, #-88]	; 0xffffffa8
  10:	e50b105c 	str	r1, [fp, #-92]	; 0xffffffa4
  14:	e51b3058 	ldr	r3, [fp, #-88]	; 0xffffffa8
  18:	e50b300c 	str	r3, [fp, #-12]
  1c:	e3a03000 	mov	r3, #0
  20:	e50b3008 	str	r3, [fp, #-8]
  24:	ea00010c 	b	45c <fdct+0x45c>
  28:	e51b300c 	ldr	r3, [fp, #-12]
  2c:	e1d330f0 	ldrsh	r3, [r3]
  30:	e1a02003 	mov	r2, r3
  34:	e51b300c 	ldr	r3, [fp, #-12]
  38:	e283300e 	add	r3, r3, #14
  3c:	e1d330f0 	ldrsh	r3, [r3]
  40:	e0823003 	add	r3, r2, r3
  44:	e50b3010 	str	r3, [fp, #-16]
  48:	e51b300c 	ldr	r3, [fp, #-12]
  4c:	e1d330f0 	ldrsh	r3, [r3]
  50:	e1a02003 	mov	r2, r3
  54:	e51b300c 	ldr	r3, [fp, #-12]
  58:	e283300e 	add	r3, r3, #14
  5c:	e1d330f0 	ldrsh	r3, [r3]
  60:	e0633002 	rsb	r3, r3, r2
  64:	e50b3014 	str	r3, [fp, #-20]	; 0xffffffec
  68:	e51b300c 	ldr	r3, [fp, #-12]
  6c:	e2833002 	add	r3, r3, #2
  70:	e1d330f0 	ldrsh	r3, [r3]
  74:	e1a02003 	mov	r2, r3
  78:	e51b300c 	ldr	r3, [fp, #-12]
  7c:	e283300c 	add	r3, r3, #12
  80:	e1d330f0 	ldrsh	r3, [r3]
  84:	e0823003 	add	r3, r2, r3
  88:	e50b3018 	str	r3, [fp, #-24]	; 0xffffffe8
  8c:	e51b300c 	ldr	r3, [fp, #-12]
  90:	e2833002 	add	r3, r3, #2
  94:	e1d330f0 	ldrsh	r3, [r3]
  98:	e1a02003 	mov	r2, r3
  9c:	e51b300c 	ldr	r3, [fp, #-12]
  a0:	e283300c 	add	r3, r3, #12
  a4:	e1d330f0 	ldrsh	r3, [r3]
  a8:	e0633002 	rsb	r3, r3, r2
  ac:	e50b301c 	str	r3, [fp, #-28]	; 0xffffffe4
  b0:	e51b300c 	ldr	r3, [fp, #-12]
  b4:	e2833004 	add	r3, r3, #4
  b8:	e1d330f0 	ldrsh	r3, [r3]
  bc:	e1a02003 	mov	r2, r3
  c0:	e51b300c 	ldr	r3, [fp, #-12]
  c4:	e283300a 	add	r3, r3, #10
  c8:	e1d330f0 	ldrsh	r3, [r3]
  cc:	e0823003 	add	r3, r2, r3
  d0:	e50b3020 	str	r3, [fp, #-32]	; 0xffffffe0
  d4:	e51b300c 	ldr	r3, [fp, #-12]
  d8:	e2833004 	add	r3, r3, #4
  dc:	e1d330f0 	ldrsh	r3, [r3]
  e0:	e1a02003 	mov	r2, r3
  e4:	e51b300c 	ldr	r3, [fp, #-12]
  e8:	e283300a 	add	r3, r3, #10
  ec:	e1d330f0 	ldrsh	r3, [r3]
  f0:	e0633002 	rsb	r3, r3, r2
  f4:	e50b3024 	str	r3, [fp, #-36]	; 0xffffffdc
  f8:	e51b300c 	ldr	r3, [fp, #-12]
  fc:	e2833006 	add	r3, r3, #6
 100:	e1d330f0 	ldrsh	r3, [r3]
 104:	e1a02003 	mov	r2, r3
 108:	e51b300c 	ldr	r3, [fp, #-12]
 10c:	e2833008 	add	r3, r3, #8
 110:	e1d330f0 	ldrsh	r3, [r3]
 114:	e0823003 	add	r3, r2, r3
 118:	e50b3028 	str	r3, [fp, #-40]	; 0xffffffd8
 11c:	e51b300c 	ldr	r3, [fp, #-12]
 120:	e2833006 	add	r3, r3, #6
 124:	e1d330f0 	ldrsh	r3, [r3]
 128:	e1a02003 	mov	r2, r3
 12c:	e51b300c 	ldr	r3, [fp, #-12]
 130:	e2833008 	add	r3, r3, #8
 134:	e1d330f0 	ldrsh	r3, [r3]
 138:	e0633002 	rsb	r3, r3, r2
 13c:	e50b302c 	str	r3, [fp, #-44]	; 0xffffffd4
 140:	e51b2010 	ldr	r2, [fp, #-16]
 144:	e51b3028 	ldr	r3, [fp, #-40]	; 0xffffffd8
 148:	e0823003 	add	r3, r2, r3
 14c:	e50b3030 	str	r3, [fp, #-48]	; 0xffffffd0
 150:	e51b2010 	ldr	r2, [fp, #-16]
 154:	e51b3028 	ldr	r3, [fp, #-40]	; 0xffffffd8
 158:	e0633002 	rsb	r3, r3, r2
 15c:	e50b3034 	str	r3, [fp, #-52]	; 0xffffffcc
 160:	e51b2018 	ldr	r2, [fp, #-24]	; 0xffffffe8
 164:	e51b3020 	ldr	r3, [fp, #-32]	; 0xffffffe0
 168:	e0823003 	add	r3, r2, r3
 16c:	e50b3038 	str	r3, [fp, #-56]	; 0xffffffc8
 170:	e51b2018 	ldr	r2, [fp, #-24]	; 0xffffffe8
 174:	e51b3020 	ldr	r3, [fp, #-32]	; 0xffffffe0
 178:	e0633002 	rsb	r3, r3, r2
 17c:	e50b303c 	str	r3, [fp, #-60]	; 0xffffffc4
 180:	e51b2030 	ldr	r2, [fp, #-48]	; 0xffffffd0
 184:	e51b3038 	ldr	r3, [fp, #-56]	; 0xffffffc8
 188:	e0823003 	add	r3, r2, r3
 18c:	e1a03103 	lsl	r3, r3, #2
 190:	e1a03803 	lsl	r3, r3, #16
 194:	e1a02843 	asr	r2, r3, #16
 198:	e51b300c 	ldr	r3, [fp, #-12]
 19c:	e1c320b0 	strh	r2, [r3]
 1a0:	e51b300c 	ldr	r3, [fp, #-12]
 1a4:	e2833008 	add	r3, r3, #8
 1a8:	e51b1030 	ldr	r1, [fp, #-48]	; 0xffffffd0
 1ac:	e51b2038 	ldr	r2, [fp, #-56]	; 0xffffffc8
 1b0:	e0622001 	rsb	r2, r2, r1
 1b4:	e1a02102 	lsl	r2, r2, #2
 1b8:	e1a02802 	lsl	r2, r2, #16
 1bc:	e1a02842 	asr	r2, r2, #16
 1c0:	e1c320b0 	strh	r2, [r3]
 1c4:	e59f3878 	ldr	r3, [pc, #2168]	; a44 <fdct+0xa44>
 1c8:	e50b3040 	str	r3, [fp, #-64]	; 0xffffffc0
 1cc:	e51b203c 	ldr	r2, [fp, #-60]	; 0xffffffc4
 1d0:	e51b3034 	ldr	r3, [fp, #-52]	; 0xffffffcc
 1d4:	e0823003 	add	r3, r2, r3
 1d8:	e51b2040 	ldr	r2, [fp, #-64]	; 0xffffffc0
 1dc:	e0030392 	mul	r3, r2, r3
 1e0:	e50b3044 	str	r3, [fp, #-68]	; 0xffffffbc
 1e4:	e59f385c 	ldr	r3, [pc, #2140]	; a48 <fdct+0xa48>
 1e8:	e50b3040 	str	r3, [fp, #-64]	; 0xffffffc0
 1ec:	e51b300c 	ldr	r3, [fp, #-12]
 1f0:	e2833004 	add	r3, r3, #4
 1f4:	e51b2034 	ldr	r2, [fp, #-52]	; 0xffffffcc
 1f8:	e51b1040 	ldr	r1, [fp, #-64]	; 0xffffffc0
 1fc:	e0010192 	mul	r1, r2, r1
 200:	e51b2044 	ldr	r2, [fp, #-68]	; 0xffffffbc
 204:	e0812002 	add	r2, r1, r2
 208:	e1a025c2 	asr	r2, r2, #11
 20c:	e1a02802 	lsl	r2, r2, #16
 210:	e1a02842 	asr	r2, r2, #16
 214:	e1c320b0 	strh	r2, [r3]
 218:	e59f382c 	ldr	r3, [pc, #2092]	; a4c <fdct+0xa4c>
 21c:	e50b3040 	str	r3, [fp, #-64]	; 0xffffffc0
 220:	e51b300c 	ldr	r3, [fp, #-12]
 224:	e283300c 	add	r3, r3, #12
 228:	e51b203c 	ldr	r2, [fp, #-60]	; 0xffffffc4
 22c:	e51b1040 	ldr	r1, [fp, #-64]	; 0xffffffc0
 230:	e0010192 	mul	r1, r2, r1
 234:	e51b2044 	ldr	r2, [fp, #-68]	; 0xffffffbc
 238:	e0812002 	add	r2, r1, r2
 23c:	e1a025c2 	asr	r2, r2, #11
 240:	e1a02802 	lsl	r2, r2, #16
 244:	e1a02842 	asr	r2, r2, #16
 248:	e1c320b0 	strh	r2, [r3]
 24c:	e51b202c 	ldr	r2, [fp, #-44]	; 0xffffffd4
 250:	e51b3014 	ldr	r3, [fp, #-20]	; 0xffffffec
 254:	e0823003 	add	r3, r2, r3
 258:	e50b3044 	str	r3, [fp, #-68]	; 0xffffffbc
 25c:	e51b2024 	ldr	r2, [fp, #-36]	; 0xffffffdc
 260:	e51b301c 	ldr	r3, [fp, #-28]	; 0xffffffe4
 264:	e0823003 	add	r3, r2, r3
 268:	e50b3048 	str	r3, [fp, #-72]	; 0xffffffb8
 26c:	e51b202c 	ldr	r2, [fp, #-44]	; 0xffffffd4
 270:	e51b301c 	ldr	r3, [fp, #-28]	; 0xffffffe4
 274:	e0823003 	add	r3, r2, r3
 278:	e50b304c 	str	r3, [fp, #-76]	; 0xffffffb4
 27c:	e51b2024 	ldr	r2, [fp, #-36]	; 0xffffffdc
 280:	e51b3014 	ldr	r3, [fp, #-20]	; 0xffffffec
 284:	e0823003 	add	r3, r2, r3
 288:	e50b3050 	str	r3, [fp, #-80]	; 0xffffffb0
 28c:	e59f37bc 	ldr	r3, [pc, #1980]	; a50 <fdct+0xa50>
 290:	e50b3040 	str	r3, [fp, #-64]	; 0xffffffc0
 294:	e51b204c 	ldr	r2, [fp, #-76]	; 0xffffffb4
 298:	e51b3050 	ldr	r3, [fp, #-80]	; 0xffffffb0
 29c:	e0823003 	add	r3, r2, r3
 2a0:	e51b2040 	ldr	r2, [fp, #-64]	; 0xffffffc0
 2a4:	e0030392 	mul	r3, r2, r3
 2a8:	e50b3054 	str	r3, [fp, #-84]	; 0xffffffac
 2ac:	e59f37a0 	ldr	r3, [pc, #1952]	; a54 <fdct+0xa54>
 2b0:	e50b3040 	str	r3, [fp, #-64]	; 0xffffffc0
 2b4:	e51b302c 	ldr	r3, [fp, #-44]	; 0xffffffd4
 2b8:	e51b2040 	ldr	r2, [fp, #-64]	; 0xffffffc0
 2bc:	e0030392 	mul	r3, r2, r3
 2c0:	e50b302c 	str	r3, [fp, #-44]	; 0xffffffd4
 2c4:	e59f378c 	ldr	r3, [pc, #1932]	; a58 <fdct+0xa58>
 2c8:	e50b3040 	str	r3, [fp, #-64]	; 0xffffffc0
 2cc:	e51b3024 	ldr	r3, [fp, #-36]	; 0xffffffdc
 2d0:	e51b2040 	ldr	r2, [fp, #-64]	; 0xffffffc0
 2d4:	e0030392 	mul	r3, r2, r3
 2d8:	e50b3024 	str	r3, [fp, #-36]	; 0xffffffdc
 2dc:	e59f3778 	ldr	r3, [pc, #1912]	; a5c <fdct+0xa5c>
 2e0:	e50b3040 	str	r3, [fp, #-64]	; 0xffffffc0
 2e4:	e51b301c 	ldr	r3, [fp, #-28]	; 0xffffffe4
 2e8:	e51b2040 	ldr	r2, [fp, #-64]	; 0xffffffc0
 2ec:	e0030392 	mul	r3, r2, r3
 2f0:	e50b301c 	str	r3, [fp, #-28]	; 0xffffffe4
 2f4:	e59f3764 	ldr	r3, [pc, #1892]	; a60 <fdct+0xa60>
 2f8:	e50b3040 	str	r3, [fp, #-64]	; 0xffffffc0
 2fc:	e51b3014 	ldr	r3, [fp, #-20]	; 0xffffffec
 300:	e51b2040 	ldr	r2, [fp, #-64]	; 0xffffffc0
 304:	e0030392 	mul	r3, r2, r3
 308:	e50b3014 	str	r3, [fp, #-20]	; 0xffffffec
 30c:	e59f3750 	ldr	r3, [pc, #1872]	; a64 <fdct+0xa64>
 310:	e50b3040 	str	r3, [fp, #-64]	; 0xffffffc0
 314:	e51b3044 	ldr	r3, [fp, #-68]	; 0xffffffbc
 318:	e51b2040 	ldr	r2, [fp, #-64]	; 0xffffffc0
 31c:	e0030392 	mul	r3, r2, r3
 320:	e50b3044 	str	r3, [fp, #-68]	; 0xffffffbc
 324:	e59f373c 	ldr	r3, [pc, #1852]	; a68 <fdct+0xa68>
 328:	e50b3040 	str	r3, [fp, #-64]	; 0xffffffc0
 32c:	e51b3048 	ldr	r3, [fp, #-72]	; 0xffffffb8
 330:	e51b2040 	ldr	r2, [fp, #-64]	; 0xffffffc0
 334:	e0030392 	mul	r3, r2, r3
 338:	e50b3048 	str	r3, [fp, #-72]	; 0xffffffb8
 33c:	e59f3728 	ldr	r3, [pc, #1832]	; a6c <fdct+0xa6c>
 340:	e50b3040 	str	r3, [fp, #-64]	; 0xffffffc0
 344:	e51b304c 	ldr	r3, [fp, #-76]	; 0xffffffb4
 348:	e51b2040 	ldr	r2, [fp, #-64]	; 0xffffffc0
 34c:	e0030392 	mul	r3, r2, r3
 350:	e50b304c 	str	r3, [fp, #-76]	; 0xffffffb4
 354:	e59f3714 	ldr	r3, [pc, #1812]	; a70 <fdct+0xa70>
 358:	e50b3040 	str	r3, [fp, #-64]	; 0xffffffc0
 35c:	e51b3050 	ldr	r3, [fp, #-80]	; 0xffffffb0
 360:	e51b2040 	ldr	r2, [fp, #-64]	; 0xffffffc0
 364:	e0030392 	mul	r3, r2, r3
 368:	e50b3050 	str	r3, [fp, #-80]	; 0xffffffb0
 36c:	e51b204c 	ldr	r2, [fp, #-76]	; 0xffffffb4
 370:	e51b3054 	ldr	r3, [fp, #-84]	; 0xffffffac
 374:	e0823003 	add	r3, r2, r3
 378:	e50b304c 	str	r3, [fp, #-76]	; 0xffffffb4
 37c:	e51b2050 	ldr	r2, [fp, #-80]	; 0xffffffb0
 380:	e51b3054 	ldr	r3, [fp, #-84]	; 0xffffffac
 384:	e0823003 	add	r3, r2, r3
 388:	e50b3050 	str	r3, [fp, #-80]	; 0xffffffb0
 38c:	e51b300c 	ldr	r3, [fp, #-12]
 390:	e283300e 	add	r3, r3, #14
 394:	e51b102c 	ldr	r1, [fp, #-44]	; 0xffffffd4
 398:	e51b2044 	ldr	r2, [fp, #-68]	; 0xffffffbc
 39c:	e0811002 	add	r1, r1, r2
 3a0:	e51b204c 	ldr	r2, [fp, #-76]	; 0xffffffb4
 3a4:	e0812002 	add	r2, r1, r2
 3a8:	e1a025c2 	asr	r2, r2, #11
 3ac:	e1a02802 	lsl	r2, r2, #16
 3b0:	e1a02842 	asr	r2, r2, #16
 3b4:	e1c320b0 	strh	r2, [r3]
 3b8:	e51b300c 	ldr	r3, [fp, #-12]
 3bc:	e283300a 	add	r3, r3, #10
 3c0:	e51b1024 	ldr	r1, [fp, #-36]	; 0xffffffdc
 3c4:	e51b2048 	ldr	r2, [fp, #-72]	; 0xffffffb8
 3c8:	e0811002 	add	r1, r1, r2
 3cc:	e51b2050 	ldr	r2, [fp, #-80]	; 0xffffffb0
 3d0:	e0812002 	add	r2, r1, r2
 3d4:	e1a025c2 	asr	r2, r2, #11
 3d8:	e1a02802 	lsl	r2, r2, #16
 3dc:	e1a02842 	asr	r2, r2, #16
 3e0:	e1c320b0 	strh	r2, [r3]
 3e4:	e51b300c 	ldr	r3, [fp, #-12]
 3e8:	e2833006 	add	r3, r3, #6
 3ec:	e51b101c 	ldr	r1, [fp, #-28]	; 0xffffffe4
 3f0:	e51b2048 	ldr	r2, [fp, #-72]	; 0xffffffb8
 3f4:	e0811002 	add	r1, r1, r2
 3f8:	e51b204c 	ldr	r2, [fp, #-76]	; 0xffffffb4
 3fc:	e0812002 	add	r2, r1, r2
 400:	e1a025c2 	asr	r2, r2, #11
 404:	e1a02802 	lsl	r2, r2, #16
 408:	e1a02842 	asr	r2, r2, #16
 40c:	e1c320b0 	strh	r2, [r3]
 410:	e51b300c 	ldr	r3, [fp, #-12]
 414:	e2833002 	add	r3, r3, #2
 418:	e51b1014 	ldr	r1, [fp, #-20]	; 0xffffffec
 41c:	e51b2044 	ldr	r2, [fp, #-68]	; 0xffffffbc
 420:	e0811002 	add	r1, r1, r2
 424:	e51b2050 	ldr	r2, [fp, #-80]	; 0xffffffb0
 428:	e0812002 	add	r2, r1, r2
 42c:	e1a025c2 	asr	r2, r2, #11
 430:	e1a02802 	lsl	r2, r2, #16
 434:	e1a02842 	asr	r2, r2, #16
 438:	e1c320b0 	strh	r2, [r3]
 43c:	e51b305c 	ldr	r3, [fp, #-92]	; 0xffffffa4
 440:	e1a03083 	lsl	r3, r3, #1
 444:	e51b200c 	ldr	r2, [fp, #-12]
 448:	e0823003 	add	r3, r2, r3
 44c:	e50b300c 	str	r3, [fp, #-12]
 450:	e51b3008 	ldr	r3, [fp, #-8]
 454:	e2833001 	add	r3, r3, #1
 458:	e50b3008 	str	r3, [fp, #-8]
 45c:	e51b3008 	ldr	r3, [fp, #-8]
 460:	e3530007 	cmp	r3, #7
 464:	dafffeef 	ble	28 <fdct+0x28>
 468:	e51b3058 	ldr	r3, [fp, #-88]	; 0xffffffa8
 46c:	e50b300c 	str	r3, [fp, #-12]
 470:	e3a03000 	mov	r3, #0
 474:	e50b3008 	str	r3, [fp, #-8]
 478:	ea00016a 	b	a28 <fdct+0xa28>
 47c:	e51b300c 	ldr	r3, [fp, #-12]
 480:	e1d330f0 	ldrsh	r3, [r3]
 484:	e1a01003 	mov	r1, r3
 488:	e51b205c 	ldr	r2, [fp, #-92]	; 0xffffffa4
 48c:	e1a03002 	mov	r3, r2
 490:	e1a03183 	lsl	r3, r3, #3
 494:	e0623003 	rsb	r3, r2, r3
 498:	e1a03083 	lsl	r3, r3, #1
 49c:	e1a02003 	mov	r2, r3
 4a0:	e51b300c 	ldr	r3, [fp, #-12]
 4a4:	e0833002 	add	r3, r3, r2
 4a8:	e1d330f0 	ldrsh	r3, [r3]
 4ac:	e0813003 	add	r3, r1, r3
 4b0:	e50b3010 	str	r3, [fp, #-16]
 4b4:	e51b300c 	ldr	r3, [fp, #-12]
 4b8:	e1d330f0 	ldrsh	r3, [r3]
 4bc:	e1a01003 	mov	r1, r3
 4c0:	e51b205c 	ldr	r2, [fp, #-92]	; 0xffffffa4
 4c4:	e1a03002 	mov	r3, r2
 4c8:	e1a03183 	lsl	r3, r3, #3
 4cc:	e0623003 	rsb	r3, r2, r3
 4d0:	e1a03083 	lsl	r3, r3, #1
 4d4:	e1a02003 	mov	r2, r3
 4d8:	e51b300c 	ldr	r3, [fp, #-12]
 4dc:	e0833002 	add	r3, r3, r2
 4e0:	e1d330f0 	ldrsh	r3, [r3]
 4e4:	e0633001 	rsb	r3, r3, r1
 4e8:	e50b3014 	str	r3, [fp, #-20]	; 0xffffffec
 4ec:	e51b305c 	ldr	r3, [fp, #-92]	; 0xffffffa4
 4f0:	e1a03083 	lsl	r3, r3, #1
 4f4:	e51b200c 	ldr	r2, [fp, #-12]
 4f8:	e0823003 	add	r3, r2, r3
 4fc:	e1d330f0 	ldrsh	r3, [r3]
 500:	e1a01003 	mov	r1, r3
 504:	e51b205c 	ldr	r2, [fp, #-92]	; 0xffffffa4
 508:	e1a03002 	mov	r3, r2
 50c:	e1a03083 	lsl	r3, r3, #1
 510:	e0833002 	add	r3, r3, r2
 514:	e1a03103 	lsl	r3, r3, #2
 518:	e1a02003 	mov	r2, r3
 51c:	e51b300c 	ldr	r3, [fp, #-12]
 520:	e0833002 	add	r3, r3, r2
 524:	e1d330f0 	ldrsh	r3, [r3]
 528:	e0813003 	add	r3, r1, r3
 52c:	e50b3018 	str	r3, [fp, #-24]	; 0xffffffe8
 530:	e51b305c 	ldr	r3, [fp, #-92]	; 0xffffffa4
 534:	e1a03083 	lsl	r3, r3, #1
 538:	e51b200c 	ldr	r2, [fp, #-12]
 53c:	e0823003 	add	r3, r2, r3
 540:	e1d330f0 	ldrsh	r3, [r3]
 544:	e1a01003 	mov	r1, r3
 548:	e51b205c 	ldr	r2, [fp, #-92]	; 0xffffffa4
 54c:	e1a03002 	mov	r3, r2
 550:	e1a03083 	lsl	r3, r3, #1
 554:	e0833002 	add	r3, r3, r2
 558:	e1a03103 	lsl	r3, r3, #2
 55c:	e1a02003 	mov	r2, r3
 560:	e51b300c 	ldr	r3, [fp, #-12]
 564:	e0833002 	add	r3, r3, r2
 568:	e1d330f0 	ldrsh	r3, [r3]
 56c:	e0633001 	rsb	r3, r3, r1
 570:	e50b301c 	str	r3, [fp, #-28]	; 0xffffffe4
 574:	e51b305c 	ldr	r3, [fp, #-92]	; 0xffffffa4
 578:	e1a03103 	lsl	r3, r3, #2
 57c:	e1a02003 	mov	r2, r3
 580:	e51b300c 	ldr	r3, [fp, #-12]
 584:	e0833002 	add	r3, r3, r2
 588:	e1d330f0 	ldrsh	r3, [r3]
 58c:	e1a01003 	mov	r1, r3
 590:	e51b205c 	ldr	r2, [fp, #-92]	; 0xffffffa4
 594:	e1a03002 	mov	r3, r2
 598:	e1a03103 	lsl	r3, r3, #2
 59c:	e0833002 	add	r3, r3, r2
 5a0:	e1a03083 	lsl	r3, r3, #1
 5a4:	e1a02003 	mov	r2, r3
 5a8:	e51b300c 	ldr	r3, [fp, #-12]
 5ac:	e0833002 	add	r3, r3, r2
 5b0:	e1d330f0 	ldrsh	r3, [r3]
 5b4:	e0813003 	add	r3, r1, r3
 5b8:	e50b3020 	str	r3, [fp, #-32]	; 0xffffffe0
 5bc:	e51b305c 	ldr	r3, [fp, #-92]	; 0xffffffa4
 5c0:	e1a03103 	lsl	r3, r3, #2
 5c4:	e1a02003 	mov	r2, r3
 5c8:	e51b300c 	ldr	r3, [fp, #-12]
 5cc:	e0833002 	add	r3, r3, r2
 5d0:	e1d330f0 	ldrsh	r3, [r3]
 5d4:	e1a01003 	mov	r1, r3
 5d8:	e51b205c 	ldr	r2, [fp, #-92]	; 0xffffffa4
 5dc:	e1a03002 	mov	r3, r2
 5e0:	e1a03103 	lsl	r3, r3, #2
 5e4:	e0833002 	add	r3, r3, r2
 5e8:	e1a03083 	lsl	r3, r3, #1
 5ec:	e1a02003 	mov	r2, r3
 5f0:	e51b300c 	ldr	r3, [fp, #-12]
 5f4:	e0833002 	add	r3, r3, r2
 5f8:	e1d330f0 	ldrsh	r3, [r3]
 5fc:	e0633001 	rsb	r3, r3, r1
 600:	e50b3024 	str	r3, [fp, #-36]	; 0xffffffdc
 604:	e51b205c 	ldr	r2, [fp, #-92]	; 0xffffffa4
 608:	e1a03002 	mov	r3, r2
 60c:	e1a03083 	lsl	r3, r3, #1
 610:	e0833002 	add	r3, r3, r2
 614:	e1a03083 	lsl	r3, r3, #1
 618:	e1a02003 	mov	r2, r3
 61c:	e51b300c 	ldr	r3, [fp, #-12]
 620:	e0833002 	add	r3, r3, r2
 624:	e1d330f0 	ldrsh	r3, [r3]
 628:	e1a02003 	mov	r2, r3
 62c:	e51b305c 	ldr	r3, [fp, #-92]	; 0xffffffa4
 630:	e1a03183 	lsl	r3, r3, #3
 634:	e1a01003 	mov	r1, r3
 638:	e51b300c 	ldr	r3, [fp, #-12]
 63c:	e0833001 	add	r3, r3, r1
 640:	e1d330f0 	ldrsh	r3, [r3]
 644:	e0823003 	add	r3, r2, r3
 648:	e50b3028 	str	r3, [fp, #-40]	; 0xffffffd8
 64c:	e51b205c 	ldr	r2, [fp, #-92]	; 0xffffffa4
 650:	e1a03002 	mov	r3, r2
 654:	e1a03083 	lsl	r3, r3, #1
 658:	e0833002 	add	r3, r3, r2
 65c:	e1a03083 	lsl	r3, r3, #1
 660:	e1a02003 	mov	r2, r3
 664:	e51b300c 	ldr	r3, [fp, #-12]
 668:	e0833002 	add	r3, r3, r2
 66c:	e1d330f0 	ldrsh	r3, [r3]
 670:	e1a02003 	mov	r2, r3
 674:	e51b305c 	ldr	r3, [fp, #-92]	; 0xffffffa4
 678:	e1a03183 	lsl	r3, r3, #3
 67c:	e1a01003 	mov	r1, r3
 680:	e51b300c 	ldr	r3, [fp, #-12]
 684:	e0833001 	add	r3, r3, r1
 688:	e1d330f0 	ldrsh	r3, [r3]
 68c:	e0633002 	rsb	r3, r3, r2
 690:	e50b302c 	str	r3, [fp, #-44]	; 0xffffffd4
 694:	e51b2010 	ldr	r2, [fp, #-16]
 698:	e51b3028 	ldr	r3, [fp, #-40]	; 0xffffffd8
 69c:	e0823003 	add	r3, r2, r3
 6a0:	e50b3030 	str	r3, [fp, #-48]	; 0xffffffd0
 6a4:	e51b2010 	ldr	r2, [fp, #-16]
 6a8:	e51b3028 	ldr	r3, [fp, #-40]	; 0xffffffd8
 6ac:	e0633002 	rsb	r3, r3, r2
 6b0:	e50b3034 	str	r3, [fp, #-52]	; 0xffffffcc
 6b4:	e51b2018 	ldr	r2, [fp, #-24]	; 0xffffffe8
 6b8:	e51b3020 	ldr	r3, [fp, #-32]	; 0xffffffe0
 6bc:	e0823003 	add	r3, r2, r3
 6c0:	e50b3038 	str	r3, [fp, #-56]	; 0xffffffc8
 6c4:	e51b2018 	ldr	r2, [fp, #-24]	; 0xffffffe8
 6c8:	e51b3020 	ldr	r3, [fp, #-32]	; 0xffffffe0
 6cc:	e0633002 	rsb	r3, r3, r2
 6d0:	e50b303c 	str	r3, [fp, #-60]	; 0xffffffc4
 6d4:	e51b2030 	ldr	r2, [fp, #-48]	; 0xffffffd0
 6d8:	e51b3038 	ldr	r3, [fp, #-56]	; 0xffffffc8
 6dc:	e0823003 	add	r3, r2, r3
 6e0:	e1a032c3 	asr	r3, r3, #5
 6e4:	e1a03803 	lsl	r3, r3, #16
 6e8:	e1a02843 	asr	r2, r3, #16
 6ec:	e51b300c 	ldr	r3, [fp, #-12]
 6f0:	e1c320b0 	strh	r2, [r3]
 6f4:	e51b305c 	ldr	r3, [fp, #-92]	; 0xffffffa4
 6f8:	e1a03183 	lsl	r3, r3, #3
 6fc:	e1a02003 	mov	r2, r3
 700:	e51b300c 	ldr	r3, [fp, #-12]
 704:	e0833002 	add	r3, r3, r2
 708:	e51b1030 	ldr	r1, [fp, #-48]	; 0xffffffd0
 70c:	e51b2038 	ldr	r2, [fp, #-56]	; 0xffffffc8
 710:	e0622001 	rsb	r2, r2, r1
 714:	e1a022c2 	asr	r2, r2, #5
 718:	e1a02802 	lsl	r2, r2, #16
 71c:	e1a02842 	asr	r2, r2, #16
 720:	e1c320b0 	strh	r2, [r3]
 724:	e59f3318 	ldr	r3, [pc, #792]	; a44 <fdct+0xa44>
 728:	e50b3040 	str	r3, [fp, #-64]	; 0xffffffc0
 72c:	e51b203c 	ldr	r2, [fp, #-60]	; 0xffffffc4
 730:	e51b3034 	ldr	r3, [fp, #-52]	; 0xffffffcc
 734:	e0823003 	add	r3, r2, r3
 738:	e51b2040 	ldr	r2, [fp, #-64]	; 0xffffffc0
 73c:	e0030392 	mul	r3, r2, r3
 740:	e50b3044 	str	r3, [fp, #-68]	; 0xffffffbc
 744:	e59f32fc 	ldr	r3, [pc, #764]	; a48 <fdct+0xa48>
 748:	e50b3040 	str	r3, [fp, #-64]	; 0xffffffc0
 74c:	e51b305c 	ldr	r3, [fp, #-92]	; 0xffffffa4
 750:	e1a03103 	lsl	r3, r3, #2
 754:	e1a02003 	mov	r2, r3
 758:	e51b300c 	ldr	r3, [fp, #-12]
 75c:	e0833002 	add	r3, r3, r2
 760:	e51b2034 	ldr	r2, [fp, #-52]	; 0xffffffcc
 764:	e51b1040 	ldr	r1, [fp, #-64]	; 0xffffffc0
 768:	e0010192 	mul	r1, r2, r1
 76c:	e51b2044 	ldr	r2, [fp, #-68]	; 0xffffffbc
 770:	e0812002 	add	r2, r1, r2
 774:	e1a02942 	asr	r2, r2, #18
 778:	e1a02802 	lsl	r2, r2, #16
 77c:	e1a02842 	asr	r2, r2, #16
 780:	e1c320b0 	strh	r2, [r3]
 784:	e59f32c0 	ldr	r3, [pc, #704]	; a4c <fdct+0xa4c>
 788:	e50b3040 	str	r3, [fp, #-64]	; 0xffffffc0
 78c:	e51b205c 	ldr	r2, [fp, #-92]	; 0xffffffa4
 790:	e1a03002 	mov	r3, r2
 794:	e1a03083 	lsl	r3, r3, #1
 798:	e0833002 	add	r3, r3, r2
 79c:	e1a03103 	lsl	r3, r3, #2
 7a0:	e1a02003 	mov	r2, r3
 7a4:	e51b300c 	ldr	r3, [fp, #-12]
 7a8:	e0833002 	add	r3, r3, r2
 7ac:	e51b203c 	ldr	r2, [fp, #-60]	; 0xffffffc4
 7b0:	e51b1040 	ldr	r1, [fp, #-64]	; 0xffffffc0
 7b4:	e0010192 	mul	r1, r2, r1
 7b8:	e51b2044 	ldr	r2, [fp, #-68]	; 0xffffffbc
 7bc:	e0812002 	add	r2, r1, r2
 7c0:	e1a02942 	asr	r2, r2, #18
 7c4:	e1a02802 	lsl	r2, r2, #16
 7c8:	e1a02842 	asr	r2, r2, #16
 7cc:	e1c320b0 	strh	r2, [r3]
 7d0:	e51b202c 	ldr	r2, [fp, #-44]	; 0xffffffd4
 7d4:	e51b3014 	ldr	r3, [fp, #-20]	; 0xffffffec
 7d8:	e0823003 	add	r3, r2, r3
 7dc:	e50b3044 	str	r3, [fp, #-68]	; 0xffffffbc
 7e0:	e51b2024 	ldr	r2, [fp, #-36]	; 0xffffffdc
 7e4:	e51b301c 	ldr	r3, [fp, #-28]	; 0xffffffe4
 7e8:	e0823003 	add	r3, r2, r3
 7ec:	e50b3048 	str	r3, [fp, #-72]	; 0xffffffb8
 7f0:	e51b202c 	ldr	r2, [fp, #-44]	; 0xffffffd4
 7f4:	e51b301c 	ldr	r3, [fp, #-28]	; 0xffffffe4
 7f8:	e0823003 	add	r3, r2, r3
 7fc:	e50b304c 	str	r3, [fp, #-76]	; 0xffffffb4
 800:	e51b2024 	ldr	r2, [fp, #-36]	; 0xffffffdc
 804:	e51b3014 	ldr	r3, [fp, #-20]	; 0xffffffec
 808:	e0823003 	add	r3, r2, r3
 80c:	e50b3050 	str	r3, [fp, #-80]	; 0xffffffb0
 810:	e59f3238 	ldr	r3, [pc, #568]	; a50 <fdct+0xa50>
 814:	e50b3040 	str	r3, [fp, #-64]	; 0xffffffc0
 818:	e51b204c 	ldr	r2, [fp, #-76]	; 0xffffffb4
 81c:	e51b3050 	ldr	r3, [fp, #-80]	; 0xffffffb0
 820:	e0823003 	add	r3, r2, r3
 824:	e51b2040 	ldr	r2, [fp, #-64]	; 0xffffffc0
 828:	e0030392 	mul	r3, r2, r3
 82c:	e50b3054 	str	r3, [fp, #-84]	; 0xffffffac
 830:	e59f321c 	ldr	r3, [pc, #540]	; a54 <fdct+0xa54>
 834:	e50b3040 	str	r3, [fp, #-64]	; 0xffffffc0
 838:	e51b302c 	ldr	r3, [fp, #-44]	; 0xffffffd4
 83c:	e51b2040 	ldr	r2, [fp, #-64]	; 0xffffffc0
 840:	e0030392 	mul	r3, r2, r3
 844:	e50b302c 	str	r3, [fp, #-44]	; 0xffffffd4
 848:	e59f3208 	ldr	r3, [pc, #520]	; a58 <fdct+0xa58>
 84c:	e50b3040 	str	r3, [fp, #-64]	; 0xffffffc0
 850:	e51b3024 	ldr	r3, [fp, #-36]	; 0xffffffdc
 854:	e51b2040 	ldr	r2, [fp, #-64]	; 0xffffffc0
 858:	e0030392 	mul	r3, r2, r3
 85c:	e50b3024 	str	r3, [fp, #-36]	; 0xffffffdc
 860:	e59f31f4 	ldr	r3, [pc, #500]	; a5c <fdct+0xa5c>
 864:	e50b3040 	str	r3, [fp, #-64]	; 0xffffffc0
 868:	e51b301c 	ldr	r3, [fp, #-28]	; 0xffffffe4
 86c:	e51b2040 	ldr	r2, [fp, #-64]	; 0xffffffc0
 870:	e0030392 	mul	r3, r2, r3
 874:	e50b301c 	str	r3, [fp, #-28]	; 0xffffffe4
 878:	e59f31e0 	ldr	r3, [pc, #480]	; a60 <fdct+0xa60>
 87c:	e50b3040 	str	r3, [fp, #-64]	; 0xffffffc0
 880:	e51b3014 	ldr	r3, [fp, #-20]	; 0xffffffec
 884:	e51b2040 	ldr	r2, [fp, #-64]	; 0xffffffc0
 888:	e0030392 	mul	r3, r2, r3
 88c:	e50b3014 	str	r3, [fp, #-20]	; 0xffffffec
 890:	e59f31cc 	ldr	r3, [pc, #460]	; a64 <fdct+0xa64>
 894:	e50b3040 	str	r3, [fp, #-64]	; 0xffffffc0
 898:	e51b3044 	ldr	r3, [fp, #-68]	; 0xffffffbc
 89c:	e51b2040 	ldr	r2, [fp, #-64]	; 0xffffffc0
 8a0:	e0030392 	mul	r3, r2, r3
 8a4:	e50b3044 	str	r3, [fp, #-68]	; 0xffffffbc
 8a8:	e59f31b8 	ldr	r3, [pc, #440]	; a68 <fdct+0xa68>
 8ac:	e50b3040 	str	r3, [fp, #-64]	; 0xffffffc0
 8b0:	e51b3048 	ldr	r3, [fp, #-72]	; 0xffffffb8
 8b4:	e51b2040 	ldr	r2, [fp, #-64]	; 0xffffffc0
 8b8:	e0030392 	mul	r3, r2, r3
 8bc:	e50b3048 	str	r3, [fp, #-72]	; 0xffffffb8
 8c0:	e59f31a4 	ldr	r3, [pc, #420]	; a6c <fdct+0xa6c>
 8c4:	e50b3040 	str	r3, [fp, #-64]	; 0xffffffc0
 8c8:	e51b304c 	ldr	r3, [fp, #-76]	; 0xffffffb4
 8cc:	e51b2040 	ldr	r2, [fp, #-64]	; 0xffffffc0
 8d0:	e0030392 	mul	r3, r2, r3
 8d4:	e50b304c 	str	r3, [fp, #-76]	; 0xffffffb4
 8d8:	e59f3190 	ldr	r3, [pc, #400]	; a70 <fdct+0xa70>
 8dc:	e50b3040 	str	r3, [fp, #-64]	; 0xffffffc0
 8e0:	e51b3050 	ldr	r3, [fp, #-80]	; 0xffffffb0
 8e4:	e51b2040 	ldr	r2, [fp, #-64]	; 0xffffffc0
 8e8:	e0030392 	mul	r3, r2, r3
 8ec:	e50b3050 	str	r3, [fp, #-80]	; 0xffffffb0
 8f0:	e51b204c 	ldr	r2, [fp, #-76]	; 0xffffffb4
 8f4:	e51b3054 	ldr	r3, [fp, #-84]	; 0xffffffac
 8f8:	e0823003 	add	r3, r2, r3
 8fc:	e50b304c 	str	r3, [fp, #-76]	; 0xffffffb4
 900:	e51b2050 	ldr	r2, [fp, #-80]	; 0xffffffb0
 904:	e51b3054 	ldr	r3, [fp, #-84]	; 0xffffffac
 908:	e0823003 	add	r3, r2, r3
 90c:	e50b3050 	str	r3, [fp, #-80]	; 0xffffffb0
 910:	e51b205c 	ldr	r2, [fp, #-92]	; 0xffffffa4
 914:	e1a03002 	mov	r3, r2
 918:	e1a03183 	lsl	r3, r3, #3
 91c:	e0623003 	rsb	r3, r2, r3
 920:	e1a03083 	lsl	r3, r3, #1
 924:	e1a02003 	mov	r2, r3
 928:	e51b300c 	ldr	r3, [fp, #-12]
 92c:	e0833002 	add	r3, r3, r2
 930:	e51b102c 	ldr	r1, [fp, #-44]	; 0xffffffd4
 934:	e51b2044 	ldr	r2, [fp, #-68]	; 0xffffffbc
 938:	e0811002 	add	r1, r1, r2
 93c:	e51b204c 	ldr	r2, [fp, #-76]	; 0xffffffb4
 940:	e0812002 	add	r2, r1, r2
 944:	e1a02942 	asr	r2, r2, #18
 948:	e1a02802 	lsl	r2, r2, #16
 94c:	e1a02842 	asr	r2, r2, #16
 950:	e1c320b0 	strh	r2, [r3]
 954:	e51b205c 	ldr	r2, [fp, #-92]	; 0xffffffa4
 958:	e1a03002 	mov	r3, r2
 95c:	e1a03103 	lsl	r3, r3, #2
 960:	e0833002 	add	r3, r3, r2
 964:	e1a03083 	lsl	r3, r3, #1
 968:	e1a02003 	mov	r2, r3
 96c:	e51b300c 	ldr	r3, [fp, #-12]
 970:	e0833002 	add	r3, r3, r2
 974:	e51b1024 	ldr	r1, [fp, #-36]	; 0xffffffdc
 978:	e51b2048 	ldr	r2, [fp, #-72]	; 0xffffffb8
 97c:	e0811002 	add	r1, r1, r2
 980:	e51b2050 	ldr	r2, [fp, #-80]	; 0xffffffb0
 984:	e0812002 	add	r2, r1, r2
 988:	e1a02942 	asr	r2, r2, #18
 98c:	e1a02802 	lsl	r2, r2, #16
 990:	e1a02842 	asr	r2, r2, #16
 994:	e1c320b0 	strh	r2, [r3]
 998:	e51b205c 	ldr	r2, [fp, #-92]	; 0xffffffa4
 99c:	e1a03002 	mov	r3, r2
 9a0:	e1a03083 	lsl	r3, r3, #1
 9a4:	e0833002 	add	r3, r3, r2
 9a8:	e1a03083 	lsl	r3, r3, #1
 9ac:	e1a02003 	mov	r2, r3
 9b0:	e51b300c 	ldr	r3, [fp, #-12]
 9b4:	e0833002 	add	r3, r3, r2
 9b8:	e51b101c 	ldr	r1, [fp, #-28]	; 0xffffffe4
 9bc:	e51b2048 	ldr	r2, [fp, #-72]	; 0xffffffb8
 9c0:	e0811002 	add	r1, r1, r2
 9c4:	e51b204c 	ldr	r2, [fp, #-76]	; 0xffffffb4
 9c8:	e0812002 	add	r2, r1, r2
 9cc:	e1a02942 	asr	r2, r2, #18
 9d0:	e1a02802 	lsl	r2, r2, #16
 9d4:	e1a02842 	asr	r2, r2, #16
 9d8:	e1c320b0 	strh	r2, [r3]
 9dc:	e51b305c 	ldr	r3, [fp, #-92]	; 0xffffffa4
 9e0:	e1a03083 	lsl	r3, r3, #1
 9e4:	e51b200c 	ldr	r2, [fp, #-12]
 9e8:	e0823003 	add	r3, r2, r3
 9ec:	e51b1014 	ldr	r1, [fp, #-20]	; 0xffffffec
 9f0:	e51b2044 	ldr	r2, [fp, #-68]	; 0xffffffbc
 9f4:	e0811002 	add	r1, r1, r2
 9f8:	e51b2050 	ldr	r2, [fp, #-80]	; 0xffffffb0
 9fc:	e0812002 	add	r2, r1, r2
 a00:	e1a02942 	asr	r2, r2, #18
 a04:	e1a02802 	lsl	r2, r2, #16
 a08:	e1a02842 	asr	r2, r2, #16
 a0c:	e1c320b0 	strh	r2, [r3]
 a10:	e51b300c 	ldr	r3, [fp, #-12]
 a14:	e2833002 	add	r3, r3, #2
 a18:	e50b300c 	str	r3, [fp, #-12]
 a1c:	e51b3008 	ldr	r3, [fp, #-8]
 a20:	e2833001 	add	r3, r3, #1
 a24:	e50b3008 	str	r3, [fp, #-8]
 a28:	e51b3008 	ldr	r3, [fp, #-8]
 a2c:	e3530007 	cmp	r3, #7
 a30:	dafffe91 	ble	47c <fdct+0x47c>
 a34:	e1a00000 	nop			; (mov r0, r0)
 a38:	e24bd000 	sub	sp, fp, #0
 a3c:	e49db004 	pop	{fp}		; (ldr fp, [sp], #4)
 a40:	e12fff1e 	bx	lr
 a44:	00001151 	.word	0x00001151
 a48:	0000187e 	.word	0x0000187e
 a4c:	ffffc4df 	.word	0xffffc4df
 a50:	000025a1 	.word	0x000025a1
 a54:	0000098e 	.word	0x0000098e
 a58:	000041b3 	.word	0x000041b3
 a5c:	00006254 	.word	0x00006254
 a60:	0000300b 	.word	0x0000300b
 a64:	ffffe333 	.word	0xffffe333
 a68:	ffffadfd 	.word	0xffffadfd
 a6c:	ffffc13b 	.word	0xffffc13b
 a70:	fffff384 	.word	0xfffff384

00000a74 <main>:
 a74:	e92d4800 	push	{fp, lr}
 a78:	e28db004 	add	fp, sp, #4
 a7c:	e3a01008 	mov	r1, #8
 a80:	e59f0018 	ldr	r0, [pc, #24]	; aa0 <main+0x2c>
 a84:	ebfffffe 	bl	0 <fdct>
 a88:	e59f3010 	ldr	r3, [pc, #16]	; aa0 <main+0x2c>
 a8c:	e1d330f0 	ldrsh	r3, [r3]
 a90:	e1a00003 	mov	r0, r3
 a94:	e24bd004 	sub	sp, fp, #4
 a98:	e8bd4800 	pop	{fp, lr}
 a9c:	e12fff1e 	bx	lr
 aa0:	00000000 	.word	0x00000000
